<?xml version="1.0" encoding="UTF-8" standalone="no"?>
<!-- Created with Inkscape (http://www.inkscape.org/) -->

<svg
   xmlns:dc="http://purl.org/dc/elements/1.1/"
   xmlns:cc="http://creativecommons.org/ns#"
   xmlns:rdf="http://www.w3.org/1999/02/22-rdf-syntax-ns#"
   xmlns:svg="http://www.w3.org/2000/svg"
   xmlns="http://www.w3.org/2000/svg"
   xmlns:sodipodi="http://sodipodi.sourceforge.net/DTD/sodipodi-0.dtd"
   xmlns:inkscape="http://www.inkscape.org/namespaces/inkscape"
   width="123.82836mm"
   height="32.215748mm"
   viewBox="0 0 438.76191 114.15029"
   id="svg2"
   version="1.1"
   inkscape:version="0.91 r13725"
   sodipodi:docname="dear-you.svg">
  <defs
     id="defs4" />
  <sodipodi:namedview
     id="base"
     pagecolor="#ffffff"
     bordercolor="#666666"
     borderopacity="1.0"
     inkscape:pageopacity="0.0"
     inkscape:pageshadow="2"
     inkscape:zoom="0.98994949"
     inkscape:cx="365.51891"
     inkscape:cy="-126.56173"
     inkscape:document-units="px"
     inkscape:current-layer="layer1"
     showgrid="false"
     borderlayer="true"
     inkscape:showpageshadow="false"
     fit-margin-top="2"
     fit-margin-left="2"
     fit-margin-right="2"
     fit-margin-bottom="2"
     inkscape:window-width="1920"
     inkscape:window-height="1031"
     inkscape:window-x="0"
     inkscape:window-y="27"
     inkscape:window-maximized="1" />
  <metadata
     id="metadata7">
    <rdf:RDF>
      <cc:Work
         rdf:about="">
        <dc:format>image/svg+xml</dc:format>
        <dc:type
           rdf:resource="http://purl.org/dc/dcmitype/StillImage" />
        <dc:title></dc:title>
      </cc:Work>
    </rdf:RDF>
  </metadata>
  <g
     inkscape:label="Layer 1"
     inkscape:groupmode="layer"
     id="layer1"
     transform="translate(-901.43435,-30.505786)">
    <g
       style="font-style:normal;font-weight:normal;font-size:57.91117859px;line-height:125%;font-family:sans-serif;letter-spacing:0px;word-spacing:0px;fill:#000000;fill-opacity:1;stroke:none;stroke-width:1px;stroke-linecap:butt;stroke-linejoin:miter;stroke-opacity:1"
       id="text4136">
      <path
         d="m 957.49876,41.241892 c 2.49018,0.405378 5.09618,1.44778 7.12307,2.895559 3.12721,2.258536 4.57499,4.980361 5.26992,9.729078 0.86867,6.138585 0.23164,15.23064 -1.67942,22.58536 -0.17374,0.694934 -0.28956,1.331957 -0.34747,1.389868 0,0.05791 -0.0579,0.115822 -0.0579,0.115822 -0.11583,0 -2.49018,-1.50569 -3.41676,-2.142713 -3.06929,-2.142714 -5.61739,-4.459161 -8.10757,-7.296809 -4.86454,-5.559473 -7.64427,-10.945213 -8.86041,-17.083797 -0.28955,-1.389869 -0.28955,-1.853158 -0.28955,-3.011382 0,-3.069292 1.38986,-4.864539 3.82213,-6.196496 0.98449,-0.463289 2.49018,-1.042401 3.76423,-1.042401 0.34747,-0.05791 2.20063,0 2.77974,0.05791 z m -13.55122,11.003124 c 1.10031,5.501562 3.47467,10.597746 7.12308,15.520196 4.28542,5.675295 8.91832,9.902811 15.17273,13.377482 l 0.46328,0.289556 c -1.50569,4.574983 -4.1696,8.976233 -6.89143,11.987614 -4.05378,4.574983 -9.72907,6.543963 -18.58948,5.849029 -5.26992,-0.521201 -7.70219,-1.274046 -10.25028,-3.822138 l 0.46329,-0.637023 c 1.10031,-1.331957 1.79524,-2.432269 2.66391,-4.111693 1.73734,-3.41676 3.70632,-8.8025 4.69081,-12.856282 0.69493,-2.779737 1.10031,-5.212006 1.91107,-10.945213 0.63702,-4.574983 1.0424,-7.007252 1.67942,-9.8449 0.40538,-1.911069 1.38987,-5.675296 1.44778,-5.617384 l 0.11582,0.810756 z m -23.74358,39.147957 c 2.0848,0.694934 3.53258,1.563602 5.03827,3.069292 l 0.81076,0.810757 -0.23165,0.173733 c -1.96898,1.795247 -5.212,3.474671 -7.81801,4.053783 -3.6484,0.752842 -5.79111,-1.216135 -5.96485,-4.169605 -0.0579,-1.621513 0.69494,-3.185115 1.91107,-4.053783 1.85316,-1.100312 4.16961,-0.637023 6.25441,0.115823 z m 54.43651,-6.138585 c 0.92658,0 1.73733,-0.637023 1.73733,-1.737336 0,-0.347467 0,-0.463289 -0.17373,-0.752845 -0.28956,-0.637023 -0.46329,-0.752845 -1.38987,-1.100312 -0.63702,-0.289556 -3.76423,-1.853158 -3.82214,-1.853158 0,-0.05791 0.11582,-0.521201 0.28956,-1.042401 1.15822,-4.053783 1.96898,-8.686677 2.31645,-13.72495 0.57911,-6.89143 0,-13.030015 -1.5057,-16.852152 -0.75284,-1.911069 -1.73733,-3.532582 -3.06929,-4.922451 -3.35885,-3.47467 -8.74459,-5.733206 -13.4933,-5.675295 -0.5212,0 -1.10032,0.05791 -1.38987,0.05791 -1.21614,0.173734 -2.72183,0.579112 -3.93796,0.810757 -2.31645,0.463289 -4.86454,2.026891 -6.13859,3.706315 -1.44778,1.737335 -2.43227,4.053782 -3.76422,8.744588 -1.44778,4.864539 -2.14272,8.397121 -3.0693,15.114818 -0.81075,5.964851 -1.21613,8.281298 -1.91106,11.118946 -1.10032,4.574983 -3.53259,10.82939 -5.26992,13.609127 -0.28956,0.463289 -1.44778,2.026891 -1.44778,2.026891 0,0 -0.40538,-0.405378 -0.92658,-0.868668 -1.38987,-1.331957 -2.606,-2.200624 -4.1696,-3.011381 -4.92245,-2.374358 -9.61326,-2.606003 -12.74046,0.463289 -2.49018,2.663915 -2.95347,6.717697 -1.15823,9.960723 1.38987,2.374357 3.64841,3.764227 6.48605,3.880047 3.41676,0.11583 7.93384,-1.73733 11.81389,-4.864537 l 0.5212,-0.405378 c 3.1272,3.185115 6.42814,4.285425 12.56672,4.864535 8.2813,0.69494 14.53571,-0.92657 18.82113,-4.517068 3.64841,-2.895559 7.29681,-8.281299 9.61326,-14.188239 0.23164,-0.463289 0.40538,-0.868667 0.40538,-0.868667 0,-0.115823 4.05378,2.026891 4.80663,2.026891 z"
         style="font-style:normal;font-variant:normal;font-weight:normal;font-stretch:normal;font-size:57.91117859px;line-height:125%;font-family:herscheyscript;-inkscape-font-specification:'herscheyscript, Normal';text-align:start;writing-mode:lr-tb;text-anchor:start"
         id="path4143"
         inkscape:connector-curvature="0" />
      <path
         d="m 1014.1223,84.675276 c -0.8686,0 -1.274,0.347467 -1.9111,1.563602 -1.5636,3.011381 -3.7063,6.080674 -5.9648,8.570854 -2.2006,2.374359 -4.575,3.822138 -7.12308,4.40125 -2.77973,0.579112 -6.31232,0 -8.51294,-1.389868 -0.40538,-0.231645 -1.10031,-0.868668 -1.33196,-1.042402 l -0.11582,-0.173733 c 5.26992,-1.505691 9.61326,-5.617385 11.5822,-10.771479 0.8108,-2.084803 1.2162,-4.111694 1.1583,-5.849029 -0.1159,-2.721826 -1.2162,-4.748717 -2.83769,-5.964852 -2.37436,-1.795246 -6.37023,-1.100312 -8.8025,0.115823 -3.30093,1.447779 -5.44365,4.053782 -6.54396,7.991742 -1.38987,4.690806 -0.92658,10.30819 1.0424,14.304061 1.79525,3.532582 4.98036,5.617385 9.78699,6.370225 0.63702,0.11583 1.0424,0.11583 2.25854,0.11583 5.03822,0 8.22342,-1.91107 10.88732,-4.574986 2.7218,-2.606003 5.7911,-6.775608 7.7022,-10.539834 0.4633,-0.926579 0.4633,-0.98449 0.4633,-1.389869 0,-0.926578 -0.6371,-1.737335 -1.7374,-1.737335 z m -18.06827,-8.223387 c 2.54809,0.637023 2.77974,4.053782 1.73734,7.180986 -1.27405,3.880049 -3.88005,6.89143 -7.52846,8.744588 -0.75284,0.347467 -2.37436,0.98449 -2.77973,1.042401 -0.17374,0.05791 -0.28956,-0.289556 -0.5212,-1.331957 -0.69494,-2.721826 -0.69494,-5.501562 -0.0579,-8.281299 0.86867,-3.822137 2.72183,-5.964851 6.13859,-6.949341 1.33196,-0.405378 2.37436,-0.521201 3.01138,-0.405378 z"
         style="font-style:normal;font-variant:normal;font-weight:normal;font-stretch:normal;font-size:57.91117859px;line-height:125%;font-family:herscheyscript;-inkscape-font-specification:'herscheyscript, Normal';text-align:start;writing-mode:lr-tb;text-anchor:start"
         id="path4145"
         inkscape:connector-curvature="0" />
      <path
         d="m 1052.5962,76.278155 c 2.2006,0.637023 2.3743,1.621513 1.4477,3.880049 -0.2316,0.521201 -1.2161,2.548092 -1.274,2.548092 0,0 -0.058,-0.405378 -0.1737,-0.810757 -0.3475,-1.274045 -0.8687,-2.49018 -1.5636,-3.590493 -0.4633,-0.579111 -0.4633,-0.579111 -0.2317,-1.158223 0.3475,-1.042401 0.7529,-1.216135 1.7953,-0.868668 z m -7.7022,1.274046 c 0.5212,0.289556 1.5057,1.042401 1.911,1.274046 l -0.058,0.579112 c -0.1158,1.158223 -0.1737,3.011381 -0.1737,6.196496 0,3.243026 -0.058,5.443651 -0.1737,6.543963 -0.5212,4.92245 -6.4282,8.455032 -12.9721,6.833519 -3.5326,-0.868668 -5.6174,-2.95347 -6.4861,-6.486052 -0.8687,-3.358848 -0.4633,-6.37023 1.2161,-9.149966 1.969,-3.300937 5.27,-5.849029 8.513,-6.717697 2.606,-0.752845 6.3702,-0.05791 8.2234,0.926579 z m 6.0806,7.702187 0.3475,0 c -0.1158,0.115822 -1.0424,2.084802 -1.2161,2.084802 l 0,-2.316447 c 0.1737,0 0.5791,0.231645 0.8686,0.231645 z m 20.3848,-0.579112 c -0.8687,0 -1.2741,0.347467 -1.9111,1.563602 -1.6794,3.243026 -3.9959,6.486052 -6.3702,8.976233 -1.1582,1.216134 -2.7218,2.374358 -4.0538,3.069292 -1.6794,0.810757 -3.4747,1.216135 -4.4013,0.98449 -1.6794,-0.463289 -3.3009,-3.995871 -2.606,-7.238897 0.2896,-1.274046 0.4633,-1.737336 3.0114,-6.138585 2.3744,-4.111694 3.1272,-6.138585 3.0693,-8.107565 -0.1158,-1.96898 -1.1003,-3.358849 -3.0114,-4.343339 -2.7797,-1.389868 -5.5594,-1.042401 -6.9493,1.158224 -0.1737,0.289556 -0.2896,0.521201 -0.3475,0.521201 -2.2585,-1.505691 -5.7332,-2.43227 -8.8025,-2.374359 -3.4167,0.115823 -6.2544,1.274046 -9.2658,3.590493 -0.8107,0.579112 -2.4901,2.258536 -3.0693,3.011382 -2.606,3.300937 -3.8221,6.601874 -3.7063,10.250278 0.1738,4.517072 1.9111,8.33921 4.8646,10.597744 4.0538,3.12721 10.7714,3.53258 15.5781,1.21614 2.1427,-1.10032 3.9379,-2.663918 5.0382,-4.517075 l 0.2317,-0.347467 c 0,0 0.058,0.115822 0.1158,0.289556 0.1737,0.926578 1.0424,2.663914 1.6215,3.474666 1.2162,1.56361 2.7219,2.43227 4.575,2.5481 2.5481,0.11582 6.0228,-1.21614 8.7446,-3.416763 2.9535,-2.374359 6.6598,-7.238898 8.9183,-11.640147 0.4633,-0.926579 0.4633,-0.98449 0.4633,-1.389869 0,-0.926578 -0.6949,-1.737335 -1.7373,-1.737335 z"
         style="font-style:normal;font-variant:normal;font-weight:normal;font-stretch:normal;font-size:57.91117859px;line-height:125%;font-family:herscheyscript;-inkscape-font-specification:'herscheyscript, Normal';text-align:start;writing-mode:lr-tb;text-anchor:start"
         id="path4147"
         inkscape:connector-curvature="0" />
      <path
         d="m 1119.6157,84.675276 c -0.8687,0 -1.2741,0.347467 -1.9111,1.563602 -2.0848,3.995871 -5.3278,8.281298 -7.8759,10.424012 -1.8532,1.505691 -4.0538,2.490181 -5.907,2.663914 -2.0268,0.115823 -3.243,-1.216135 -2.8376,-3.532582 0.1737,-1.274046 0.5212,-2.374358 1.5057,-4.92245 1.2161,-3.127204 1.6215,-4.632894 1.7952,-6.37023 0.2896,-2.779736 -0.4633,-5.385739 -1.9689,-6.949341 -0.8108,-0.868668 -1.9111,-1.505691 -3.3589,-1.621513 -1.0424,-0.05791 -1.8532,0.115822 -3.9959,0.868668 -1.3319,0.5212 -2.0269,0.694934 -2.3164,0.694934 -0.1737,0 -0.2317,-0.05791 -0.3475,-0.173734 -0.1158,-0.231644 -0.058,-0.463289 0.3475,-1.737335 0.8687,-2.43227 0.637,-4.169605 -1.3899,-5.269917 -1.4478,-0.694934 -2.8376,-0.347467 -3.7642,0.579112 -1.4478,1.447779 -1.9111,3.995871 -1.5636,6.775607 0.3475,3.648405 -1.5636,6.196497 -4.2854,6.949342 -1.1004,0.405378 -1.9111,1.274046 -1.3899,2.490181 0.4633,0.926578 1.2161,1.389868 2.6639,0.868667 2.7797,-0.98449 4.9804,-3.069292 5.9649,-5.791118 0.2895,-0.694934 0.5212,-1.621513 0.5791,-2.142713 0,-0.231645 0,-0.46329 0.058,-0.46329 0,0 0.1737,0.115823 0.4054,0.347467 1.7373,1.795247 3.4167,1.216135 6.0806,0.289556 2.2586,-0.810756 2.7798,-0.926579 3.3589,-0.579112 0.9266,0.579112 1.5057,2.258536 1.4478,4.053783 -0.1159,1.563602 -0.5212,3.069292 -1.6795,6.080674 -0.7528,2.026891 -1.1003,3.011381 -1.3898,4.111693 -1.7953,7.238897 3.4746,10.597747 9.787,8.107567 3.1272,-1.10031 5.5015,-3.300939 7.6442,-5.849031 2.2007,-2.606003 4.2275,-5.559473 5.6174,-8.397121 0.4633,-0.868667 0.4633,-0.926578 0.4633,-1.331957 0,-0.926578 -0.6949,-1.737335 -1.7373,-1.737335 z"
         style="font-style:normal;font-variant:normal;font-weight:normal;font-stretch:normal;font-size:57.91117859px;line-height:125%;font-family:herscheyscript;-inkscape-font-specification:'herscheyscript, Normal';text-align:start;writing-mode:lr-tb;text-anchor:start"
         id="path4149"
         inkscape:connector-curvature="0" />
      <path
         d="m 1206.0762,84.675276 c -0.7529,0 -0.9845,0.173734 -2.0848,1.447779 -4.1696,4.980362 -9.3817,9.381611 -14.7095,12.450904 -1.1003,0.637023 -3.4167,1.795251 -3.4747,1.795251 0,-0.0579 0.1738,-0.637028 0.4054,-1.389873 2.0848,-6.196496 4.5171,-14.24615 6.544,-21.716692 0.6949,-2.432269 0.6949,-2.606003 0.4054,-3.185115 -0.1738,-0.463289 -0.4054,-0.637023 -0.8687,-0.868667 -1.0424,-0.405379 -1.9111,0.231644 -2.2585,0.810756 -0.058,0.115823 -0.2896,0.98449 -0.5792,1.911069 -0.2316,0.98449 -0.7528,2.721825 -1.1003,3.880049 l -0.5791,2.142714 c -0.4054,0.405378 -0.637,0.752845 -0.9845,1.331957 -2.4901,4.45916 -6.0806,9.207877 -8.8025,11.698058 -2.606,2.374358 -5.3278,3.822138 -8.2813,4.459161 -0.8686,0.173733 -2.2006,0.173733 -2.8376,0 -2.606,-0.752846 -3.9959,-3.764227 -2.3165,-7.180987 0.5792,-1.216134 1.3899,-2.432269 3.4168,-5.212006 2.4902,-3.300937 3.3009,-4.574983 3.8801,-6.196496 0.3474,-0.926579 0.4053,-1.447779 0.4053,-2.432269 0,-2.548092 -1.274,-3.93796 -3.0114,-5.212006 -1.6215,-1.042402 -3.7063,-1.853158 -6.1385,-1.505691 -2.4902,0.463289 -4.6908,2.200625 -5.9649,4.690805 -1.274,2.606004 -1.3899,5.269918 -0.1158,7.644276 0.9266,1.853158 2.4902,3.127204 4.6908,3.93796 0.2896,0.115823 0.637,0.173734 0.8108,0.173734 0.1737,0 0.2895,0.05791 0.2895,0.05791 0,0 -0.1158,0.173733 -0.2316,0.405378 -1.1583,1.737336 -1.9111,3.474671 -2.2007,4.92245 -0.1158,0.752846 -0.1158,2.43227 0,3.185115 0.4054,1.96898 1.5636,3.88005 3.1272,4.98036 2.3165,1.67943 5.212,1.91107 8.9184,0.63703 4.6329,-1.38987 8.6866,-4.922456 11.5822,-8.744593 l 0.3475,-0.347468 c 0,0.05791 -1.0424,3.243026 -2.0848,6.486052 l -0.9845,2.953469 -0.9845,0.57911 c -1.8532,1.10032 -3.7642,2.43227 -6.6598,4.57499 -2.8956,2.20062 -4.2275,3.30093 -5.7332,4.6908 -3.8221,3.76423 -5.6174,7.35472 -6.8914,13.78286 -0.4054,1.96898 -0.4633,2.5481 -0.4633,3.93796 0,3.47467 1.3319,5.6753 3.5905,6.77561 3.1272,1.33196 5.7911,0.11582 8.1075,-2.606 1.2162,-1.44778 2.2586,-3.35885 3.5905,-6.77561 2.4902,-6.13858 5.3858,-14.0145 7.6443,-20.44265 0.3475,-1.0424 0.5791,-1.62151 0.6949,-2.0848 l 2.6639,-1.33196 c 3.6485,-1.79524 4.7488,-2.43226 6.9494,-3.880045 4.7487,-3.127204 9.15,-7.065164 13.03,-11.640147 0.8108,-0.98449 0.9845,-1.274046 0.9845,-1.853158 0,-0.926578 -0.6949,-1.737335 -1.7373,-1.737335 z m -38.0477,-7.87592 c 0.637,0.637023 0.8687,1.331957 0.6949,2.258536 -0.2316,0.868667 -0.7528,1.96898 -1.7373,3.358848 -0.5791,0.810757 -2.5481,3.532582 -2.606,3.532582 -0.2316,-0.405378 -0.637,-0.98449 -1.1582,-1.158224 -1.5057,-0.579111 -2.2585,-1.100312 -2.8377,-1.911069 -2.0269,-3.011381 0.4633,-7.065163 3.1852,-7.702186 1.9689,-0.231645 3.3588,0.579112 4.4591,1.621513 z m 10.5978,33.530574 c -2.2586,6.37023 -5.6174,15.17273 -6.8336,17.95246 -1.2161,2.83765 -2.5481,4.57499 -3.9379,5.32783 -2.2006,1.21614 -3.7642,-0.40538 -3.7642,-3.35885 0,-1.10031 0,-1.50569 0.4632,-3.59049 1.332,-6.65979 3.1852,-9.61326 8.6867,-14.0145 0.9845,-0.81076 3.6484,-2.83765 4.8646,-3.64841 0.2895,-0.23164 1.3319,-0.98449 1.3319,-0.98449 0,0.0579 -0.3475,1.0424 -0.8107,2.31645 z"
         style="font-style:normal;font-variant:normal;font-weight:normal;font-stretch:normal;font-size:57.91117859px;line-height:125%;font-family:herscheyscript;-inkscape-font-specification:'herscheyscript, Normal';text-align:start;writing-mode:lr-tb;text-anchor:start"
         id="path4151"
         inkscape:connector-curvature="0" />
      <path
         d="m 1257.399,84.675276 c -1.0424,0 -1.6794,0.926579 -2.2006,1.621513 -2.2006,2.548092 -6.1386,4.690805 -10.4819,4.690805 l -0.4633,0 c 1.7952,-4.864539 0.1158,-10.076545 -1.969,-13.145837 -1.4478,-2.142714 -2.8376,-3.474671 -4.4012,-4.285427 -0.9266,-0.405379 -1.6216,-0.579112 -2.5481,-0.579112 l -1.0424,0 c -0.1159,0 -0.5212,-0.05791 -0.8687,-0.05791 -0.6949,-0.115823 -2.8377,-0.173734 -3.4747,-0.115823 -3.8221,0.46329 -7.3547,2.258536 -10.3082,5.327829 -2.2585,2.316447 -3.8221,5.038272 -4.4591,7.818009 -1.1583,4.574983 0.1158,9.497433 2.606,12.508815 3.0114,3.880052 10.2503,5.906942 16.3309,3.358842 3.1851,-1.27404 6.6019,-4.111688 8.4551,-7.354714 l 1.7952,0 c 1.8532,0 2.2585,0 3.8801,-0.289556 3.88,-0.752845 7.7601,-3.300937 10.1923,-6.254407 0.5791,-0.637023 0.695,-0.98449 0.695,-1.505691 0,-0.926578 -0.695,-1.737335 -1.7374,-1.737335 z m -27.6815,-0.463289 c 0.9266,3.706315 2.4902,6.138585 5.0383,7.760098 1.0424,0.810756 2.6639,1.331957 4.0537,1.795246 -1.9689,2.606003 -5.3857,5.038273 -8.6866,5.559473 -0.7529,0.115823 -2.664,0.115823 -3.4747,0 -4.6329,-0.752845 -7.181,-3.069292 -8.0497,-7.470542 -0.4633,-2.316447 -0.3474,-4.227516 0.3475,-6.196496 1.332,-4.227516 6.0228,-8.397121 10.5977,-9.207877 l 0.4633,-0.115823 c -1.1003,2.258536 -1.1582,4.748717 -0.2895,7.875921 z m 6.0807,-7.644276 c 1.0424,0.231645 2.3164,1.389868 3.5325,3.243026 2.1427,3.185115 2.6639,6.717697 1.5636,10.076545 -0.1737,0.46329 -0.2316,0.637023 -0.3474,0.637023 -0.1738,0 -1.8532,-0.463289 -2.4902,-0.752845 -2.9535,-1.274046 -4.4013,-3.41676 -5.212,-7.760098 -0.5791,-3.069293 0.5791,-6.022763 2.9535,-5.443651 z"
         style="font-style:normal;font-variant:normal;font-weight:normal;font-stretch:normal;font-size:57.91117859px;line-height:125%;font-family:herscheyscript;-inkscape-font-specification:'herscheyscript, Normal';text-align:start;writing-mode:lr-tb;text-anchor:start"
         id="path4153"
         inkscape:connector-curvature="0" />
      <path
         d="m 1276.8382,76.799356 c 0.637,0.637023 0.8687,1.331957 0.6949,2.258536 -0.2316,0.868667 -0.7528,1.96898 -1.7373,3.358848 -0.5791,0.810757 -2.5481,3.532582 -2.606,3.532582 -0.2317,-0.405378 -0.637,-0.98449 -1.1582,-1.158224 -1.5057,-0.579111 -2.2586,-1.100312 -2.8377,-1.911069 -2.0269,-3.011381 0.4633,-7.065163 3.1851,-7.702186 1.969,-0.231645 3.3589,0.579112 4.4592,1.621513 z m 38.0476,7.87592 c -0.8686,0 -1.274,0.347467 -1.911,1.563602 -2.1427,4.111694 -5.3279,8.33921 -7.9339,10.424012 -1.8531,1.505691 -4.1696,2.548092 -5.9648,2.663914 -2.606,0.115823 -3.4168,-2.258536 -3.0114,-5.443651 0.2896,-1.50569 0.8687,-4.111693 1.3899,-6.138585 l 0.3474,-1.158223 0.5791,-1.042401 c 0.8108,-1.389869 0.8687,-1.563602 0.8687,-2.026892 0,-0.347467 -0.058,-0.579111 -0.1737,-0.868667 l 0.2895,-0.752846 c 0.5792,-1.679424 1.332,-3.416759 2.2586,-5.44365 0.5212,-1.158224 0.5212,-1.274046 0.5212,-1.621513 0,-0.98449 -0.7529,-1.737336 -1.7374,-1.737336 -1.1582,0 -1.5057,0.694934 -1.9689,1.795247 -1.332,2.837648 -2.4323,5.733207 -3.3589,8.628765 -0.2895,0.810757 -0.5212,1.505691 -0.5791,1.621513 -0.1737,0.347468 -1.4478,2.316448 -2.2006,3.358849 -3.7643,5.212006 -7.5864,9.613255 -13.7829,10.945213 -0.8687,0.173733 -2.2006,0.173733 -2.8376,0 -2.606,-0.752846 -3.9959,-3.764227 -2.3165,-7.180987 0.5791,-1.216134 1.3899,-2.432269 3.4168,-5.212006 2.4902,-3.300937 3.3009,-4.574983 3.88,-6.196496 0.3475,-0.926579 0.4054,-1.447779 0.4054,-2.432269 0,-2.548092 -1.274,-3.93796 -3.0114,-5.212006 -1.6215,-1.042402 -3.7063,-1.853158 -6.1386,-1.505691 -2.4901,0.463289 -4.6908,2.200625 -5.9648,4.690805 -1.2741,2.606004 -1.3899,5.269918 -0.1158,7.644276 0.9265,1.853158 2.4901,3.127204 4.6908,3.93796 0.2895,0.115823 0.637,0.173734 0.8107,0.173734 0.1738,0 0.2896,0.05791 0.2896,0.05791 0,0 -0.1158,0.173733 -0.2317,0.405378 -1.1582,1.737336 -1.911,3.474671 -2.2006,4.92245 -0.1158,0.752846 -0.1158,2.43227 0,3.185115 0.4054,1.96898 1.5636,3.88005 3.1272,4.98036 2.3165,1.67943 5.212,1.91107 8.9183,0.63703 3.8222,-1.27405 7.3548,-3.706321 10.482,-7.412636 0.2895,-0.347467 0.5791,-0.637023 0.637,-0.694935 0.058,-0.115822 0.1158,0 0.1158,1.158224 0,1.44778 0.058,1.96898 0.3475,2.895559 0.8107,2.432268 2.6639,4.111698 4.9803,4.517068 2.606,0.40538 6.4282,-0.92657 9.3816,-3.358844 3.0693,-2.43227 7.0652,-7.702187 9.2079,-12.045526 0.2317,-0.5212 0.2317,-0.637023 0.2317,-0.98449 0,-0.926578 -0.695,-1.737335 -1.7374,-1.737335 z"
         style="font-style:normal;font-variant:normal;font-weight:normal;font-stretch:normal;font-size:57.91117859px;line-height:125%;font-family:herscheyscript;-inkscape-font-specification:'herscheyscript, Normal';text-align:start;writing-mode:lr-tb;text-anchor:start"
         id="path4155"
         inkscape:connector-curvature="0" />
      <path
         d="m 1323.3517,89.250259 c 0,0.752845 0,0.868668 0.1158,1.331957 0.6371,1.679424 1.9111,3.011382 3.7064,3.358849 0.6949,0.115822 1.6794,0.05791 2.2585,-0.173734 l -0.058,0.173734 c 0,0.05791 -0.058,0.347467 -0.1738,0.579111 -0.6949,2.084803 -2.3743,3.822138 -4.5749,4.690806 -0.8108,0.289556 -1.2741,0.868668 -1.2741,1.679428 0,0.69493 0.3475,1.27404 0.9845,1.5636 0.6949,0.34746 1.2741,0.23164 2.8377,-0.5212 3.0113,-1.5636 5.212,-4.459164 5.849,-7.991745 0.1158,-0.694935 0.1158,-2.606003 0,-3.358849 -0.5212,-3.243026 -2.2006,-5.443651 -4.4592,-5.90694 -3.0693,-0.347467 -5.212,1.737335 -5.212,4.574983 z m 5.5595,-0.115822 c 0.2316,0.405378 0.2316,0.579112 0,0.868667 -0.7529,0.98449 -2.0848,0.289556 -2.0848,-0.868667 0.058,-0.347467 0.2895,-0.694934 0.5791,-0.868668 0.637,-0.463289 1.2161,0.405378 1.5057,0.868668 z"
         style="font-style:normal;font-variant:normal;font-weight:normal;font-stretch:normal;font-size:57.91117859px;line-height:125%;font-family:herscheyscript;-inkscape-font-specification:'herscheyscript, Normal';text-align:start;writing-mode:lr-tb;text-anchor:start"
         id="path4157"
         inkscape:connector-curvature="0" />
    </g>
  </g>
</svg>
