<?xml version="1.0" encoding="UTF-8" standalone="no"?>
<!-- Created with Inkscape (http://www.inkscape.org/) -->

<svg
   xmlns:dc="http://purl.org/dc/elements/1.1/"
   xmlns:cc="http://creativecommons.org/ns#"
   xmlns:rdf="http://www.w3.org/1999/02/22-rdf-syntax-ns#"
   xmlns:svg="http://www.w3.org/2000/svg"
   xmlns="http://www.w3.org/2000/svg"
   xmlns:sodipodi="http://sodipodi.sourceforge.net/DTD/sodipodi-0.dtd"
   xmlns:inkscape="http://www.inkscape.org/namespaces/inkscape"
   width="30.773165mm"
   height="34.689987mm"
   viewBox="0 0 30.773165 34.689987"
   version="1.1"
   id="svg1261"
   inkscape:version="0.92.2 2405546, 2018-03-11"
   sodipodi:docname="illitch-eyes-conviviality.svg">
  <defs
     id="defs1255" />
  <sodipodi:namedview
     id="base"
     pagecolor="#ffffff"
     bordercolor="#666666"
     borderopacity="1.0"
     inkscape:pageopacity="0.0"
     inkscape:pageshadow="2"
     inkscape:zoom="0.35"
     inkscape:cx="206.72544"
     inkscape:cy="-288.72981"
     inkscape:document-units="mm"
     inkscape:current-layer="layer1"
     showgrid="false"
     fit-margin-top="5"
     fit-margin-left="5"
     fit-margin-right="5"
     fit-margin-bottom="5"
     inkscape:window-width="1877"
     inkscape:window-height="1029"
     inkscape:window-x="43"
     inkscape:window-y="27"
     inkscape:window-maximized="1" />
  <metadata
     id="metadata1258">
    <rdf:RDF>
      <cc:Work
         rdf:about="">
        <dc:format>image/svg+xml</dc:format>
        <dc:type
           rdf:resource="http://purl.org/dc/dcmitype/StillImage" />
        <dc:title></dc:title>
      </cc:Work>
    </rdf:RDF>
  </metadata>
  <g
     inkscape:label="Layer 1"
     inkscape:groupmode="layer"
     id="layer1"
     transform="translate(103.83301,-37.750248)">
    <path
       style="fill:#000000;stroke-width:0.99999994"
       d="m -93.477653,48.897597 c -0.065,-0.13764 -0.17364,-0.24683 -0.24552,-0.24683 -0.0283,0 -0.0859,-0.0346 -0.14493,-0.087 -0.11847,-0.10522 -0.16232,-0.10901 -0.33519,-0.029 -0.0689,0.0319 -0.1508,0.058 -0.18199,0.058 -0.0312,0 -0.084,0.0136 -0.11738,0.0302 -0.0556,0.0277 -0.0653,0.0275 -0.11632,-0.003 -0.0831,-0.049 -0.11888,-0.12418 -0.11888,-0.249331 0,-0.166989 -0.0157,-0.18407 -0.1698,-0.18488 -0.0758,-4.23e-4 -0.14986,-0.0122 -0.1781,-0.0283 -0.0266,-0.0152 -0.0989,-0.0279 -0.16072,-0.0283 -0.15752,-8.46e-4 -0.18719,-0.021 -0.18719,-0.12661 0,-0.0806 0.004,-0.0883 0.0765,-0.12495 0.0888,-0.0453 0.20231,-0.0496 0.27136,-0.0101 0.0734,0.042 0.79051,0.0409 0.87204,-8.46e-4 0.049,-0.0254 0.11615,-0.0286 0.41942,-0.0202 0.19859,0.006 0.38283,0.0105 0.4094,0.0111 0.0266,6.08e-4 0.1179,-0.006 0.20294,-0.0144 0.12543,-0.0126 0.18466,-0.0309 0.31366,-0.097 0.14719,-0.0754 0.17036,-0.0815 0.31146,-0.0815 0.12496,0 0.16164,-0.007 0.20338,-0.04 0.028,-0.0221 0.0509,-0.0595 0.0509,-0.0833 0,-0.0607 0.0344,-0.0979 0.13894,-0.15023 0.0499,-0.0249 0.11103,-0.0758 0.13596,-0.11298 0.0412,-0.0615 0.0548,-0.0682 0.14901,-0.0736 0.0955,-0.005 0.1092,-6.62e-4 0.17331,0.0605 0.0943,0.0901 0.13819,0.10969 0.24524,0.10969 0.0827,0 0.10056,0.009 0.19132,0.0947 0.1582,0.14963 0.26615,0.19524 0.462,0.19524 0.14765,0 0.16921,-0.005 0.22292,-0.05 0.0593,-0.0499 0.0595,-0.0508 0.0595,-0.24695 0,-0.1969 0,-0.1969 -0.20316,-0.3945 -0.21105,-0.20527 -0.25016,-0.22516 -0.34412,-0.17511 -0.0599,0.0318 -0.0864,0.073 -0.10073,0.15619 -0.007,0.0398 -0.0201,0.077 -0.0294,0.0828 -0.009,0.006 -0.0499,-0.0192 -0.0901,-0.0553 -0.0793,-0.0713 -0.21767,-0.14817 -0.26633,-0.14817 -0.0166,0 -0.082,-0.026 -0.14517,-0.058 -0.11487,-0.058 -0.11487,-0.058 -0.56533,-0.058 -0.34133,0 -0.45968,-0.006 -0.48858,-0.0255 -0.10751,-0.072 -0.15795,-0.0779 -0.27192,-0.0317 -0.10841,0.044 -0.10841,0.044 -0.21316,-0.008 -0.0777,-0.038 -0.13443,-0.0513 -0.21963,-0.0513 -0.0673,0 -0.14285,-0.0134 -0.1825,-0.0323 -0.0623,-0.0297 -0.0733,-0.0298 -0.14078,-0.002 -0.11409,0.0483 -0.20881,0.0584 -0.2363,0.0253 -0.0129,-0.0156 -0.0622,-0.0431 -0.10935,-0.0611 -0.0813,-0.0311 -0.0899,-0.031 -0.16277,0.002 -0.0423,0.0191 -0.077,0.0414 -0.077,0.0496 0,0.009 -0.0226,0.0417 -0.0501,0.0744 -0.048,0.057 -0.0561,0.0594 -0.20123,0.0594 -0.14736,0 -0.15246,-0.002 -0.2015,-0.0628 -0.0277,-0.0346 -0.0603,-0.0747 -0.0724,-0.0894 -0.0161,-0.0195 -0.0544,-0.024 -0.143151,-0.0169 -0.0739,0.006 -0.129229,0.002 -0.14195,-0.0112 -0.0115,-0.0115 -0.0209,-0.0675 -0.0209,-0.12444 0,-0.0981 -0.005,-0.10913 -0.0988,-0.20807 -0.11735,-0.12407 -0.22965,-0.18324 -0.34701,-0.18284 -0.1044,3.7e-4 -0.106079,0.002 -0.19954,0.14034 -0.0722,0.10721 -0.0747,0.11622 -0.0631,0.22705 0.012,0.11542 0.012,0.11542 -0.0641,0.1635 -0.0419,0.0265 -0.0852,0.065 -0.0963,0.0858 -0.0111,0.0207 -0.0199,0.12739 -0.0197,0.23706 4.77e-4,0.21377 -0.008,0.18822 0.14451,0.44118 0.0599,0.0995 0.16293,0.20944 0.20928,0.22337 0.064,0.0192 0.16762,0.12667 0.16762,0.17375 0,0.037 -0.0132,0.0431 -0.11254,0.052 -0.10915,0.01 -0.24824,0.0651 -0.31764,0.12615 -0.0497,0.0437 -0.0663,0.0116 -0.0204,-0.0392 0.0358,-0.0397 0.0712,-0.13775 0.0965,-0.26777 0.0118,-0.0608 -0.0507,-0.1917 -0.11625,-0.24322 -0.0427,-0.0335 -0.14853,-0.0841 -0.23068,-0.110159 -0.0188,-0.006 -0.0393,-0.0362 -0.0455,-0.0672 -0.0151,-0.0752 -0.17199,-0.22695 -0.311,-0.30079 -0.10769,-0.0572 -0.11183,-0.0622 -0.11183,-0.1367 0,-0.0546 -0.0156,-0.0977 -0.0531,-0.14678 -0.0293,-0.0382 -0.0531,-0.0833 -0.0531,-0.10012 0,-0.0168 -0.0267,-0.0883 -0.0593,-0.15886 -0.0728,-0.15732 -0.0603,-0.18374 0.0867,-0.18374 0.0922,0 0.10623,-0.007 0.18125,-0.0828 0.0447,-0.0456 0.0813,-0.0897 0.0813,-0.0979 0,-0.009 0.0225,-0.0445 0.05,-0.0806 0.0623,-0.0817 0.12393,-0.20108 0.12409,-0.2404 5e-5,-0.0163 0.0131,-0.0546 0.0289,-0.0851 0.0159,-0.0304 0.0289,-0.0836 0.0289,-0.118201 0,-0.0831 0.061,-0.15733 0.14197,-0.1725 0.0359,-0.007 0.0801,-0.0286 0.0981,-0.0484 0.0297,-0.0329 0.13668,-0.0714 0.37842,-0.13657 0.0478,-0.0129 0.15221,-0.0297 0.23193,-0.0374 0.0798,-0.008 0.16396,-0.0243 0.18718,-0.0369 0.0245,-0.0134 0.12345,-0.0229 0.23638,-0.0229 0.12022,0 0.2219,-0.0105 0.26702,-0.0274 0.0401,-0.0151 0.12349,-0.0318 0.18535,-0.0374 0.0619,-0.006 0.12274,-0.0182 0.13529,-0.0283 0.0125,-0.01 0.11586,-0.0222 0.22958,-0.027 0.11372,-0.004 0.21808,-0.0178 0.23193,-0.0289 0.0139,-0.0111 0.10346,-0.025 0.19914,-0.0311 0.0957,-0.006 0.20874,-0.0242 0.25126,-0.0403 0.0425,-0.0161 0.13385,-0.0298 0.20295,-0.0305 0.0871,-8.59e-4 0.17507,-0.0186 0.28673,-0.0581 0.15055,-0.0531 0.16638,-0.0551 0.2416,-0.0306 0.0443,0.0144 0.13703,0.0304 0.20613,0.0354 0.0758,0.006 0.16784,0.0285 0.23193,0.0578 0.12795,0.0584 0.28751,0.12398 0.4063,0.16698 0.048,0.0174 0.11329,0.05 0.14496,0.0724 0.0317,0.0224 0.12778,0.0759 0.21358,0.11891 0.18643,0.0935 0.28073,0.18271 0.35988,0.34068 0.0403,0.0804 0.11564,0.17381 0.239,0.29624 0.0991,0.0983 0.19033,0.17879 0.20279,0.17879 0.0124,0 0.092,0.0652 0.17674,0.14495 0.0848,0.0797 0.16245,0.14497 0.17265,0.14497 0.0102,0 0.0646,0.0348 0.12101,0.0774 0.13618,0.102821 0.19894,0.23432 0.2242,0.469791 0.008,0.0724 0.024,0.141519 0.0362,0.153659 0.0302,0.0302 0.0266,0.12971 -0.007,0.18828 -0.0152,0.0266 -0.0283,0.0787 -0.029,0.11597 -5.29e-4,0.0372 -0.0138,0.0894 -0.029,0.11597 -0.0183,0.032 -0.0281,0.11044 -0.0289,0.231931 -8.46e-4,0.121499 -0.0107,0.199969 -0.029,0.23194 -0.0152,0.0266 -0.0279,0.0848 -0.0284,0.129319 -4.5e-4,0.0445 -0.009,0.0859 -0.0184,0.092 -0.01,0.006 -0.0439,-0.0152 -0.0759,-0.0472 -0.0872,-0.0872 -0.18736,-0.0724 -0.24348,0.0361 -0.0214,0.0414 -0.0581,0.0645 -0.15236,0.0964 -0.13282,0.0449 -0.16162,0.0416 -0.25659,-0.0298 -0.0446,-0.0335 -0.0852,-0.0449 -0.15988,-0.0449 -0.0894,0 -0.10876,0.008 -0.18179,0.0753 -0.045,0.0414 -0.11667,0.0847 -0.15939,0.0962 -0.0502,0.0135 -0.10828,0.0526 -0.16428,0.1106 -0.1329,0.13764 -0.24287,0.18139 -0.45648,0.18162 -0.11871,1.3e-4 -0.1947,0.01 -0.23193,0.029 -0.0349,0.0182 -0.10986,0.0289 -0.20316,0.029 -0.12524,9e-5 -0.16567,0.009 -0.26468,0.0581 -0.0643,0.0319 -0.14318,0.058 -0.17534,0.058 -0.0795,0 -0.20952,0.0707 -0.24382,0.13278 -0.0155,0.0279 -0.0663,0.0929 -0.11303,0.14441 -0.0849,0.0936 -0.0849,0.0936 -0.14346,-0.0304 z m 2.33516,-2.38301 c 0.0454,-0.0547 -0.0492,-0.21376 -0.15992,-0.26899 -0.0238,-0.0119 -0.0607,-0.0495 -0.082,-0.0837 -0.052,-0.0835 -0.12086,-0.10155 -0.16759,-0.0438 -0.0472,0.0584 -0.0446,0.10999 0.009,0.156429 0.0239,0.021 0.10197,0.0903 0.17346,0.153921 0.13305,0.11837 0.18497,0.138 0.22796,0.0862 z m -1.50795,-0.124401 c 0.27013,-0.101319 0.36723,-0.181079 0.36723,-0.301689 0,-0.140511 -0.15361,-0.349281 -0.31906,-0.433631 -0.13141,-0.067 -0.2028,-0.0433 -0.2028,0.0673 0,0.0917 -0.12709,0.335931 -0.23328,0.448201 -0.11597,0.122619 -0.12049,0.165899 -0.0228,0.21848 0.0574,0.0309 0.10066,0.0377 0.20777,0.0329 0.0744,-0.003 0.16574,-0.0175 0.20295,-0.0315 z m -1.73143,-0.0318 c 0.0544,-0.0208 0.0326,-0.085 -0.0637,-0.18753 -0.14156,-0.15072 -0.17638,-0.2331 -0.17638,-0.41738 0,-0.13525 -0.006,-0.16101 -0.0466,-0.20855 -0.0443,-0.0516 -0.0548,-0.0542 -0.21194,-0.0542 -0.16529,0 -0.16529,0 -0.27215,0.10553 -0.17905,0.17682 -0.16813,0.28026 0.0524,0.49721 0.19399,0.19078 0.36061,0.27444 0.54917,0.27573 0.0762,5.03e-4 0.15231,-0.004 0.16912,-0.0108 z m 2.53354,-0.45214 c 0.007,-0.0106 -0.002,-0.0193 -0.0182,-0.0193 -0.0166,0 -0.0301,0.009 -0.0301,0.0193 0,0.0106 0.009,0.0193 0.0182,0.0193 0.01,0 0.0236,-0.009 0.0301,-0.0193 z m 8.34002,3.06349 c -0.0266,-0.0152 -0.0771,-0.0279 -0.11241,-0.0284 -0.0822,-8.46e-4 -0.13886,-0.0314 -0.13886,-0.0748 0,-0.0558 0.041,-0.0804 0.13433,-0.081 0.13415,-7.14e-4 0.23163,-0.0298 0.29113,-0.0868 0.0619,-0.0593 0.122619,-0.0574 0.13142,0.004 0.005,0.0348 -0.008,0.0459 -0.0724,0.0633 -0.0907,0.0244 -0.102839,0.0696 -0.0401,0.149341 0.0211,0.0268 0.0336,0.0564 0.0278,0.0659 -0.0165,0.0268 -0.167401,0.0186 -0.22087,-0.0119 z m 4.98514,-0.407799 c -0.0555,-0.0595 -0.21259,-0.143051 -0.268921,-0.143051 -0.0488,0 -0.205109,-0.14095 -0.245309,-0.22127 -0.0162,-0.0324 -0.087,-0.11759 -0.15723,-0.18922 -0.0926,-0.0945 -0.12188,-0.13606 -0.10651,-0.15143 0.0154,-0.0154 0.0375,-0.0128 0.0804,0.009 0.0326,0.0168 0.104,0.0306 0.1587,0.0306 0.12866,0 0.18734,0.0421 0.26085,0.1869 0.0315,0.062 0.11806,0.178691 0.19246,0.25935 0.13459,0.145901 0.20608,0.26888 0.15632,0.26888 -0.0132,0 -0.045,-0.0226 -0.0708,-0.0502 z m -18.32144,-0.0667 c 0,-0.0894 0.005,-0.10029 0.0605,-0.13046 0.0333,-0.0181 0.10938,-0.0645 0.16911,-0.1031 0.17295,-0.11171 0.2583,-0.12072 0.1454,-0.0153 -0.0276,0.0258 -0.0661,0.0777 -0.0853,0.11538 -0.0453,0.0883 -0.2001,0.231059 -0.25058,0.231059 -0.0341,0 -0.0391,-0.0125 -0.0391,-0.0975 z m 11.64496,-0.0473 c -0.0956,-0.0478 -0.18686,-0.0868 -0.20281,-0.0869 -0.0159,-7e-5 -0.15076,-0.0609 -0.29958,-0.13514 -0.234881,-0.11715 -0.27569,-0.14449 -0.30925,-0.2071 -0.0212,-0.0397 -0.0735,-0.0957 -0.11597,-0.12441 -0.0425,-0.0288 -0.0773,-0.0639 -0.0773,-0.0781 0,-0.0986 0.305829,0.045 0.5053,0.23737 0.138069,0.13311 0.138069,0.13311 0.322359,0.13311 0.236351,0 0.253881,-0.0139 0.23979,-0.1894 -0.009,-0.10427 -0.004,-0.12978 0.0266,-0.16056 0.0202,-0.0201 0.0454,-0.0366 0.0561,-0.0366 0.0338,0 0.19004,0.0793 0.21471,0.10909 0.0487,0.0587 0.165,0.092 0.37458,0.10731 0.216129,0.0158 0.25967,0.0169 0.43972,0.0112 0.10637,-0.003 0.158869,0.0118 0.35793,0.10326 0.12116,0.0557 0.12116,0.0557 0.56051,0.055 0.34444,-5.29e-4 0.44979,-0.007 0.48766,-0.0283 0.0344,-0.0197 0.11805,-0.028 0.28992,-0.029 0.17188,-8.46e-4 0.25554,-0.009 0.28992,-0.029 0.0266,-0.0152 0.093,-0.0279 0.147589,-0.0283 0.0546,-3.97e-4 0.123081,-0.013 0.152191,-0.0282 0.0291,-0.0151 0.0644,-0.0231 0.0783,-0.0177 0.0433,0.0166 0.009,0.0615 -0.0657,0.085 -0.0389,0.0123 -0.17526,0.0735 -0.30297,0.13623 -0.23219,0.11391 -0.23219,0.11391 -0.46672,0.11391 -0.22172,0 -0.2409,0.003 -0.3514,0.058 -0.0643,0.0319 -0.13109,0.058 -0.14848,0.058 -0.0174,0 -0.110371,-0.0392 -0.206641,-0.087 -0.0963,-0.0478 -0.202119,-0.0873 -0.235239,-0.0877 -0.0331,-3.97e-4 -0.0819,-0.0131 -0.10851,-0.0283 -0.0342,-0.0196 -0.115411,-0.0278 -0.27813,-0.0284 -0.19535,-5.82e-4 -0.25283,-0.009 -0.3833,-0.0516 -0.13332,-0.0443 -0.16309,-0.048 -0.226631,-0.029 -0.0403,0.0121 -0.124859,0.022 -0.188069,0.022 -0.0889,0 -0.12448,0.009 -0.15719,0.0394 -0.0477,0.0444 -0.11963,0.17635 -0.11963,0.21939 0,0.0383 -0.0532,0.0891 -0.0933,0.0891 -0.018,0 -0.110801,-0.0391 -0.206401,-0.0868 z m -1.591341,-0.65364 c -0.0476,-0.0574 -0.0989,-0.20242 -0.0993,-0.28085 -2.4e-4,-0.0532 0.0208,-0.129671 0.0576,-0.20912 0.0648,-0.13996 0.0716,-0.20798 0.0291,-0.28948 -0.039,-0.0747 -0.0366,-0.1266 0.0128,-0.276281 0.052,-0.157789 0.0624,-0.171369 0.14302,-0.186489 0.0357,-0.007 0.0729,-0.0221 0.0826,-0.0343 0.01,-0.0122 0.0219,-0.0859 0.0272,-0.16374 0.009,-0.12975 0.0153,-0.14756 0.0778,-0.21261 0.0375,-0.0391 0.10471,-0.14493 0.14933,-0.23528 0.0981,-0.19873 0.1994,-0.3079 0.3594,-0.38747 0.0661,-0.0329 0.1355,-0.0766 0.15407,-0.0971 0.0411,-0.0454 0.0879,-0.0472 0.1671,-0.006 0.0423,0.0219 0.0937,0.0287 0.17345,0.0229 0.10315,-0.008 0.12127,-0.0159 0.20144,-0.0939 0.0484,-0.0472 0.10496,-0.11833 0.12557,-0.15819 0.0403,-0.0779 0.0609,-0.0841 0.17113,-0.0511 0.0611,0.0183 0.085,0.0152 0.16654,-0.0213 0.0523,-0.0235 0.1266,-0.0728 0.16497,-0.10959 0.094,-0.0902 0.24612,-0.12574 0.58184,-0.13582 0.20523,-0.006 0.28499,-8.5e-4 0.35341,0.0221 0.0668,0.0226 0.17223,0.0301 0.43174,0.0301 0.23774,0 0.35036,0.007 0.36613,0.0228 0.0127,0.0127 0.0982,0.0261 0.19231,0.0304 0.0933,0.004 0.20234,0.02 0.24242,0.0353 0.0453,0.0172 0.14507,0.0277 0.26339,0.0277 0.12564,0 0.21417,0.01 0.25992,0.0289 0.0381,0.0159 0.10339,0.029 0.14496,0.029 0.0416,0 0.1068,0.013 0.14496,0.0289 0.0381,0.0159 0.11644,0.029 0.17395,0.029 0.0575,0 0.13578,0.013 0.17396,0.0289 0.0381,0.016 0.10534,0.0289 0.1493,0.0289 0.11706,0 0.44121,0.16708 0.57883,0.29835 0.059,0.0563 0.1266,0.10842 0.15027,0.11594 0.0238,0.008 0.0572,0.0413 0.0744,0.0751 0.0173,0.0338 0.065,0.0982 0.10608,0.143149 0.0411,0.045 0.0748,0.0899 0.0748,0.1 0,0.0101 0.0209,0.0431 0.0465,0.0735 0.0255,0.0304 0.0729,0.10718 0.10514,0.170711 0.0323,0.0635 0.0831,0.138689 0.11302,0.167009 0.0609,0.0578 0.29432,0.17878 0.38288,0.19846 0.0318,0.007 0.10429,0.0559 0.16087,0.108531 0.0855,0.0795 0.0969,0.0974 0.0677,0.10623 -0.0193,0.006 -0.0599,0.0232 -0.09,0.0386 -0.0338,0.0173 -0.11172,0.028 -0.20408,0.028 -0.19332,0 -0.21802,0.0179 -0.22977,0.166219 -0.005,0.0627 -0.0182,0.125541 -0.0294,0.139611 -0.0346,0.0431 -0.16318,0.10006 -0.2259,0.10006 -0.0326,0 -0.0888,0.0123 -0.12482,0.0273 -0.036,0.0151 -0.0698,0.023 -0.0752,0.0176 -0.005,-0.005 0.004,-0.0479 0.0218,-0.0946 0.0271,-0.073 0.0279,-0.0948 0.006,-0.15564 -0.0222,-0.0614 -0.0211,-0.0839 0.009,-0.17011 0.0338,-0.0994 0.0338,-0.0994 -0.0179,-0.2086 -0.0929,-0.19628 -0.25496,-0.28362 -0.36788,-0.19821 -0.0622,0.0471 -0.1029,0.0352 -0.11796,-0.0345 -0.0203,-0.0938 -0.10028,-0.24231 -0.14281,-0.26507 -0.0551,-0.0295 -0.19882,-0.0243 -0.2812,0.01 -0.0447,0.0187 -0.094,0.0253 -0.13012,0.0173 -0.0582,-0.0128 -0.0582,-0.0128 0.0309,-0.103141 0.0899,-0.0913 0.16689,-0.217409 0.16605,-0.27209 -2.4e-4,-0.0163 -0.0242,-0.0731 -0.0531,-0.126229 -0.0558,-0.10218 -0.16187,-0.172271 -0.24313,-0.1607 -0.0377,0.005 -0.0427,0.0215 -0.0545,0.176349 -0.0149,0.195551 -0.0564,0.300101 -0.15793,0.397481 -0.0452,0.0433 -0.0724,0.0904 -0.0807,0.13952 -0.0171,0.10119 -0.11904,0.19107 -0.21778,0.192 -0.0395,3.96e-4 -0.0936,0.0131 -0.12013,0.0283 -0.0266,0.0152 -0.0787,0.0283 -0.11597,0.0289 -0.0372,7.67e-4 -0.0894,0.0138 -0.11596,0.029 -0.0269,0.0154 -0.10077,0.0279 -0.16676,0.0283 -0.0651,3.96e-4 -0.14966,0.0137 -0.18783,0.0297 -0.0381,0.0159 -0.1117,0.029 -0.16342,0.029 -0.0518,0 -0.10047,0.007 -0.10832,0.0145 -0.008,0.008 -0.0547,0.0276 -0.10403,0.0435 -0.0748,0.0242 -0.0917,0.0387 -0.10156,0.087 -0.007,0.0319 -0.022,0.077 -0.0345,0.100209 -0.0124,0.0232 -0.0226,0.0779 -0.0226,0.12141 0,0.10372 -0.0404,0.197331 -0.10299,0.2383 -0.0668,0.0438 -0.0962,0.0416 -0.16129,-0.0122 -0.0839,-0.0693 -0.18128,-0.11411 -0.27557,-0.12689 -0.0748,-0.0101 -0.0876,-0.0189 -0.1011,-0.0695 -0.0211,-0.0792 -0.0652,-0.10633 -0.17304,-0.10633 -0.0678,0 -0.10556,-0.0118 -0.1461,-0.0456 -0.0788,-0.0659 -0.13059,-0.077 -0.19767,-0.0423 -0.0318,0.0165 -0.0974,0.03 -0.14556,0.03 -0.0594,0 -0.12769,0.0198 -0.21228,0.0615 -0.12143,0.0598 -0.12665,0.0607 -0.19848,0.0318 -0.27301,-0.11017 -0.32893,-0.11416 -0.49553,-0.0355 -0.11576,0.0547 -0.13632,0.0588 -0.1959,0.0392 -0.0474,-0.0157 -0.0776,-0.0161 -0.10492,-0.002 -0.11345,0.0607 -0.15542,-0.01 -0.0719,-0.12091 0.0255,-0.0338 0.0812,-0.13159 0.12396,-0.21722 0.0866,-0.17354 0.10989,-0.19903 0.20133,-0.22071 0.0349,-0.009 0.076,-0.0183 0.0915,-0.0222 0.0197,-0.005 0.0354,0.0216 0.0526,0.0894 0.0428,0.16899 0.15403,0.20754 0.33469,0.11599 0.14635,-0.0742 0.17885,-0.17499 0.11239,-0.34867 -0.0392,-0.10251 -0.0397,-0.11086 -0.009,-0.1749 0.0591,-0.12388 0.0346,-0.2399 -0.0507,-0.2399 -0.0449,0 -0.29939,0.12563 -0.35214,0.17382 -0.0212,0.0194 -0.0738,0.0447 -0.11688,0.0561 -0.0431,0.0114 -0.10388,0.0475 -0.1352,0.0802 -0.0313,0.0327 -0.10919,0.0857 -0.17303,0.11778 -0.15545,0.0781 -0.38208,0.30147 -0.45812,0.45154 -0.0323,0.0638 -0.10557,0.16533 -0.16278,0.22567 -0.066,0.0696 -0.104,0.12652 -0.104,0.15576 0,0.062 -0.0318,0.0976 -0.13529,0.15171 -0.15147,0.0792 -0.15462,0.0843 -0.15462,0.24927 0,0.13315 0.005,0.15288 0.0483,0.19365 0.0266,0.025 0.0483,0.061 0.0483,0.0802 0,0.0691 -0.18291,0.12384 -0.22885,0.0685 z m 3.670951,-1.231921 c 0.0427,-0.0217 0.0826,-0.0527 0.0887,-0.0689 0.0146,-0.0382 -0.0245,-0.123529 -0.0567,-0.123529 -0.0518,0 -0.27736,-0.259741 -0.33944,-0.390981 -0.0546,-0.11558 -0.0615,-0.149049 -0.0615,-0.300719 0,-0.210571 -0.0163,-0.237711 -0.15025,-0.25058 -0.0827,-0.008 -0.12025,5.29e-4 -0.23035,0.0521 -0.18514,0.0866 -0.404911,0.23387 -0.43434,0.291049 -0.0137,0.0266 -0.0455,0.0739 -0.0707,0.10522 -0.0252,0.0313 -0.0535,0.0769 -0.0627,0.101321 -0.009,0.0244 -0.0605,0.0713 -0.113831,0.10407 -0.150949,0.0929 -0.215829,0.21105 -0.147159,0.26805 0.0178,0.0148 0.0912,0.0213 0.20776,0.0185 0.18023,-0.004 0.18023,-0.004 0.35329,0.0858 0.0952,0.0496 0.186519,0.0904 0.20295,0.0905 0.0164,1.5e-4 0.0516,0.0123 0.0781,0.0271 0.0351,0.0194 0.132359,0.0273 0.35351,0.0287 0.27155,0.002 0.31373,-0.003 0.38268,-0.0376 z m 2.57466,1.194011 c -0.0234,-0.0105 -0.061,-0.0583 -0.0834,-0.1061 -0.0409,-0.0869 -0.0409,-0.0869 0.0135,-0.144011 0.0299,-0.0314 0.0805,-0.0692 0.11239,-0.0839 0.0318,-0.0147 0.0776,-0.0412 0.10148,-0.0587 0.0558,-0.041 0.0548,-0.0307 -0.004,0.0501 -0.041,0.0556 -0.0483,0.0866 -0.0483,0.204641 0,0.149059 -0.0152,0.17219 -0.0909,0.138069 z m -16.58915,-0.0812 c 0,-0.0157 0.0196,-0.0688 0.0435,-0.11807 0.0334,-0.0688 0.0647,-0.10035 0.13465,-0.13581 0.0501,-0.0255 0.11348,-0.0462 0.14075,-0.0462 0.0273,0 0.0808,-0.013 0.11897,-0.029 0.073,-0.0305 0.18085,-0.0392 0.18034,-0.0145 -5.11e-4,0.0353 -0.039,0.0631 -0.19298,0.14006 -0.0904,0.0452 -0.20106,0.11585 -0.246,0.15707 -0.0841,0.0771 -0.17922,0.10175 -0.17922,0.0465 z m 18.86409,-0.002 c -0.0372,-0.014 -0.0894,-0.0262 -0.11596,-0.027 -0.0647,-0.002 -0.20295,-0.0818 -0.20295,-0.11736 0,-0.0227 0.039,-0.0294 0.1959,-0.0339 0.17122,-0.005 0.2047,-2.91e-4 0.26576,0.0358 0.077,0.0455 0.0884,0.0919 0.0345,0.1407 -0.041,0.037 -0.0829,0.0375 -0.17725,0.002 z m -7.36106,-0.23057 c -0.102081,-0.0551 -0.185841,-0.0871 -0.22788,-0.0871 -0.0706,0 -0.196381,-0.0551 -0.23666,-0.103629 -0.0134,-0.016 -0.0214,-0.058 -0.018,-0.0932 0.006,-0.064 0.006,-0.0641 0.11245,-0.0641 0.10526,0 0.10637,6.08e-4 0.11225,0.0613 0.003,0.034 0.0282,0.0835 0.0558,0.11114 0.0456,0.0456 0.0635,0.0498 0.21197,0.0498 0.15447,0 0.16687,0.003 0.26312,0.0695 0.13556,0.0932 0.13408,0.13191 -0.005,0.13843 -0.0941,0.004 -0.12481,-0.005 -0.267701,-0.0821 z m 7.06086,-2.08272 c -0.0174,-0.0822 -0.0568,-0.12455 -0.16781,-0.18085 -0.10007,-0.0507 -0.13116,-0.0925 -0.13116,-0.17626 0,-0.0395 -0.0236,-0.0784 -0.0829,-0.13657 -0.0455,-0.0447 -0.0919,-0.0813 -0.10292,-0.0813 -0.025,0 -0.10412,-0.0827 -0.10412,-0.10877 0,-0.0249 -0.10228,-0.12317 -0.12815,-0.12317 -0.0574,0 -0.16134,-0.18732 -0.16246,-0.29284 -4.7e-4,-0.0356 -0.0131,-0.0865 -0.0283,-0.11304 -0.0152,-0.0266 -0.0279,-0.0662 -0.0283,-0.0882 -8.49e-4,-0.0505 -0.0818,-0.12689 -0.193949,-0.18306 -0.0479,-0.024 -0.11609,-0.0657 -0.15167,-0.0928 -0.0895,-0.0681 -0.23217,-0.0693 -0.30328,-0.003 -0.0348,0.0327 -0.0462,0.0586 -0.0377,0.0859 0.007,0.0214 0.0207,0.0735 0.0311,0.11563 0.0236,0.0951 0.0436,0.11944 0.136509,0.16686 0.0928,0.0473 0.0951,0.0972 0.009,0.19735 -0.063,0.0735 -0.063,0.0735 -0.110411,0.0363 -0.0596,-0.0467 -0.41745,-0.22586 -0.48251,-0.24155 -0.0266,-0.007 -0.0642,-0.0382 -0.0833,-0.0707 -0.0191,-0.0324 -0.0669,-0.0764 -0.10611,-0.0975 -0.0392,-0.0212 -0.0958,-0.0581 -0.12586,-0.0819 -0.0478,-0.038 -0.0767,-0.0433 -0.23193,-0.0428 -0.10514,3.5e-4 -0.19503,0.0105 -0.22082,0.0249 -0.0343,0.0191 -0.0527,0.0192 -0.087,8.5e-4 -0.0239,-0.0129 -0.0973,-0.0236 -0.163021,-0.0236 -0.113059,-1.5e-4 -0.124159,0.004 -0.205019,0.0787 -0.047,0.0433 -0.11361,0.085 -0.148,0.0925 -0.0723,0.0158 -0.22672,-0.003 -0.24326,-0.0299 -0.006,-0.01 -0.0599,-0.0182 -0.11943,-0.0182 -0.0883,0 -0.12095,0.01 -0.17765,0.0531 -0.0636,0.0486 -0.0864,0.0537 -0.26792,0.0598 -0.1316,0.004 -0.21951,-0.002 -0.26094,-0.0184 -0.0374,-0.015 -0.19125,-0.0293 -0.38423,-0.0356 -0.28019,-0.009 -0.32703,-0.0154 -0.3624,-0.0474 -0.0224,-0.0203 -0.0406,-0.057 -0.0406,-0.0818 0,-0.0248 -0.0243,-0.0721 -0.0538,-0.10524 -0.041,-0.046 -0.07,-0.0602 -0.12236,-0.0602 -0.072,0 -0.27136,0.0901 -0.38013,0.17175 -0.0844,0.0633 -0.239911,0.0799 -0.36549,0.0389 -0.0511,-0.0167 -0.14076,-0.0363 -0.19923,-0.0436 -0.0839,-0.0105 -0.12058,-0.0268 -0.17395,-0.0777 -0.0865,-0.0825 -0.33965,-0.17183 -0.430831,-0.15213 -0.0341,0.008 -0.0973,0.0457 -0.140329,0.0852 -0.0671,0.0615 -0.0955,0.0736 -0.19859,0.0844 -0.125221,0.013 -0.202301,0.0437 -0.3065,0.12165 -0.0644,0.0482 -0.130651,0.0598 -0.151271,0.0264 -0.007,-0.0108 -0.0164,-0.0432 -0.0216,-0.0719 -0.0195,-0.10746 -0.0968,-0.13361 -0.1864,-0.0631 -0.102031,0.0803 -0.15274,0.0266 -0.0576,-0.061 0.0858,-0.0788 0.163369,-0.10175 0.24481,-0.0723 0.049,0.0177 0.0842,0.0194 0.122199,0.006 0.0498,-0.018 0.0531,-0.026 0.0492,-0.11957 -0.003,-0.0921 -2.3e-4,-0.10131 0.0434,-0.11228 0.036,-0.009 0.0641,0.003 0.116,0.0481 0.0376,0.033 0.0758,0.06 0.0847,0.06 0.034,0 0.15385,-0.0583 0.207119,-0.10075 0.0662,-0.0527 0.170571,-0.10419 0.2437,-0.12021 0.0291,-0.007 0.0677,-0.0354 0.0857,-0.0644 0.056,-0.0904 0.12798,-0.15915 0.166539,-0.15915 0.0203,0 0.0644,-0.0123 0.0978,-0.0272 0.0335,-0.015 0.11216,-0.0318 0.17479,-0.0375 0.0627,-0.006 0.12309,-0.0195 0.13434,-0.0308 0.0128,-0.0128 0.142539,-0.0204 0.34475,-0.0204 0.25674,0 0.34099,-0.007 0.40429,-0.032 0.0748,-0.0299 0.086,-0.0299 0.17281,0.002 0.0794,0.0286 0.15279,0.0325 0.509,0.0272 0.30005,-0.004 0.42289,-0.0129 0.44028,-0.0304 0.0166,-0.0166 0.0953,-0.0242 0.25151,-0.0242 0.15525,0 0.25559,-0.01 0.31628,-0.0301 0.0671,-0.0228 0.13946,-0.0279 0.29542,-0.0209 0.294869,0.0131 0.54646,0.0436 0.65,0.0787 0.14436,0.049 0.26089,0.0337 0.349,-0.0458 0.0238,-0.0215 0.0831,-0.0392 0.15462,-0.0461 0.11743,-0.0114 0.11977,-0.0129 0.20348,-0.13053 0.0234,-0.0329 0.0503,-0.0418 0.12971,-0.0431 0.12413,-0.002 0.179,0.0396 0.179,0.13545 0,0.0822 0.0364,0.15277 0.119159,0.23077 0.0703,0.0663 0.246561,0.16149 0.299031,0.16149 0.018,0 0.0904,0.0554 0.16055,0.12321 0.17857,0.1724 0.39911,0.28261 0.56601,0.28286 0.20618,3.49e-4 0.38161,0.13056 0.38246,0.28395 2.3e-4,0.0297 0.007,0.0634 0.0145,0.0748 0.0197,0.0289 0.15795,0.0996 0.22121,0.11325 0.0289,0.006 0.0679,0.0341 0.087,0.062 0.019,0.0279 0.0759,0.096 0.12636,0.15144 0.0505,0.0554 0.1244,0.16016 0.16428,0.2328 0.0501,0.0912 0.0994,0.1509 0.15951,0.19299 0.087,0.061 0.087,0.061 0.0927,0.1928 0.005,0.12598 0.003,0.13474 -0.057,0.19658 -0.0345,0.0356 -0.0721,0.0647 -0.0835,0.0647 -0.0114,0 -0.0511,0.0246 -0.088,0.0546 -0.0802,0.0653 -0.18568,0.11926 -0.23294,0.11926 -0.0229,0 -0.0386,-0.0207 -0.0475,-0.0628 z m -20.05449,-0.61132 c -0.10283,-0.10285 -0.15249,-0.16717 -0.15295,-0.19812 -4.8e-4,-0.0252 -0.0131,-0.0676 -0.0283,-0.0941 -0.0429,-0.075 -0.0341,-0.15059 0.0274,-0.23845 0.031,-0.0443 0.0618,-0.10656 0.0684,-0.13845 0.0255,-0.12286 0.12144,-0.18902 0.3198,-0.22039 0.0478,-0.008 0.10598,-0.0241 0.12919,-0.0369 0.0232,-0.0127 0.0564,-0.0231 0.0738,-0.0231 0.0465,0 0.5816,-0.2686 0.6203,-0.31136 0.04,-0.0443 0.13964,-0.0486 0.15567,-0.007 0.016,0.0417 0.1095,0.0863 0.18094,0.0863 0.15546,0 0.40283,-0.18497 0.37836,-0.28291 -0.006,-0.0251 -0.0167,-0.067 -0.0231,-0.093 -0.01,-0.0389 -2.3e-4,-0.0543 0.053,-0.0867 0.0356,-0.0216 0.0871,-0.0721 0.11447,-0.11211 0.0497,-0.0727 0.0497,-0.0727 0.24175,-0.066 0.14827,0.005 0.20082,0.0145 0.23067,0.0406 0.0715,0.0625 0.0958,0.0684 0.32858,0.0806 0.127559,0.007 0.26795,0.0234 0.31198,0.0373 0.0701,0.0221 0.0914,0.0209 0.1717,-0.01 0.0925,-0.0353 0.10539,-0.046 0.19559,-0.16073 0.0759,-0.0966 0.10079,-0.10285 0.20575,-0.052 0.0509,0.0247 0.12051,0.0508 0.15463,0.0581 0.0341,0.008 0.0707,0.0199 0.0814,0.0282 0.0106,0.009 0.0497,0.0212 0.087,0.0289 0.0372,0.008 0.0795,0.0238 0.0939,0.0354 0.0355,0.0287 0.22827,0.027 0.25754,-0.002 0.0148,-0.0148 0.0855,-0.0234 0.19134,-0.0234 0.10098,0 0.20596,-0.0123 0.263459,-0.0309 0.0875,-0.0283 0.103221,-0.0283 0.186511,0 0.05,0.017 0.14609,0.0309 0.21352,0.0309 0.0674,0 0.15382,0.013 0.19198,0.0289 0.0381,0.0159 0.10814,0.0289 0.1555,0.0289 0.0621,0 0.1014,0.0127 0.14075,0.0455 0.074,0.0615 0.11722,0.0828 0.28147,0.13857 0.11396,0.0386 0.17869,0.0477 0.34379,0.0478 0.2034,1.2e-4 0.2034,1.2e-4 0.35274,0.15035 0.0903,0.0909 0.14934,0.16612 0.14934,0.19047 0,0.0381 -0.0138,0.041 -0.26453,0.054 -0.14549,0.008 -0.28034,0.0221 -0.29967,0.0325 -0.0193,0.0103 -0.0607,0.0695 -0.092,0.13142 -0.0585,0.11589 -0.0933,0.13719 -0.22432,0.13719 -0.0245,0 -0.12563,0.0398 -0.22469,0.0884 -0.1801,0.0884 -0.1801,0.0884 -0.37772,0.0816 -0.12175,-0.004 -0.20671,-0.0158 -0.2213,-0.0304 -0.0324,-0.0323 -0.76979,-0.0332 -0.85905,-8.5e-4 -0.0495,0.018 -0.0795,0.0174 -0.14013,-0.003 -0.0666,-0.022 -0.0879,-0.0211 -0.15616,0.006 -0.0504,0.0202 -0.13673,0.0318 -0.23813,0.032 -0.12641,2.99e-4 -0.1926,0.0122 -0.32243,0.058 -0.10776,0.038 -0.20073,0.0576 -0.27321,0.0576 -0.0604,0 -0.13476,0.013 -0.16521,0.0289 -0.0304,0.0158 -0.0827,0.029 -0.11597,0.029 -0.0333,6e-5 -0.0855,0.0131 -0.11597,0.0289 -0.0317,0.0165 -0.10675,0.029 -0.17557,0.029 -0.13721,1.2e-4 -0.26875,0.0558 -0.295,0.12486 -0.009,0.0231 -0.0475,0.0696 -0.0861,0.10356 -0.0819,0.0718 -0.18004,0.0817 -0.29045,0.029 -0.064,-0.0306 -0.0725,-0.0306 -0.13661,0 -0.0375,0.018 -0.10771,0.0325 -0.15589,0.0325 -0.11357,0 -0.15366,0.0232 -0.20102,0.11596 -0.0214,0.0418 -0.0556,0.085 -0.0761,0.096 -0.0231,0.0123 -0.2381,0.02 -0.56278,0.02 -0.52547,0 -0.52547,0 -0.67776,-0.15228 z"
       id="path1207"
       inkscape:connector-curvature="0" />
    <path
       style="fill:#000000;stroke-width:1"
       d="m -89.148033,67.436255 c -0.0137,-0.002 -0.0655,-0.0086 -0.1149,-0.01462 -0.0548,-0.0067 -0.11527,-0.02185 -0.15486,-0.03879 -0.0513,-0.02192 -0.086,-0.02892 -0.16486,-0.03318 -0.0651,-0.0035 -0.1501,-0.01784 -0.24426,-0.04116 -0.0794,-0.01967 -0.15371,-0.03576 -0.16517,-0.03576 -0.0627,0 -0.37806,-0.116593 -0.46016,-0.170084 -0.0703,-0.0458 -0.13086,-0.07102 -0.23083,-0.09613 -0.058,-0.01457 -0.0752,-0.02455 -0.12254,-0.07116 -0.0551,-0.05423 -0.0551,-0.05423 -0.12646,-0.04754 -0.0659,0.0062 -0.0782,0.004 -0.16071,-0.02781 -0.11247,-0.04344 -0.19784,-0.08643 -0.28217,-0.14211 -0.0421,-0.02781 -0.0909,-0.04977 -0.13477,-0.06063 -0.0404,-0.01003 -0.0897,-0.03145 -0.11989,-0.05211 -0.0282,-0.0193 -0.0939,-0.06342 -0.14609,-0.09807 -0.13246,-0.08791 -0.13988,-0.09339 -0.13988,-0.103358 0,-0.03274 0.17552,-0.014 0.32971,0.03521 0.0577,0.01841 0.14762,0.04268 0.19983,0.05391 0.0522,0.01124 0.12638,0.02919 0.16485,0.03991 0.0496,0.01382 0.10332,0.01968 0.18483,0.02018 0.0743,4.76e-4 0.14841,0.0078 0.20982,0.02076 0.0522,0.01103 0.1308,0.02708 0.17468,0.03567 0.0438,0.0086 0.11908,0.03097 0.16713,0.04974 0.0984,0.03846 0.16042,0.043 0.30413,0.02221 0.0717,-0.01036 0.0922,-0.0096 0.15657,0.0055 0.0408,0.0096 0.13424,0.02134 0.20777,0.02608 0.13765,0.0089 0.16137,0.01457 0.35128,0.08425 0.0782,0.02867 0.12211,0.03799 0.21982,0.04658 0.0672,0.0059 0.16032,0.01933 0.20703,0.02984 0.14964,0.03364 0.2217,0.04242 0.36468,0.0444 0.077,0.0011 0.229789,0.0068 0.339689,0.01275 0.34613,0.01872 0.692901,-0.01345 0.824261,-0.07647 0.0458,-0.02196 0.0797,-0.03118 0.114909,-0.03126 0.0655,-1.18e-4 0.289791,-0.02569 0.38466,-0.04384 0.0458,-0.0088 0.143331,-0.01469 0.250711,-0.01523 0.14189,-7.15e-4 0.19005,-0.0048 0.24978,-0.02076 0.0407,-0.01092 0.11275,-0.0288 0.16014,-0.03972 0.0474,-0.01091 0.10808,-0.02936 0.134879,-0.04099 0.139141,-0.06033 0.263201,-0.09652 0.388441,-0.113283 0.19677,-0.02634 0.221109,-0.03261 0.338449,-0.0871 0.152801,-0.07097 0.219941,-0.09468 0.30543,-0.107871 0.041,-0.0063 0.101621,-0.02304 0.134891,-0.03717 0.0333,-0.01412 0.100939,-0.0411 0.1504,-0.05994 0.14487,-0.0552 0.16569,-0.06543 0.24978,-0.122755 0.0439,-0.02997 0.11435,-0.06902 0.15642,-0.08678 0.097,-0.04095 0.224619,-0.112748 0.30816,-0.17337 0.0357,-0.02591 0.12115,-0.07676 0.18983,-0.112976 0.0713,-0.03759 0.149289,-0.08768 0.181729,-0.116699 0.0841,-0.07522 0.165381,-0.102514 0.186681,-0.06268 0.0137,0.02564 -0.006,0.06403 -0.0831,0.162216 -0.071,0.09044 -0.11176,0.127252 -0.21543,0.194713 -0.0362,0.02354 -0.103,0.08382 -0.15087,0.136086 -0.0644,0.07029 -0.1036,0.103513 -0.156381,0.132443 -0.0387,0.02124 -0.10126,0.06257 -0.138879,0.09184 -0.10767,0.08377 -0.149321,0.105958 -0.2461,0.131091 -0.0633,0.01644 -0.11139,0.03691 -0.160441,0.06829 -0.0386,0.02465 -0.0743,0.04481 -0.0796,0.04481 -0.005,0 -0.031,0.01543 -0.0573,0.03429 -0.0685,0.04922 -0.11547,0.0612 -0.1851,0.04721 -0.095,-0.01908 -0.1283,-0.0047 -0.23647,0.102114 -0.058,0.05724 -0.11322,0.101654 -0.14778,0.118798 -0.0712,0.03529 -0.176491,0.05717 -0.242541,0.05036 -0.0334,-0.0035 -0.0713,3.44e-4 -0.106219,0.01076 -0.0299,0.0089 -0.0722,0.01612 -0.0941,0.01612 -0.0356,0 -0.0463,0.0066 -0.100259,0.06141 -0.0873,0.08865 -0.11325,0.09797 -0.27376,0.09823 -0.0952,1.19e-4 -0.14288,0.0045 -0.16874,0.01527 -0.0198,0.0083 -0.0855,0.05398 -0.1459,0.101556 -0.0605,0.04757 -0.12613,0.09231 -0.14599,0.0994 -0.0214,0.0077 -0.0839,0.01309 -0.153111,0.01334 -0.0644,2.36e-4 -0.161909,0.0054 -0.21678,0.01129 -0.0825,0.009 -0.11923,0.008 -0.21229,-0.0056 -0.114719,-0.01682 -0.196199,-0.01883 -0.488009,-0.01201 -0.13245,0.0031 -0.177621,0.008 -0.229791,0.02478 -0.0509,0.01641 -0.0887,0.02073 -0.174849,0.01998 -0.0604,-4.76e-4 -0.13842,0.0045 -0.17329,0.01113 -0.0349,0.0066 -0.13378,0.01614 -0.21981,0.02111 -0.086,0.0049 -0.21935,0.0204 -0.29629,0.03429 -0.13373,0.02415 -0.16893,0.02713 -0.2248,0.01906 z m 1.04407,-1.163687 c -0.0495,-0.0052 -0.150621,-0.007 -0.224811,-0.004 -0.149949,0.006 -0.12784,0.01244 -0.275579,-0.07927 -0.0397,-0.02465 -0.0604,-0.03003 -0.12894,-0.03363 -0.10166,-0.0054 -0.23299,0.01162 -0.34441,0.0445 -0.10748,0.0317 -0.1957,0.02826 -0.28969,-0.01129 -0.0568,-0.02389 -0.071,-0.02594 -0.13924,-0.02007 -0.0418,0.0036 -0.10205,0.01355 -0.13386,0.02213 -0.0572,0.01541 -0.0587,0.01527 -0.12679,-0.01215 -0.0687,-0.02764 -0.0693,-0.0277 -0.16357,-0.01475 -0.0884,0.01214 -0.10009,0.01159 -0.17795,-0.0085 -0.0458,-0.01181 -0.14248,-0.02572 -0.21481,-0.03092 -0.0775,-0.0055 -0.14315,-0.01543 -0.15986,-0.02401 -0.0768,-0.03942 -0.12042,-0.04712 -0.19986,-0.0353 -0.12825,0.01907 -0.28651,-0.0238 -0.41482,-0.112372 -0.0631,-0.04355 -0.0631,-0.04355 -0.15445,-0.04074 -0.0581,0.0018 -0.11269,-0.0027 -0.14987,-0.01232 -0.0322,-0.0083 -0.1128,-0.02384 -0.17916,-0.03447 -0.0815,-0.01306 -0.13798,-0.02811 -0.174,-0.04636 -0.0294,-0.01487 -0.11217,-0.04185 -0.18407,-0.05998 -0.0719,-0.01812 -0.19143,-0.05629 -0.26562,-0.08483 -0.0876,-0.03369 -0.19069,-0.06374 -0.29403,-0.08569 -0.11506,-0.02443 -0.18289,-0.0449 -0.24479,-0.07384 -0.10898,-0.05095 -0.4176,-0.14745 -0.51254,-0.160267 -0.0399,-0.0054 -0.1545,-0.01184 -0.25455,-0.01433 -0.11314,-0.0028 -0.19056,-0.009 -0.20481,-0.01649 -0.0126,-0.0066 -0.0499,-0.03528 -0.0828,-0.06378 -0.033,-0.0285 -0.0892,-0.0713 -0.124891,-0.0951 -0.0637,-0.04245 -0.207939,-0.182792 -0.378639,-0.368367 -0.0472,-0.05139 -0.1399,-0.139787 -0.20584,-0.196428 -0.15711,-0.134952 -0.35218,-0.33646 -0.43961,-0.454117 -0.0385,-0.05177 -0.11602,-0.141155 -0.172351,-0.198639 -0.0564,-0.05748 -0.102399,-0.108288 -0.102399,-0.112902 0,-0.0046 -0.0335,-0.03311 -0.0743,-0.06333 -0.0409,-0.03022 -0.0779,-0.0606 -0.0823,-0.06751 -0.004,-0.0069 -0.0106,-0.0475 -0.0139,-0.0902 -0.005,-0.07042 -0.009,-0.08077 -0.0387,-0.111434 -0.0183,-0.01894 -0.0577,-0.04291 -0.0896,-0.05453 -0.0725,-0.02644 -0.10371,-0.05971 -0.13373,-0.142688 -0.0159,-0.04392 -0.0506,-0.101873 -0.10206,-0.170314 -0.12303,-0.163655 -0.28479,-0.467016 -0.30616,-0.574149 -0.0226,-0.112915 0.0219,-0.12175 0.1921,-0.03822 0.0615,0.03022 0.11797,0.05495 0.12531,0.05495 0.0323,0 0.28102,0.107811 0.41497,0.17983 0.0806,0.04332 0.184,0.0921 0.22979,0.108384 0.17624,0.06265 0.37704,0.140574 0.42535,0.165056 0.0542,0.02747 0.0721,0.04686 0.13287,0.143699 0.0432,0.06886 0.0581,0.07459 0.12298,0.04745 0.0454,-0.01896 0.14661,-0.01935 0.19117,-7.15e-4 0.0187,0.0078 0.0602,0.03195 0.0921,0.05357 0.0318,0.02162 0.0805,0.05055 0.10793,0.0643 0.0736,0.03679 0.42014,0.144366 0.48925,0.151848 0.0473,0.0051 0.087,0.02091 0.19285,0.07676 0.0733,0.03867 0.15659,0.0786 0.18515,0.08873 0.0774,0.02744 0.29971,0.113676 0.39827,0.154484 0.0476,0.01972 0.11281,0.04062 0.14488,0.04646 0.0829,0.01511 0.23596,0.06195 0.31942,0.09778 0.16161,0.06938 0.73239,0.228306 0.96279,0.268089 0.0797,0.01376 0.16511,0.02874 0.18983,0.0333 0.0248,0.0045 0.0841,0.0086 0.13198,0.0089 0.12718,8.2e-4 0.47471,0.05009 0.61736,0.08745 0.23692,0.06204 0.34271,0.07344 0.68939,0.07429 0.55401,0.0014 0.64111,8.21e-4 0.81427,-0.0054 0.15914,-0.0057 0.176349,-0.0045 0.2729,0.01902 0.19789,0.0483 0.46258,0.0267 0.80587,-0.06579 0.0797,-0.02146 0.0797,-0.02146 0.202389,0.0011 0.12275,0.02252 0.12275,0.02252 0.23115,-0.0038 0.12899,-0.03132 0.182951,-0.03851 0.49091,-0.06537 0.26414,-0.02305 0.30732,-0.0301 0.43462,-0.07087 0.11268,-0.0361 0.188911,-0.04975 0.279081,-0.04998 0.081,-2.36e-4 0.220809,-0.02002 0.315389,-0.0447 0.0357,-0.0093 0.116651,-0.02098 0.17984,-0.02589 0.0632,-0.0049 0.139141,-0.01565 0.16877,-0.02384 0.0296,-0.0082 0.121801,-0.02196 0.204831,-0.0306 0.083,-0.0086 0.16217,-0.01818 0.175909,-0.0212 0.0759,-0.0167 0.176911,-0.05057 0.269761,-0.09044 0.0577,-0.02477 0.22855,-0.08698 0.379669,-0.13822 0.156961,-0.05323 0.311161,-0.112297 0.359681,-0.13779 0.0793,-0.0417 0.18409,-0.08021 0.28994,-0.106617 0.026,-0.0065 0.0764,-0.03425 0.118779,-0.06556 0.0405,-0.02987 0.078,-0.0543 0.0834,-0.0543 0.005,0 0.0496,-0.02298 0.0983,-0.05106 0.061,-0.03515 0.131331,-0.06419 0.226091,-0.0932 0.139719,-0.04279 0.20368,-0.07636 0.33962,-0.178258 0.0287,-0.0215 0.0845,-0.05222 0.12387,-0.06828 0.0962,-0.03913 0.186129,-0.104263 0.288569,-0.208901 0.0467,-0.04771 0.103531,-0.09623 0.12627,-0.107829 0.0227,-0.01159 0.07,-0.04407 0.10491,-0.07218 0.0679,-0.0546 0.251201,-0.147236 0.345601,-0.174677 0.0833,-0.02419 0.103099,-0.03662 0.192729,-0.120442 0.0606,-0.05668 0.10131,-0.08498 0.163,-0.11335 0.0452,-0.0208 0.107781,-0.05863 0.13903,-0.08407 0.0312,-0.02545 0.094,-0.07341 0.13955,-0.10658 0.0455,-0.03317 0.0994,-0.07303 0.119661,-0.08858 0.0524,-0.04012 0.177659,-0.114765 0.18325,-0.10917 0.009,0.009 -0.0342,0.117611 -0.0736,0.184953 -0.0219,0.0373 -0.0469,0.09348 -0.0558,0.124851 -0.009,0.03157 -0.0361,0.08512 -0.0609,0.119893 -0.0247,0.03456 -0.0607,0.08643 -0.08,0.115248 -0.0194,0.02882 -0.0544,0.07602 -0.0777,0.104906 -0.075,0.09272 -0.0868,0.114453 -0.10785,0.199146 -0.0209,0.0838 -0.0735,0.192331 -0.15558,0.320855 -0.0238,0.03731 -0.0574,0.09576 -0.0744,0.129885 -0.0211,0.04206 -0.0639,0.0958 -0.13281,0.166944 -0.0559,0.0577 -0.115321,0.125138 -0.13196,0.149867 -0.0528,0.07841 -0.120231,0.210757 -0.17315,0.339553 -0.0282,0.06861 -0.0621,0.142795 -0.0753,0.164854 -0.0408,0.0681 -0.130639,0.159985 -0.262969,0.268822 -0.0697,0.05736 -0.162761,0.135859 -0.20672,0.17444 -0.0439,0.03858 -0.111811,0.08592 -0.15076,0.105195 -0.068,0.03366 -0.282571,0.173553 -0.409521,0.267047 -0.0492,0.03623 -0.191499,0.110803 -0.441789,0.231514 -0.0126,0.0061 -0.0396,0.02525 -0.0599,0.04259 -0.0204,0.01734 -0.0662,0.04941 -0.10195,0.07128 -0.0357,0.02186 -0.0919,0.05673 -0.12489,0.07748 -0.0329,0.02075 -0.15212,0.08815 -0.26476,0.149781 -0.112659,0.06163 -0.228579,0.126837 -0.257629,0.144904 -0.029,0.01807 -0.0897,0.04835 -0.134891,0.06729 -0.0451,0.01894 -0.120279,0.053 -0.166979,0.0757 -0.0467,0.0227 -0.168111,0.07012 -0.26977,0.105408 -0.10166,0.03528 -0.227551,0.07919 -0.27976,0.09757 -0.0892,0.03141 -0.10305,0.03345 -0.229981,0.03392 -0.104209,3.44e-4 -0.151949,0.0052 -0.20886,0.02095 -0.112129,0.03107 -0.195129,0.04693 -0.31048,0.05932 -0.11082,0.0119 -0.21946,0.03948 -0.28306,0.07184 -0.0382,0.01946 -0.13203,0.03757 -0.30142,0.05822 -0.0495,0.006 -0.1214,0.01771 -0.159859,0.02594 -0.195021,0.04178 -0.296671,0.06514 -0.36468,0.08379 -0.0412,0.01131 -0.109831,0.02131 -0.152481,0.02223 -0.0693,0.0015 -0.0849,-0.0019 -0.14625,-0.03157 -0.0687,-0.03324 -0.0687,-0.03324 -0.1718,0.01495 -0.10067,0.04705 -0.105569,0.04825 -0.208429,0.05054 -0.058,0.0013 -0.14581,-0.0019 -0.195261,-0.0071 z m -0.304731,-2.51153 c -0.0932,-0.01697 -0.190129,-0.01838 -0.3,-0.0044 -0.0619,0.0079 -0.138759,0.0076 -0.286019,-0.0011 -0.15012,-0.0088 -0.21877,-0.009 -0.26976,-7.15e-4 -0.0484,0.0079 -0.0918,0.0082 -0.14833,0.0011 -0.20552,-0.02606 -0.33141,-0.03467 -0.46958,-0.03213 -0.0824,0.0015 -0.2263,-0.0018 -0.31972,-0.0074 -0.15172,-0.0091 -0.18797,-0.01503 -0.33969,-0.0556 -0.0934,-0.02498 -0.21706,-0.05433 -0.27477,-0.06523 -0.18561,-0.03506 -0.21342,-0.04137 -0.2945,-0.06681 -0.0438,-0.01376 -0.12065,-0.03324 -0.1707,-0.04331 -0.0501,-0.01007 -0.13335,-0.03696 -0.18507,-0.05978 -0.0518,-0.02281 -0.16848,-0.06084 -0.25944,-0.08453 -0.0909,-0.02368 -0.21908,-0.06433 -0.28474,-0.09034 -0.11436,-0.04529 -0.33933,-0.107278 -0.4341,-0.119607 -0.0513,-0.0066 -0.37447,-0.108702 -0.52627,-0.166147 -0.0559,-0.02116 -0.11252,-0.03846 -0.1258,-0.03846 -0.0133,0 -0.0597,-0.0093 -0.10316,-0.0207 -0.24739,-0.06482 -0.35589,-0.09024 -0.50864,-0.119199 -0.0934,-0.01771 -0.20159,-0.04479 -0.24039,-0.06019 -0.0388,-0.01539 -0.0973,-0.03278 -0.12989,-0.03863 -0.11086,-0.01987 -0.20731,-0.07794 -0.62253,-0.374747 -0.035,-0.02502 -0.0777,-0.04748 -0.0949,-0.04992 -0.181681,-0.02574 -0.27948,-0.06206 -0.38841,-0.144224 -0.0398,-0.03008 -0.10397,-0.07496 -0.14244,-0.09974 -0.0854,-0.05499 -0.356511,-0.18695 -0.40463,-0.196937 -0.0192,-0.004 -0.0838,-0.03168 -0.14336,-0.06152 -0.0596,-0.02985 -0.18549,-0.08113 -0.27975,-0.113973 -0.0942,-0.03285 -0.18816,-0.07083 -0.2087,-0.08441 -0.0531,-0.03516 -0.0808,-0.09768 -0.12713,-0.287762 -0.0307,-0.125742 -0.0404,-0.185432 -0.0404,-0.248662 0,-0.0744 -0.003,-0.0909 -0.0347,-0.15575 -0.12781,-0.2667 -0.2101,-0.85431 -0.16351,-1.16756 0.01,-0.0646 0.009,-0.0926 -0.004,-0.16776 -0.0291,-0.16204 -0.0369,-0.23244 -0.0367,-0.33195 2.29e-4,-0.13998 0.0139,-0.15092 0.0838,-0.0673 0.0539,0.0645 0.16739,0.14653 0.26576,0.19211 0.0494,0.0229 0.10924,0.0608 0.14308,0.0907 0.0761,0.0673 0.0959,0.0766 0.23455,0.11161 0.13849,0.0349 0.291589,0.10582 0.37376,0.17303 0.10611,0.0868 0.218279,0.12565 0.363689,0.126 0.0673,1.2e-4 0.0771,0.003 0.188481,0.0612 0.0646,0.0336 0.153779,0.0743 0.19817,0.0905 0.0443,0.0162 0.11468,0.0471 0.15621,0.0686 0.107489,0.0558 0.263259,0.1226 0.34768,0.14914 0.0583,0.0183 0.0854,0.0344 0.139869,0.0829 0.0846,0.0754 0.141241,0.11196 0.206371,0.13347 0.0281,0.009 0.12069,0.0504 0.20587,0.0914 0.0852,0.041 0.1944,0.0872 0.24273,0.1025 0.06,0.0191 0.10517,0.0413 0.14243,0.07 0.0497,0.0384 0.0616,0.0428 0.134049,0.0501 0.0585,0.006 0.10513,0.019 0.17648,0.0495 0.0534,0.0228 0.131081,0.0476 0.172741,0.0552 0.0416,0.008 0.104959,0.0228 0.140669,0.0339 0.17623,0.0546 0.233841,0.0708 0.25341,0.0709 0.0117,1.2e-4 0.0659,0.0159 0.120431,0.035 0.0585,0.0205 0.13622,0.0391 0.18982,0.0453 0.0499,0.006 0.15146,0.0278 0.225639,0.0489 0.172161,0.0489 0.27984,0.0656 0.403201,0.0623 0.0818,-0.002 0.11397,0.002 0.189839,0.0237 0.0722,0.0208 0.10654,0.0254 0.163711,0.0222 0.10341,-0.006 0.182269,0.006 0.304089,0.04596 0.0587,0.01924 0.1441,0.04035 0.189831,0.04693 0.0457,0.0066 0.11237,0.02299 0.148089,0.03648 0.0357,0.01349 0.0807,0.03019 0.0999,0.0371 0.0274,0.0098 0.074,0.0103 0.21481,0.0021 0.0989,-0.0057 0.26076,-0.01017 0.35968,-0.0098 0.320491,0.0011 0.56583,0.0016 0.74133,0.0018 0.114171,9.8e-5 0.198001,0.0053 0.249771,0.01555 0.1267,0.02508 0.27843,0.03818 0.42764,0.03691 0.077,-7.14e-4 0.146619,-0.0031 0.154869,-0.0054 0.0306,-0.0087 0.30661,-0.03428 0.359671,-0.03326 0.0302,5.82e-4 0.133639,-0.0017 0.229799,-0.005 0.16432,-0.0057 0.18597,-0.0089 0.359681,-0.05246 0.16003,-0.04013 0.19221,-0.04533 0.23978,-0.03868 0.12106,0.01693 0.1725,0.01175 0.22827,-0.02294 0.0735,-0.04571 0.13156,-0.06279 0.21419,-0.06302 0.0436,-1.21e-4 0.109629,-0.01 0.16701,-0.0248 0.0753,-0.0195 0.120129,-0.0246 0.21742,-0.0248 0.11096,-2.4e-4 0.133079,-0.004 0.23478,-0.0346 0.13983,-0.0429 0.23969,-0.0815 0.387049,-0.1495 0.122931,-0.0568 0.187791,-0.0772 0.3151,-0.0994 0.0478,-0.008 0.14293,-0.0391 0.234701,-0.0758 0.0849,-0.034 0.1854,-0.0683 0.22333,-0.0763 0.0698,-0.0147 0.11062,-0.0312 0.201009,-0.0812 0.0455,-0.0253 0.0622,-0.0282 0.18982,-0.0342 0.147441,-0.007 0.206111,-0.0208 0.278401,-0.0661 0.0612,-0.0383 0.1145,-0.0538 0.212989,-0.0617 0.0757,-0.006 0.0975,-0.0118 0.124891,-0.0325 0.111519,-0.0846 0.2108,-0.14399 0.33125,-0.19804 0.12826,-0.0576 0.14166,-0.0614 0.2141,-0.0621 0.0773,-7.14e-4 0.0773,-7.14e-4 0.1572,-0.0822 0.10837,-0.11051 0.1779,-0.15733 0.39465,-0.26574 0.10166,-0.0508 0.20956,-0.10743 0.23979,-0.12575 0.0302,-0.0183 0.0831,-0.0443 0.11742,-0.0577 0.0397,-0.0155 0.0871,-0.046 0.12989,-0.0833 0.0371,-0.0324 0.0973,-0.0798 0.13376,-0.10536 0.0364,-0.0255 0.10393,-0.0852 0.14986,-0.13256 0.046,-0.0473 0.10451,-0.0968 0.13016,-0.10993 0.0256,-0.0131 0.082,-0.0589 0.12512,-0.10181 0.0888,-0.0882 0.13919,-0.11744 0.186499,-0.10817 0.107181,0.021 0.121211,0.0198 0.14908,-0.0134 0.0146,-0.0173 0.0293,-0.0481 0.0328,-0.0685 0.0213,-0.12482 0.0593,-0.18177 0.15137,-0.227 0.0335,-0.0165 0.0896,-0.053 0.12441,-0.0813 0.0349,-0.0283 0.0909,-0.0696 0.12445,-0.0918 0.0969,-0.0643 0.16765,-0.1501 0.22893,-0.27773 0.0482,-0.10029 0.0604,-0.11742 0.12569,-0.17485 0.0398,-0.035 0.0884,-0.0804 0.10805,-0.10093 0.0197,-0.0205 0.0722,-0.0655 0.11665,-0.0999 0.0444,-0.0345 0.11868,-0.0932 0.16486,-0.13043 0.12684,-0.10241 0.15283,-0.10234 0.22916,5.82e-4 0.0274,0.037 0.0527,0.0781 0.0562,0.0913 0.003,0.0135 -0.002,0.0488 -0.0113,0.0799 -0.01,0.0306 -0.0192,0.0613 -0.0211,0.0681 -0.002,0.007 0.003,0.0309 0.0112,0.0537 0.009,0.0249 0.0146,0.0783 0.0146,0.13433 0,0.0678 0.009,0.12805 0.03,0.22264 0.0324,0.13987 0.0361,0.18708 0.0191,0.24147 -0.007,0.0213 -0.0123,0.16922 -0.0144,0.37959 -0.002,0.18959 -0.008,0.36718 -0.0129,0.39465 -0.005,0.0275 -0.0168,0.0927 -0.0259,0.14487 -0.0453,0.26048 -0.13938,0.50618 -0.27306,0.71305 -0.0253,0.0392 -0.0553,0.0857 -0.0667,0.1034 -0.0123,0.0191 -0.0487,0.0475 -0.0897,0.0699 -0.0444,0.0243 -0.0855,0.0571 -0.11494,0.0918 -0.0906,0.10665 -0.15689,0.17431 -0.22075,0.22553 -0.0494,0.0396 -0.0746,0.0697 -0.1049,0.12528 -0.0566,0.10376 -0.17606,0.1953 -0.27929,0.2141 -0.0799,0.0145 -0.12996,0.0523 -0.19266,0.1454 -0.0166,0.02473 -0.0403,0.05395 -0.0526,0.06494 -0.0123,0.01099 -0.0404,0.04696 -0.0625,0.07993 -0.022,0.03297 -0.0545,0.07568 -0.072,0.09492 -0.0175,0.01923 -0.0524,0.06419 -0.0775,0.09991 -0.0618,0.08826 -0.10442,0.130082 -0.21984,0.215981 -0.10331,0.07688 -0.1674,0.116772 -0.3075,0.191372 -0.0467,0.02487 -0.10741,0.06645 -0.13489,0.09238 -0.0275,0.02594 -0.0859,0.07458 -0.12988,0.108085 -0.0439,0.03352 -0.10241,0.07854 -0.12988,0.10007 -0.0275,0.02153 -0.10121,0.06691 -0.16384,0.100847 -0.0627,0.03393 -0.16604,0.09438 -0.2298,0.134323 -0.0638,0.03994 -0.1565,0.0905 -0.2061,0.112367 -0.0496,0.02186 -0.12154,0.05975 -0.15986,0.0842 -0.0383,0.02445 -0.11799,0.06859 -0.17706,0.09808 -0.094,0.04694 -0.1183,0.05473 -0.19482,0.06244 -0.11737,0.01185 -0.1682,0.0304 -0.22543,0.08232 -0.0466,0.04221 -0.0895,0.06694 -0.20826,0.119853 -0.0311,0.01385 -0.0591,0.02941 -0.0623,0.03459 -0.003,0.0052 -0.0519,0.02853 -0.10834,0.05189 -0.0564,0.02337 -0.13682,0.0576 -0.17872,0.07608 -0.0615,0.02714 -0.089,0.0336 -0.14268,0.0336 -0.0478,0 -0.0826,0.0068 -0.12363,0.02402 -0.0314,0.01322 -0.0839,0.02895 -0.11648,0.03498 -0.0327,0.006 -0.10232,0.03086 -0.15486,0.0552 -0.0525,0.02434 -0.11351,0.04886 -0.13549,0.0545 -0.0582,0.01493 -0.30473,0.0484 -0.41336,0.05613 -0.0515,0.0037 -0.11445,0.01358 -0.13988,0.02204 -0.0255,0.0084 -0.10243,0.01878 -0.17112,0.02293 -0.0687,0.0042 -0.19908,0.01894 -0.28974,0.03288 -0.14019,0.02155 -0.357,0.03441 -0.47119,0.02796 -0.009,-4.76e-4 -0.04,-0.01941 -0.0685,-0.042 -0.0332,-0.02621 -0.0658,-0.04292 -0.0903,-0.04621 -0.0413,-0.0055 -0.0358,-0.0095 -0.13094,0.09541 -0.0446,0.0492 -0.0846,0.06166 -0.19815,0.06175 -0.11518,1e-4 -0.21665,0.02267 -0.28072,0.06249 -0.0523,0.03248 -0.0523,0.03248 -0.203,0.03349 -0.11177,7.15e-4 -0.16348,0.0053 -0.20013,0.0176 -0.0427,0.0143 -0.0612,0.01503 -0.13489,0.0052 -0.0764,-0.01017 -0.14996,-0.0088 -0.29057,0.0054 -0.0246,0.0025 -0.0784,-0.0016 -0.1196,-0.0091 z m -1.114009,-3.113331 c -0.11918,-0.0234 -0.14164,-0.0245 -0.21981,-0.0109 -0.0846,0.0147 -0.17535,0.009 -0.41381,-0.0243 -0.0711,-0.01 -0.1376,-0.0126 -0.20982,-0.008 -0.11449,0.007 -0.0981,0.0108 -0.28056,-0.0635 -0.0582,-0.0237 -0.0966,-0.0319 -0.17227,-0.0367 -0.0983,-0.006 -0.20763,-0.03 -0.29476,-0.064 -0.0261,-0.0102 -0.0876,-0.0216 -0.13663,-0.0254 -0.049,-0.004 -0.11684,-0.0133 -0.15075,-0.0212 -0.0339,-0.008 -0.10845,-0.0167 -0.16566,-0.0197 -0.33002,-0.0172 -0.64326,-0.0597 -0.74054,-0.10069 -0.0336,-0.0141 -0.11739,-0.0457 -0.18627,-0.0701 -0.0689,-0.0244 -0.17076,-0.0688 -0.22638,-0.0987 -0.10452,-0.0561 -0.26303,-0.12174 -0.36253,-0.15021 -0.0313,-0.009 -0.093,-0.0313 -0.13693,-0.0496 -0.11786,-0.0491 -0.311881,-0.12515 -0.37404,-0.14653 -0.0681,-0.0234 -0.20268,-0.0958 -0.29932,-0.16104 -0.0832,-0.0561 -0.16463,-0.0951 -0.29009,-0.13897 -0.0471,-0.0164 -0.12384,-0.0505 -0.17054,-0.0757 -0.0467,-0.0252 -0.1164,-0.0627 -0.154861,-0.0833 -0.0385,-0.0206 -0.10678,-0.0466 -0.151799,-0.0578 -0.045,-0.0112 -0.100101,-0.0318 -0.1224,-0.0459 -0.0223,-0.0141 -0.0644,-0.0361 -0.0935,-0.049 -0.0291,-0.0129 -0.0803,-0.0421 -0.11361,-0.0648 -0.0333,-0.0227 -0.10649,-0.0613 -0.16255,-0.0856 -0.0561,-0.0243 -0.11621,-0.0559 -0.13368,-0.0701 -0.0294,-0.0241 -0.0573,-0.0431 -0.23929,-0.1631 -0.0372,-0.0245 -0.0979,-0.07 -0.13489,-0.10089 -0.037,-0.0309 -0.13013,-0.0919 -0.20707,-0.135577 -0.077,-0.0436 -0.21631,-0.1264 -0.30973,-0.18394 -0.1486,-0.0915 -0.20808,-0.12597 -0.38263,-0.22145 -0.0203,-0.0112 -0.0583,-0.0289 -0.0844,-0.0396 -0.0916,-0.0375 -0.10733,-0.0985 -0.084,-0.32686 0.009,-0.0857 0.0139,-0.15901 0.0115,-0.1629 -0.004,-0.008 -3e-5,-0.0377 0.0354,-0.23476 0.012,-0.0668 0.025,-0.19508 0.0292,-0.28974 0.009,-0.1865 0.0154,-0.21675 0.13001,-0.56211 0.057,-0.17181 0.11018,-0.38453 0.11018,-0.44073 0,-0.0467 0.0334,-0.18068 0.0656,-0.26286 0.0463,-0.11819 0.0956,-0.16472 0.169269,-0.15976 0.0284,0.002 0.0333,-0.002 0.0474,-0.038 0.0133,-0.0338 0.0203,-0.0402 0.0443,-0.0402 0.0329,0 0.151041,0.0666 0.23792,0.13409 0.0961,0.0747 0.14806,0.10657 0.35965,0.22069 0.1099,0.0593 0.23128,0.12669 0.269761,0.14981 0.0385,0.0232 0.111389,0.0633 0.16206,0.0893 0.0507,0.026 0.12574,0.0713 0.16682,0.10085 0.0753,0.054 0.164149,0.10668 0.30953,0.18343 0.0434,0.0229 0.117559,0.0669 0.164839,0.0979 0.0919,0.06 0.182951,0.1048 0.29737,0.14607 0.0391,0.0141 0.10639,0.044 0.149611,0.0665 0.059,0.0307 0.105709,0.046 0.18727,0.0612 0.121299,0.0227 0.16113,0.0367 0.296959,0.10426 0.0517,0.0257 0.132451,0.0615 0.17956,0.0797 0.0471,0.0181 0.12128,0.0507 0.16485,0.0725 0.0436,0.0217 0.162391,0.065 0.264041,0.0964 0.101659,0.0313 0.245529,0.0768 0.319719,0.10114 0.0742,0.0243 0.159611,0.0495 0.189831,0.0558 0.0302,0.006 0.117899,0.0363 0.194829,0.0667 0.168881,0.0664 0.39399,0.12709 0.568161,0.1531 0.15229,0.0227 0.23925,0.0442 0.40097,0.099 0.066,0.0224 0.15587,0.0452 0.19983,0.0507 0.11498,0.0146 0.254719,0.0547 0.369459,0.10622 0.106911,0.048 0.199761,0.0721 0.279961,0.0728 0.0301,2.4e-4 0.0738,0.0104 0.1099,0.0256 0.0329,0.0139 0.10716,0.0382 0.16486,0.0541 0.0577,0.0159 0.12514,0.0364 0.14987,0.0456 0.0381,0.0141 0.0693,0.0157 0.20481,0.0105 0.0944,-0.003 0.1926,-0.002 0.23979,0.004 0.0439,0.006 0.1385,0.0166 0.21008,0.024 0.0981,0.0101 0.14608,0.0202 0.194819,0.0409 0.0543,0.0231 0.0815,0.0279 0.16959,0.0303 0.0577,0.002 0.12964,0.01 0.159861,0.0184 0.0785,0.0223 0.0968,0.0204 0.22751,-0.0235 0.14802,-0.0496 0.220189,-0.0678 0.30201,-0.0758 0.0357,-0.003 0.117369,-0.0129 0.18142,-0.0208 0.0678,-0.009 0.178519,-0.0133 0.26477,-0.0117 0.143709,0.003 0.152759,0.002 0.29316,-0.0352 0.0884,-0.0231 0.189689,-0.042 0.25977,-0.0484 0.0815,-0.008 0.13233,-0.0177 0.17485,-0.0354 0.13804,-0.0575 0.1621,-0.0646 0.26564,-0.0782 0.0597,-0.008 0.14379,-0.0233 0.18695,-0.0343 0.0432,-0.011 0.11183,-0.0228 0.15262,-0.0262 0.101199,-0.009 0.13868,-0.0188 0.24902,-0.0686 0.10369,-0.0468 0.238109,-0.0879 0.34573,-0.10581 0.16668,-0.0277 0.278609,-0.0615 0.382399,-0.11551 0.057,-0.0297 0.10873,-0.0539 0.114901,-0.0538 0.0125,1.1e-4 0.30662,-0.0903 0.490789,-0.15095 0.066,-0.0217 0.17033,-0.0543 0.23198,-0.0724 0.112071,-0.033 0.112071,-0.033 0.19982,-0.11722 0.085,-0.0816 0.0938,-0.087 0.277571,-0.17277 0.201269,-0.0939 0.22964,-0.10766 0.421519,-0.20468 0.106351,-0.0538 0.210081,-0.11853 0.53829,-0.33609 0.269591,-0.17869 0.291691,-0.1886 0.398771,-0.1789 0.0724,0.007 0.0724,0.007 0.112889,-0.0301 0.0304,-0.0274 0.0438,-0.0497 0.0538,-0.0887 0.0109,-0.0428 0.0265,-0.066 0.0882,-0.13075 0.0412,-0.0433 0.118431,-0.10975 0.171521,-0.14768 0.11355,-0.0811 0.15108,-0.1204 0.20779,-0.2175 0.0243,-0.0416 0.0713,-0.0999 0.1118,-0.13868 0.0384,-0.0368 0.0857,-0.0937 0.1051,-0.12651 0.0194,-0.0329 0.0615,-0.0913 0.0934,-0.12989 0.118751,-0.14342 0.152071,-0.18829 0.203421,-0.27386 0.0289,-0.0482 0.1098,-0.16088 0.17972,-0.25039 0.0699,-0.0895 0.140389,-0.189 0.15659,-0.22109 0.0366,-0.0725 0.0854,-0.12915 0.11122,-0.12915 0.0374,0 0.0598,0.0219 0.12406,0.12122 0.0356,0.0549 0.10566,0.15692 0.15582,0.22663 0.0502,0.0697 0.10265,0.1537 0.11663,0.18668 0.014,0.0329 0.0446,0.0903 0.0682,0.12737 0.0603,0.0951 0.078,0.13217 0.10366,0.21744 0.0124,0.0411 0.0352,0.0976 0.0509,0.12539 0.017,0.0305 0.034,0.0831 0.0427,0.13239 0.0144,0.0821 0.0369,0.1315 0.0766,0.16738 0.0405,0.0366 0.0616,0.0944 0.0688,0.18888 0.004,0.0585 0.0147,0.10754 0.029,0.13954 0.0357,0.0801 0.062,0.20031 0.072,0.32935 0.005,0.0665 0.0146,0.17162 0.021,0.23363 0.0187,0.18177 -0.007,0.28469 -0.111309,0.44493 -0.0868,0.13327 -0.14216,0.19263 -0.29268,0.31358 -0.0647,0.0519 -0.13435,0.11537 -0.15487,0.1409 -0.0205,0.0255 -0.0519,0.0609 -0.0699,0.0786 -0.0394,0.0388 -0.23731,0.17461 -0.32521,0.22308 -0.0878,0.0483 -0.1473,0.093 -0.26593,0.19921 -0.0561,0.0502 -0.13338,0.11415 -0.1717,0.14201 -0.0383,0.0278 -0.10144,0.0887 -0.14029,0.13523 -0.0776,0.093 -0.11861,0.12626 -0.22292,0.1811 -0.0426,0.0224 -0.0981,0.0645 -0.14312,0.10869 -0.0451,0.0443 -0.10212,0.0875 -0.147751,0.11214 -0.0408,0.022 -0.104559,0.0643 -0.141619,0.0939 -0.037,0.0296 -0.0947,0.0682 -0.12804,0.0858 -0.0334,0.0175 -0.11429,0.0747 -0.17984,0.12713 -0.0656,0.0524 -0.14616,0.11141 -0.17912,0.13116 -0.13554,0.0812 -0.37232,0.22709 -0.40964,0.25243 -0.0628,0.0427 -0.13612,0.077 -0.266371,0.12493 -0.102159,0.0375 -0.13023,0.0528 -0.183739,0.0998 -0.0413,0.0363 -0.097,0.0712 -0.1612,0.10083 -0.054,0.0249 -0.11829,0.0583 -0.14302,0.0741 -0.0248,0.0157 -0.0837,0.0423 -0.130971,0.059 -0.0473,0.0167 -0.116979,0.0444 -0.154859,0.0616 -0.0379,0.0172 -0.0981,0.0416 -0.13379,0.0542 -0.0357,0.0126 -0.11216,0.0442 -0.16986,0.0702 -0.0577,0.026 -0.149871,0.0642 -0.20481,0.0848 -0.0549,0.0206 -0.16259,0.0628 -0.23919,0.0936 -0.20761,0.0836 -0.27253,0.10409 -0.38658,0.12179 -0.0849,0.0132 -0.118021,0.0238 -0.18351,0.0588 -0.0885,0.0473 -0.15455,0.0706 -0.2298,0.0812 -0.0275,0.004 -0.10841,0.0238 -0.179841,0.0444 -0.0714,0.0206 -0.163609,0.0405 -0.20482,0.0442 -0.0412,0.004 -0.108649,0.0154 -0.14986,0.0258 -0.13969,0.0353 -0.154749,0.0379 -0.294749,0.05 -0.077,0.007 -0.164591,0.0186 -0.19482,0.0267 -0.169951,0.0451 -0.325281,0.0647 -0.57949,0.073 -0.140121,0.004 -0.37167,0.0134 -0.51454,0.0195 -0.200171,0.009 -0.29118,0.008 -0.396711,-9.53e-4 -0.117799,-0.0105 -0.15621,-0.01 -0.274749,0.004 -0.20911,0.0249 -0.26517,0.0291 -0.42257,0.0317 -0.0797,10e-4 -0.18533,0.005 -0.234781,0.008 -0.0495,0.003 -0.112409,10e-4 -0.13989,-0.004 z m 1.090709,-3.33278 c -0.0139,-0.014 -0.2813,-0.0221 -0.361569,-0.0111 -0.0655,0.009 -0.10298,0.008 -0.20508,-0.006 -0.1026,-0.0137 -0.13972,-0.0147 -0.20755,-0.006 -0.0775,0.0104 -0.0876,0.01 -0.16459,-0.0145 -0.13312,-0.0415 -0.32736,-0.0736 -0.55656,-0.0921 -0.15806,-0.0127 -0.2447,-0.0249 -0.32789,-0.0458 -0.086,-0.0217 -0.13644,-0.0285 -0.21075,-0.0285 -0.0727,0 -0.11273,-0.005 -0.15668,-0.0205 -0.0466,-0.0163 -0.0727,-0.0192 -0.12395,-0.0144 -0.0738,0.007 -0.21643,-0.017 -0.38965,-0.0652 -0.0624,-0.0174 -0.16356,-0.0354 -0.24978,-0.0443 -0.16271,-0.0169 -0.31951,-0.0574 -0.41464,-0.106979 -0.0329,-0.0172 -0.0879,-0.046 -0.12204,-0.0639 -0.0341,-0.018 -0.0881,-0.0377 -0.11989,-0.0438 -0.1042,-0.02 -0.34554,-0.102009 -0.44746,-0.15201 -0.0809,-0.0397 -0.12176,-0.0529 -0.21439,-0.0691 -0.063,-0.0111 -0.14164,-0.0306 -0.174841,-0.0435 -0.0332,-0.0129 -0.0963,-0.0357 -0.140289,-0.0507 -0.0439,-0.0151 -0.122651,-0.0451 -0.17485,-0.0668 -0.0522,-0.0217 -0.16093,-0.0569 -0.2416,-0.0782 -0.0807,-0.0213 -0.17283,-0.0518 -0.204821,-0.068 -0.032,-0.0161 -0.112079,-0.0483 -0.178029,-0.0715 -0.17364,-0.0611 -0.26915,-0.11009 -0.359671,-0.184351 -0.0439,-0.0361 -0.122609,-0.0914 -0.174769,-0.122989 -0.0522,-0.0316 -0.13043,-0.0838 -0.17392,-0.116 -0.0845,-0.0626 -0.18675,-0.116821 -0.30233,-0.160341 -0.0393,-0.0148 -0.0972,-0.045 -0.1286,-0.0669 -0.0614,-0.043 -0.117491,-0.0736 -0.20452,-0.11155 -0.0302,-0.0132 -0.0901,-0.0453 -0.13301,-0.0714 -0.0429,-0.026 -0.10642,-0.0553 -0.14111,-0.0649 -0.0827,-0.0229 -0.14058,-0.0578 -0.19829,-0.119509 -0.0518,-0.0553 -0.0559,-0.0738 -0.0318,-0.142011 0.0104,-0.0294 0.0145,-0.0729 0.0129,-0.135099 -0.002,-0.0886 -8.47e-4,-0.0945 0.0364,-0.17022 0.0306,-0.0619 0.0611,-0.101641 0.14503,-0.188381 0.0626,-0.0648 0.12306,-0.13858 0.14722,-0.17984 0.0226,-0.0385 0.0537,-0.0816 0.0693,-0.0957 0.0415,-0.0376 0.15138,-0.11288 0.20321,-0.13906 0.0473,-0.0239 0.1381,-0.10078 0.24863,-0.21053 0.0485,-0.0482 0.0805,-0.0929 0.12048,-0.16814 0.0627,-0.11811 0.10937,-0.17526 0.18067,-0.22101 0.0278,-0.0178 0.11363,-0.1004 0.19073,-0.18348 0.13433,-0.14473 0.2906,-0.27778 0.36005,-0.30655 0.0165,-0.007 0.0437,-0.009 0.0657,-0.005 0.0316,0.006 0.0604,0.03 0.17875,0.14985 0.15286,0.15495 0.17723,0.17237 0.34225,0.24474 0.0603,0.0265 0.12234,0.0571 0.13786,0.0681 0.0155,0.011 0.0945,0.0543 0.17556,0.0962 0.0811,0.0419 0.17997,0.097 0.2198,0.12258 0.0398,0.0255 0.0994,0.0586 0.1324,0.0734 0.0329,0.0148 0.0846,0.0427 0.11488,0.0621 0.0302,0.0193 0.11418,0.0649 0.18656,0.10111 0.0724,0.0363 0.15743,0.087 0.18901,0.11269 0.0759,0.0618 0.1867,0.12662 0.25975,0.15191 0.10475,0.0363 0.31845,0.10182 0.33165,0.10176 0.0236,-1.1e-4 0.13581,0.0413 0.23417,0.0864 0.11394,0.0523 0.22538,0.0699 0.32756,0.0519 0.0629,-0.0111 0.10738,-0.002 0.30967,0.0677 0.11521,0.0393 0.16353,0.0507 0.31367,0.0741 0.0764,0.0118 0.16271,0.0278 0.19193,0.0354 0.0894,0.0233 0.28038,0.0374 0.42154,0.0311 0.074,-0.003 0.14365,-0.002 0.15724,0.003 0.0619,0.0236 0.37516,0.0596 0.53919,0.0621 0.18625,0.003 0.51784,-0.0147 0.60446,-0.0318 0.0302,-0.006 0.0864,-0.0153 0.12489,-0.0208 0.0385,-0.005 0.1104,-0.0266 0.15985,-0.0472 0.0884,-0.0366 0.0919,-0.0372 0.20482,-0.0344 0.0885,0.003 0.14583,-0.003 0.24978,-0.0216 0.24529,-0.0446 0.39572,-0.0605 0.45152,-0.0477 0.0272,0.006 0.0665,0.0114 0.0872,0.0114 0.0207,0 0.0597,0.007 0.0867,0.0148 0.049,0.0148 0.049,0.0148 0.0994,-0.0197 0.0358,-0.0245 0.0719,-0.0387 0.12489,-0.0489 0.041,-0.008 0.10826,-0.0276 0.14948,-0.0438 0.0412,-0.0163 0.1064,-0.0371 0.14487,-0.0464 0.0385,-0.009 0.0924,-0.0301 0.11989,-0.0461 0.15125,-0.0885 0.25733,-0.12425 0.33695,-0.11367 0.0713,0.009 0.18209,-0.0202 0.29748,-0.0796 0.0577,-0.0297 0.11904,-0.057 0.13631,-0.0607 0.0173,-0.003 0.051,-0.0191 0.0749,-0.0343 0.0553,-0.0351 0.10183,-0.0512 0.14744,-0.0512 0.0461,-3.1e-5 0.25648,-0.0517 0.29574,-0.0726 0.0165,-0.009 0.0816,-0.0568 0.14487,-0.10673 0.18352,-0.144941 0.25554,-0.192771 0.40964,-0.27203 0.18072,-0.093 0.21399,-0.11506 0.26824,-0.178301 0.0523,-0.061 0.0981,-0.091 0.21433,-0.140799 0.10949,-0.0469 0.18508,-0.107291 0.28302,-0.22617 0.0419,-0.0509 0.10793,-0.12058 0.14671,-0.15487 0.0828,-0.0732 0.21281,-0.242871 0.26216,-0.342101 0.0191,-0.0385 0.0461,-0.11232 0.0599,-0.16412 0.0416,-0.15615 0.0814,-0.1978 0.17941,-0.18769 0.0746,0.008 0.13216,0.0388 0.24156,0.1305 0.0682,0.0572 0.11204,0.10376 0.14718,0.15637 0.0624,0.0935 0.21307,0.25055 0.27444,0.28618 0.0859,0.0499 0.24322,0.177121 0.37621,0.304331 0.0728,0.0696 0.15872,0.145909 0.19091,0.169509 0.16445,0.120531 0.31731,0.259241 0.34522,0.313271 0.0326,0.0631 0.0226,0.199 -0.0249,0.34045 -0.0335,0.0996 -0.0458,0.121659 -0.13082,0.2348 -0.10732,0.142809 -0.1255,0.16149 -0.22078,0.22705 -0.0479,0.0329 -0.0833,0.0678 -0.11439,0.11264 -0.0248,0.0358 -0.0755,0.0942 -0.11274,0.12989 -0.0373,0.0358 -0.0915,0.0987 -0.12068,0.139869 -0.0418,0.0591 -0.0719,0.088 -0.14234,0.136871 -0.10231,0.0709 -0.15938,0.129329 -0.20585,0.210759 -0.0179,0.0313 -0.0597,0.0867 -0.0929,0.123011 -0.0332,0.0363 -0.0806,0.0881 -0.10533,0.11511 -0.0608,0.0664 -0.18166,0.16587 -0.25478,0.20967 -0.0354,0.0212 -0.12945,0.104029 -0.22979,0.20234 -0.19203,0.18815 -0.44773,0.392199 -0.5661,0.451749 -0.0421,0.0212 -0.1073,0.0461 -0.14488,0.0553 -0.0831,0.0204 -0.10716,0.0322 -0.2032,0.0992 -0.0412,0.0287 -0.10707,0.0684 -0.14635,0.088 -0.0979,0.049 -0.28269,0.11135 -0.3732,0.12591 -0.13046,0.0209 -0.16214,0.0307 -0.27975,0.0859 -0.065,0.0305 -0.14743,0.0606 -0.18982,0.0695 -0.10199,0.0212 -0.12687,0.0299 -0.26213,0.0916 -0.0655,0.0299 -0.17359,0.0685 -0.24479,0.0874 -0.0702,0.0186 -0.21145,0.0633 -0.31404,0.0993 -0.10258,0.036 -0.22171,0.0721 -0.26476,0.0804 -0.1208,0.0231 -0.24208,0.053 -0.30805,0.0759 -0.11992,0.0418 -0.22085,0.0557 -0.50455,0.0695 -0.10166,0.005 -0.21406,0.0158 -0.24978,0.0243 -0.0357,0.009 -0.10212,0.0199 -0.14757,0.0255 -0.0483,0.006 -0.11464,0.0232 -0.15985,0.0415 -0.0674,0.0273 -0.0988,0.033 -0.24709,0.0452 -0.0934,0.008 -0.20075,0.0207 -0.23851,0.0289 -0.0724,0.0158 -0.13832,0.0195 -0.14946,0.009 z m 0.140161,-3.31677 c -0.003,-0.003 -0.122281,-0.0108 -0.263931,-0.0162 -0.785609,-0.03 -0.928899,-0.0373 -0.997379,-0.0511 -0.0382,-0.008 -0.0987,-0.0209 -0.13441,-0.0293 -0.12149,-0.0286 -0.3536,-0.0604 -0.55452,-0.0762 -0.0731,-0.006 -0.16043,-0.0193 -0.19982,-0.0311 -0.0599,-0.0178 -0.0858,-0.02 -0.17983,-0.0148 -0.093,0.005 -0.13051,0.002 -0.24363,-0.0193 -0.0736,-0.014 -0.15123,-0.0254 -0.17263,-0.0254 -0.023,0 -0.0623,-0.0118 -0.0961,-0.0288 -0.0751,-0.0377 -0.183891,-0.0555 -0.293111,-0.0477 -0.14076,0.01 -0.21984,-0.0183 -0.387,-0.13834 -0.0578,-0.0416 -0.12613,-0.0799 -0.1793,-0.10081 -0.0486,-0.0191 -0.12946,-0.0635 -0.18633,-0.10234 -0.0553,-0.0377 -0.14388,-0.089 -0.19695,-0.11401 -0.0758,-0.0357 -0.11386,-0.0616 -0.17726,-0.12093 -0.10045,-0.0939 -0.14217,-0.118531 -0.29443,-0.17352 -0.13648,-0.0493 -0.145589,-0.0544 -0.237,-0.132931 -0.0439,-0.0377 -0.0922,-0.0673 -0.14487,-0.089 -0.18227,-0.0747 -0.188729,-0.0817 -0.13352,-0.14463 0.035,-0.0398 0.19788,-0.14981 0.290971,-0.19644 0.0347,-0.0175 0.0841,-0.0465 0.109519,-0.0646 0.0614,-0.0437 0.096,-0.0606 0.140621,-0.0687 0.027,-0.005 0.0583,-0.0262 0.115599,-0.0787 0.0432,-0.0397 0.10297,-0.0853 0.13282,-0.10151 0.102881,-0.0558 0.27549,-0.17729 0.49273,-0.34671 0.0117,-0.009 0.0886,-0.0395 0.17099,-0.0677 0.0824,-0.0282 0.172341,-0.0654 0.19982,-0.0827 0.0275,-0.0174 0.0837,-0.0506 0.12489,-0.0737 0.0412,-0.0232 0.105641,-0.0612 0.14318,-0.0845 0.0865,-0.0535 0.250501,-0.12595 0.3301,-0.14578 0.0337,-0.009 0.0966,-0.0262 0.139871,-0.0397 0.0719,-0.0223 0.0887,-0.0238 0.197229,-0.0177 0.118611,0.007 0.118611,0.007 0.20369,0.0659 0.0681,0.0473 0.0988,0.0777 0.15404,0.15216 0.0379,0.0512 0.085,0.10522 0.10467,0.1202 0.0484,0.037 0.2002,0.10125 0.305331,0.12938 0.0474,0.0127 0.117499,0.0367 0.155749,0.0534 0.22126,0.0965 0.55924,0.14726 0.745071,0.11183 0.0296,-0.006 0.193199,-0.0108 0.36355,-0.0115 0.348059,-0.002 0.3074,0.005 0.57528,-0.0965 0.0583,-0.0222 0.13446,-0.0433 0.169849,-0.0472 0.0353,-0.004 0.12607,-0.0266 0.20173,-0.0507 0.0757,-0.024 0.15451,-0.0438 0.17517,-0.0438 0.0658,0 0.134161,-0.0243 0.233561,-0.0827 0.0663,-0.0391 0.11186,-0.0745 0.14487,-0.1127 0.048,-0.0556 0.17767,-0.15114 0.262969,-0.19382 0.0737,-0.0369 0.117971,-0.0867 0.13979,-0.15731 0.0255,-0.0827 0.0434,-0.10785 0.094,-0.13232 0.0524,-0.0254 0.0809,-0.0256 0.164789,-0.002 0.0363,0.0105 0.084,0.022 0.105981,0.0256 0.022,0.003 0.0736,0.0171 0.114899,0.03 0.0412,0.0129 0.115401,0.0308 0.164851,0.04 0.18521,0.0344 0.24293,0.0482 0.36183,0.0866 0.129909,0.042 0.25075,0.0685 0.31141,0.0685 0.0453,0 0.2076,0.0407 0.31588,0.0793 0.0439,0.0157 0.12938,0.0384 0.189839,0.0506 0.162391,0.0328 0.35761,0.0955 0.45959,0.14778 0.163311,0.0837 0.258931,0.14462 0.324711,0.20692 0.0357,0.0338 0.10437,0.0941 0.152569,0.13385 0.147401,0.12169 0.153811,0.14207 0.091,0.28934 -0.0547,0.12823 -0.0643,0.14128 -0.224179,0.3062 -0.0693,0.0714 -0.14282,0.15564 -0.16343,0.18712 -0.0918,0.1403 -0.32567,0.30541 -0.67163,0.47425 -0.127281,0.0621 -0.21415,0.11161 -0.25977,0.14804 -0.0385,0.0307 -0.0817,0.0565 -0.0985,0.0588 -0.151319,0.0209 -0.174649,0.0273 -0.269749,0.0746 -0.0715,0.0355 -0.121911,0.0696 -0.17716,0.12004 -0.0425,0.0387 -0.0918,0.0779 -0.109551,0.0871 -0.0178,0.009 -0.0598,0.0377 -0.0933,0.0635 -0.0785,0.0602 -0.172589,0.0946 -0.315139,0.11517 -0.144311,0.0209 -0.21081,0.0378 -0.28495,0.0725 -0.0579,0.0271 -0.0624,0.0276 -0.24879,0.0276 -0.17486,1e-5 -0.19455,0.002 -0.2497,0.0232 -0.0387,0.015 -0.0956,0.0261 -0.16054,0.0313 -0.0795,0.006 -0.13308,0.0186 -0.25485,0.0586 -0.1039,0.0341 -0.192131,0.0558 -0.270571,0.0665 -0.064,0.009 -0.14717,0.0249 -0.184799,0.0356 -0.0668,0.0191 -0.251301,0.0283 -0.266341,0.0132 z m -0.85121,-2.82175 c -0.0329,-0.0107 -0.11266,-0.033 -0.1771,-0.0495 -0.2512,-0.0643 -0.4199,-0.13374 -0.4551,-0.18746 -0.0156,-0.0238 -0.0152,-0.0257 0.0107,-0.048 0.0375,-0.0323 0.0837,-0.0437 0.21679,-0.0541 0.26591,-0.0208 0.47207,-0.0403 0.4804,-0.0454 0.004,-0.003 0.0595,-0.01 0.12143,-0.015 0.0619,-0.005 0.137259,-0.0163 0.167479,-0.0245 0.0956,-0.0262 0.23741,-0.0377 0.48457,-0.0392 0.23011,-0.002 0.24336,-0.003 0.32833,-0.0286 0.0975,-0.0298 0.1512,-0.0326 0.3111,-0.016 0.0549,0.006 0.17493,0.0134 0.26662,0.0171 0.16569,0.007 0.16689,0.007 0.19642,0.0352 0.0163,0.0157 0.0317,0.0361 0.0341,0.0453 0.0136,0.0522 -0.0577,0.10674 -0.18413,0.14085 -0.0444,0.012 -0.11507,0.0375 -0.15696,0.0567 -0.10018,0.046 -0.33322,0.13697 -0.41666,0.16275 -0.0855,0.0264 -0.12348,0.0255 -0.20899,-0.004 -0.0879,-0.0311 -0.12065,-0.0311 -0.19483,1.1e-4 -0.0697,0.0294 -0.0906,0.0305 -0.16863,0.009 -0.0584,-0.0163 -0.0584,-0.0163 -0.13723,0.014 -0.10812,0.0416 -0.17553,0.0522 -0.327919,0.0516 -0.10136,-4.77e-4 -0.14395,-0.005 -0.19049,-0.0201 z"
       id="path1205"
       inkscape:connector-curvature="0" />
  </g>
</svg>
