<?xml version="1.0" encoding="UTF-8" standalone="no"?>
<!-- Created with Inkscape (http://www.inkscape.org/) -->

<svg
   xmlns:dc="http://purl.org/dc/elements/1.1/"
   xmlns:cc="http://creativecommons.org/ns#"
   xmlns:rdf="http://www.w3.org/1999/02/22-rdf-syntax-ns#"
   xmlns:svg="http://www.w3.org/2000/svg"
   xmlns="http://www.w3.org/2000/svg"
   xmlns:sodipodi="http://sodipodi.sourceforge.net/DTD/sodipodi-0.dtd"
   xmlns:inkscape="http://www.inkscape.org/namespaces/inkscape"
   width="8.8154278mm"
   height="20.301868mm"
   viewBox="0 0 31.235768 71.935756"
   id="svg11021"
   version="1.1"
   inkscape:version="0.91 r13725"
   sodipodi:docname="nail-01.svg">
  <defs
     id="defs11023">
    <inkscape:path-effect
       is_visible="true"
       id="path-effect10778-2-8"
       effect="spiro" />
    <inkscape:path-effect
       effect="spiro"
       id="path-effect840-2"
       is_visible="true" />
    <inkscape:path-effect
       effect="spiro"
       id="path-effect840-7-3"
       is_visible="true" />
    <inkscape:path-effect
       is_visible="true"
       id="path-effect10778-2"
       effect="spiro" />
    <inkscape:path-effect
       effect="spiro"
       id="path-effect3206-3"
       is_visible="true" />
  </defs>
  <sodipodi:namedview
     id="base"
     pagecolor="#ffffff"
     bordercolor="#666666"
     borderopacity="1.0"
     inkscape:pageopacity="0.0"
     inkscape:pageshadow="2"
     inkscape:zoom="3.6751875"
     inkscape:cx="81.437258"
     inkscape:cy="3.2748449"
     inkscape:document-units="px"
     inkscape:current-layer="layer1"
     showgrid="false"
     fit-margin-top="1"
     fit-margin-left="1"
     fit-margin-right="1"
     fit-margin-bottom="1"
     inkscape:window-width="1920"
     inkscape:window-height="1031"
     inkscape:window-x="0"
     inkscape:window-y="27"
     inkscape:window-maximized="1" />
  <metadata
     id="metadata11026">
    <rdf:RDF>
      <cc:Work
         rdf:about="">
        <dc:format>image/svg+xml</dc:format>
        <dc:type
           rdf:resource="http://purl.org/dc/dcmitype/StillImage" />
        <dc:title></dc:title>
      </cc:Work>
    </rdf:RDF>
  </metadata>
  <g
     inkscape:label="Layer 1"
     inkscape:groupmode="layer"
     id="layer1"
     transform="translate(61.189058,-308.39669)">
    <text
       xml:space="preserve"
       style="font-style:normal;font-weight:normal;font-size:40px;line-height:125%;font-family:sans-serif;letter-spacing:0px;word-spacing:0px;fill:#000000;fill-opacity:1;stroke:none;stroke-width:1px;stroke-linecap:butt;stroke-linejoin:miter;stroke-opacity:1"
       x="-41.119488"
       y="345.48315"
       id="text10996"
       sodipodi:linespacing="125%"><tspan
         sodipodi:role="line"
         id="tspan10998"
         x="-41.119488"
         y="345.48315" /></text>
    <g
       id="g6481"
       style="display:inline;stroke-width:1.1297965;stroke-linecap:round;stroke-linejoin:round;stroke-miterlimit:4;stroke-dasharray:none"
       transform="matrix(0.91913757,-0.38850099,0.43072317,0.87923813,-2056.2064,111.78138)">
      <path
         style="display:inline;fill:none;fill-rule:evenodd;stroke:#000000;stroke-width:1.46811283;stroke-linecap:round;stroke-linejoin:round;stroke-miterlimit:4;stroke-dasharray:none;stroke-opacity:1"
         d="m 1724.098,998.94696 c 0,0 -2.4595,12.60154 -4.4712,18.67974 -0.6115,1.8477 -1.0431,3.8795 -2.2968,5.3682 -1.5525,1.8434 -4.6383,1.9923 -6.0665,3.9335 -1.7326,2.3549 -1.742,5.5895 -2.3654,8.4458 -0.8608,3.9437 -1.4897,9.7959 -1.8901,11.9613 l -4.6699,5.4649 -2.186,-6.7565 c 0.2031,-2.9983 0.9477,-8.4514 1.4865,-12.3262 0.6263,-4.5039 1.1328,-10.6834 4.7902,-13.0375 1.9646,-1.2645 4.0173,-1.7577 5.2493,-3.4509 3.9617,-5.4446 5.3654,-19.47474 5.3654,-19.47474"
         id="path3227-6"
         inkscape:connector-curvature="0" />
      <path
         style="display:inline;fill:none;fill-rule:evenodd;stroke:#000000;stroke-width:1.46811283;stroke-linecap:round;stroke-linejoin:round;stroke-miterlimit:4;stroke-dasharray:none;stroke-opacity:1"
         d="m 1704.9596,1038.3261 c -0.3581,2.122 -1.2378,6.9066 -1.3624,8.7236 l -1.0604,5.2539"
         id="path33794-3-7"
         inkscape:connector-curvature="0" />
      <path
         style="color:#000000;clip-rule:nonzero;display:inline;overflow:visible;visibility:visible;opacity:1;isolation:auto;mix-blend-mode:normal;color-interpolation:sRGB;color-interpolation-filters:linearRGB;solid-color:#000000;solid-opacity:1;fill:#ffffff;fill-opacity:1;fill-rule:nonzero;stroke:#000000;stroke-width:1.46811283;stroke-linecap:round;stroke-linejoin:round;stroke-miterlimit:4;stroke-dasharray:none;stroke-dashoffset:0;stroke-opacity:1;color-rendering:auto;image-rendering:auto;shape-rendering:auto;text-rendering:auto;enable-background:accumulate"
         d="m 1710.9987,990.98346 -0.5071,2.2903 c -0.1103,0.4291 0.08,0.9192 0.5201,1.4381 0.4396,0.5189 1.128,1.0665 2.0126,1.6106 0.8847,0.5441 1.9656,1.0847 3.1905,1.5896 1.2248,0.5048 2.5936,0.974 4.0538,1.3751 1.4602,0.4012 2.8737,0.6964 4.1794,0.88674 1.3057,0.1903 2.5036,0.2757 3.5328,0.2574 1.0293,-0.018 1.8897,-0.1405 2.5205,-0.3653 0.6307,-0.22494 1.0318,-0.55244 1.1421,-0.98154 l 0.5725,-2.34"
         id="path33788-6-5"
         inkscape:connector-curvature="0"
         sodipodi:nodetypes="csssssssccc" />
      <path
         transform="matrix(0.96427564,0.2649009,-0.24893553,0.96852006,0,0)"
         style="color:#000000;clip-rule:nonzero;display:inline;overflow:visible;visibility:visible;opacity:1;isolation:auto;mix-blend-mode:normal;color-interpolation:sRGB;color-interpolation-filters:linearRGB;solid-color:#000000;solid-opacity:1;fill:#ffffff;fill-opacity:1;fill-rule:nonzero;stroke:#000000;stroke-width:1.46821308;stroke-linecap:round;stroke-linejoin:round;stroke-miterlimit:4;stroke-dasharray:none;stroke-dashoffset:0;stroke-opacity:1;color-rendering:auto;image-rendering:auto;shape-rendering:auto;text-rendering:auto;enable-background:accumulate"
         d="m 1906.1668,503.49613 c -1.3131,-0.52902 -2.0874,-1.17992 -2.0874,-1.88373 0,-1.77235 4.9104,-3.20913 10.9677,-3.20913 6.0573,0 10.9677,1.43678 10.9677,3.20913 0,1.77235 -4.9104,3.20912 -10.9677,3.20912 -2.3905,0 -4.6025,-0.22378 -6.4044,-0.60366"
         id="ellipse33790-7-3"
         inkscape:connector-curvature="0"
         sodipodi:nodetypes="cccccc" />
      <path
         style="fill:none;stroke:#000000;stroke-width:1.46811283;stroke-linecap:round;stroke-linejoin:round;stroke-miterlimit:4;stroke-dasharray:none;stroke-opacity:1"
         d="m 1701.549,1046.05 c 0.6684,0.2861 2.207,0.9203 2.207,0.9203 l 3.252,0.3652"
         id="path3196-5"
         inkscape:connector-curvature="0"
         sodipodi:nodetypes="ccc" />
      <path
         style="fill:#000000;stroke:#000000;stroke-width:1.46811283;stroke-linecap:round;stroke-linejoin:round;stroke-miterlimit:4;stroke-dasharray:none;stroke-opacity:1"
         d="m 1716.6877,1000.5601 c -0.03,0.6117 -0.022,1.2259 -0.086,1.8349 -0.1121,1.0574 -0.4413,2.0774 -0.7271,3.1015 -0.064,0.2302 -0.1269,0.4688 -0.094,0.7055 0.017,0.1183 0.058,0.2344 0.13,0.3301 0.072,0.096 0.1744,0.1698 0.2908,0.1969 0.1349,0.031 0.2807,-0 0.3971,-0.077 0.1165,-0.075 0.2049,-0.1887 0.2642,-0.3139 0.1186,-0.2505 0.1234,-0.5372 0.1425,-0.8136 0.044,-0.6343 0.1802,-1.2758 0.512,-1.8182 0.1659,-0.2712 0.3798,-0.5147 0.6373,-0.7012 0.2574,-0.1866 0.5588,-0.3151 0.8741,-0.3561 0.4084,-0.053 0.8218,0.04 1.2144,0.1649 0.3926,0.1245 0.7769,0.2808 1.1812,0.3591 0.6176,0.1196 1.2708,0.049 1.8486,-0.1999 l 0.5976,-2.8885 0,0 -3.836,-0.86188 -3.0426,-1.00189 c -0.1642,0.77005 -0.2662,1.55335 -0.3046,2.33977 z"
         id="path3204-6"
         inkscape:connector-curvature="0"
         inkscape:path-effect="#path-effect3206-3"
         inkscape:original-d="m 1716.6877,1000.5601 c 0,0 -0.09,0.887 -0.086,1.8349 0,0.4026 -0.6729,2.7519 -0.7271,3.1015 -0.068,0.4338 0.1406,1.0662 0.3273,1.2325 0.165,0.1471 0.2936,-0.707 0.8038,-1.205 0.5725,-0.5587 1.8848,-2.9995 2.0234,-2.8755 0.7797,0.6971 1.5981,0.3484 2.3956,0.524 0.7976,0.1756 1.2334,-0.1342 1.8486,-0.1999 l 0.5976,-2.8885 0,0 -3.836,-0.86188 -3.0426,-1.00189 z"
         sodipodi:nodetypes="csssscccccccc" />
      <ellipse
         style="fill:#000000;fill-opacity:1;stroke:none;stroke-width:1.1297965;stroke-linecap:round;stroke-linejoin:round;stroke-miterlimit:4;stroke-dasharray:none;stroke-opacity:1"
         id="path3209-2"
         cx="1721.9536"
         cy="1006.4162"
         rx="0.85346448"
         ry="0.91500992" />
      <ellipse
         ry="0.91500992"
         rx="0.85346448"
         cy="1008.7718"
         cx="1721.4243"
         id="ellipse3211-9"
         style="fill:#000000;fill-opacity:1;stroke:none;stroke-width:1.1297965;stroke-linecap:round;stroke-linejoin:round;stroke-miterlimit:4;stroke-dasharray:none;stroke-opacity:1" />
      <ellipse
         style="fill:#000000;fill-opacity:1;stroke:none;stroke-width:1.1297965;stroke-linecap:round;stroke-linejoin:round;stroke-miterlimit:4;stroke-dasharray:none;stroke-opacity:1"
         id="ellipse3213-1"
         cx="1720.931"
         cy="1011.316"
         rx="0.85346448"
         ry="0.91500992" />
      <ellipse
         ry="0.91500992"
         rx="0.85346448"
         cy="1014.1608"
         cx="1720.2385"
         id="ellipse3215-2"
         style="fill:#000000;fill-opacity:1;stroke:none;stroke-width:1.1297965;stroke-linecap:round;stroke-linejoin:round;stroke-miterlimit:4;stroke-dasharray:none;stroke-opacity:1" />
      <ellipse
         style="fill:#000000;fill-opacity:1;stroke:none;stroke-width:1.1297965;stroke-linecap:round;stroke-linejoin:round;stroke-miterlimit:4;stroke-dasharray:none;stroke-opacity:1"
         id="ellipse3217-7"
         cx="1714.5303"
         cy="1012.3641"
         rx="0.85346448"
         ry="0.91500992" />
      <ellipse
         ry="0.91500992"
         rx="0.85346448"
         cy="1009.8187"
         cx="1715.3538"
         id="ellipse3219-0"
         style="fill:#000000;fill-opacity:1;stroke:none;stroke-width:1.1297965;stroke-linecap:round;stroke-linejoin:round;stroke-miterlimit:4;stroke-dasharray:none;stroke-opacity:1" />
      <ellipse
         style="fill:#000000;fill-opacity:1;stroke:none;stroke-width:1.1297965;stroke-linecap:round;stroke-linejoin:round;stroke-miterlimit:4;stroke-dasharray:none;stroke-opacity:1"
         id="ellipse3221-9"
         cx="1716.1211"
         cy="1006.9553"
         rx="0.85346448"
         ry="0.91500992" />
      <path
         style="fill:#000000;stroke:#000000;stroke-width:1.46811283;stroke-linecap:round;stroke-linejoin:round;stroke-miterlimit:4;stroke-dasharray:none;stroke-opacity:1"
         d="m 1711.0937,1024.6259 c -0.904,-0.2635 -0.8118,0.6758 3.4718,-2.5775 4.2837,-3.2533 -3.5039,0.494 -4.5288,1.0576 -1.0249,0.5636 -2.1541,1.3008 -2.6997,2.3821 -0.5456,1.0813 -0.319,2.2444 -0.3176,3.6526 0,1.4082 0.07,-1.776 -0.2839,3.9063 -0.3534,5.6823 0.7764,-1.6776 1.3634,-2.9741 0,0 1.151,3.3459 1.4857,1.3041 0.3347,-2.0418 0.7883,-3.0098 1.3145,-3.8999 0.5262,-0.8901 0.8687,-1.1176 1.5225,-1.6127 0.6538,-0.4951 1.6976,-0.8193 2.4172,-1.2035 0.7196,-0.3842 1.4235,-0.7296 1.8572,-1.0583 0.4337,-0.3287 0.4597,0.2733 -3.3939,1.2964 -3.8535,1.0232 -1.6241,-0.085 -2.2084,-0.2731 z"
         id="path3223-3"
         inkscape:connector-curvature="0"
         sodipodi:nodetypes="czzzzzczzzzzzc" />
    </g>
  </g>
</svg>
