<?xml version="1.0" encoding="UTF-8" standalone="no"?>
<!-- Created with Inkscape (http://www.inkscape.org/) -->

<svg
   xmlns:dc="http://purl.org/dc/elements/1.1/"
   xmlns:cc="http://creativecommons.org/ns#"
   xmlns:rdf="http://www.w3.org/1999/02/22-rdf-syntax-ns#"
   xmlns:svg="http://www.w3.org/2000/svg"
   xmlns="http://www.w3.org/2000/svg"
   xmlns:sodipodi="http://sodipodi.sourceforge.net/DTD/sodipodi-0.dtd"
   xmlns:inkscape="http://www.inkscape.org/namespaces/inkscape"
   width="39.145206mm"
   height="33.372196mm"
   viewBox="0 0 138.70349 118.24793"
   id="svg4714"
   version="1.1"
   inkscape:version="0.91 r13725"
   sodipodi:docname="phylactery-03.svg">
  <defs
     id="defs4716">
    <inkscape:path-effect
       effect="spiro"
       id="path-effect4148-0-0"
       is_visible="true" />
  </defs>
  <sodipodi:namedview
     id="base"
     pagecolor="#ffffff"
     bordercolor="#666666"
     borderopacity="1.0"
     inkscape:pageopacity="0.0"
     inkscape:pageshadow="2"
     inkscape:zoom="1.4"
     inkscape:cx="95.987005"
     inkscape:cy="100.77844"
     inkscape:document-units="px"
     inkscape:current-layer="layer1"
     showgrid="false"
     fit-margin-top="1"
     fit-margin-left="1"
     fit-margin-right="1"
     fit-margin-bottom="1"
     inkscape:window-width="1920"
     inkscape:window-height="1031"
     inkscape:window-x="0"
     inkscape:window-y="27"
     inkscape:window-maximized="1" />
  <metadata
     id="metadata4719">
    <rdf:RDF>
      <cc:Work
         rdf:about="">
        <dc:format>image/svg+xml</dc:format>
        <dc:type
           rdf:resource="http://purl.org/dc/dcmitype/StillImage" />
        <dc:title></dc:title>
      </cc:Work>
    </rdf:RDF>
  </metadata>
  <g
     inkscape:label="Layer 1"
     inkscape:groupmode="layer"
     id="layer1"
     transform="translate(-97.828178,-327.83511)">
    <path
       style="display:inline;fill:#ffffff;fill-rule:evenodd;stroke:#000080;stroke-width:1.75;stroke-linecap:round;stroke-linejoin:round;stroke-miterlimit:4;stroke-dasharray:none;stroke-opacity:1"
       d="m 144.38417,441.30791 13.48289,-19.72163 c 0.82741,-1.21026 1.64943,-2.44737 2.1256,-3.83394 0.47618,-1.38658 0.58602,-2.9209 0.15482,-4.32211 -0.43121,-1.40121 -1.40535,-2.62851 -2.67699,-3.35808 -1.27164,-0.72957 -2.80296,-0.95391 -4.25239,-0.73365 -1.44942,0.22026 -2.80729,0.86122 -4.03542,1.66187 -1.22812,0.80064 -2.3433,1.76073 -3.52662,2.62623 -1.18332,0.8655 -2.46719,1.64798 -3.89777,1.96853 -0.7153,0.16028 -1.46197,0.20032 -2.18341,0.0705 -0.72144,-0.12983 -1.41698,-0.43372 -1.97264,-0.91182 -0.47658,-0.41006 -0.84295,-0.9412 -1.08906,-1.51974 -0.24611,-0.57854 -0.37411,-1.20375 -0.41006,-1.83143 -0.0719,-1.25536 0.21891,-2.50326 0.58266,-3.70692 0.36374,-1.20366 0.80342,-2.38856 1.04311,-3.62292 0.23968,-1.23437 0.26938,-2.54369 -0.17625,-3.7195 -0.37147,-0.98014 -1.06411,-1.82629 -1.9177,-2.43462 -0.85358,-0.60832 -1.86292,-0.98366 -2.89901,-1.14234 -2.07218,-0.31738 -4.19372,0.22044 -6.11127,1.06761 -1.91755,0.84716 -3.68319,1.99754 -5.52747,2.99419 -1.84429,0.99664 -3.81532,1.85275 -5.90386,2.03347 -2.16643,0.18746 -4.3752,-0.37921 -6.24037,-1.49709 -1.86517,-1.11789 -3.38894,-2.77167 -4.44599,-4.67199 -2.11411,-3.80062 -2.31787,-8.448 -1.32753,-12.68279 0.99034,-4.23479 3.08446,-8.12699 5.37606,-11.82331 2.29159,-3.69632 4.80854,-7.26496 6.77077,-11.14618 2.18635,-4.32451 3.6615,-8.9941 6.0432,-13.21418 1.19084,-2.11004 2.61335,-4.10718 4.37779,-5.76764 1.76445,-1.66045 3.88455,-2.97769 6.22156,-3.61705 2.72311,-0.74499 5.69826,-0.53202 8.28749,0.59325 2.58922,1.12527 4.77478,3.15511 6.08799,5.65427 2.14523,-4.03723 5.53663,-7.40114 9.59117,-9.51345 4.05455,-2.11231 8.75479,-2.96393 13.2927,-2.40844 4.773,0.58426 9.34251,2.72683 12.84422,6.02242 3.50171,3.2956 5.91719,7.72691 6.78957,12.45574 3.12683,-3.0576 7.03899,-5.30537 11.25527,-6.46682 4.21628,-1.16145 8.72762,-1.2341 12.97911,-0.20899 5.83031,1.40579 11.15925,4.9311 14.5744,9.86116 3.41515,4.93006 4.84203,11.23823 3.691,17.12414 -0.78445,4.01135 -2.73759,7.78701 -5.55835,10.74497 -2.82077,2.95796 -6.49948,5.08809 -10.46908,6.06202 2.2473,6.54114 2.01399,13.90165 -0.64306,20.28733 -2.65705,6.38569 -7.71394,11.73913 -13.93801,14.75538 -5.09092,2.46711 -10.92395,3.37652 -16.52428,2.57625 -5.60032,-0.80026 -10.94521,-3.30697 -15.1414,-7.10118 l -24.70339,22.41848 z"
       id="path4146-1"
       inkscape:connector-curvature="0"
       inkscape:path-effect="#path-effect4148-0-0"
       inkscape:original-d="m 144.38417,441.30791 13.48289,-19.72163 c 6.47554,-9.47187 -16.0971,-1.05361 -20.26482,-6.83247 -2.80875,-3.89448 3.53849,-11.20822 -0.0496,-14.40051 -5.60129,-4.98352 -16.77456,7.52025 -22.35931,2.51831 -10.38966,-9.30543 -4.23977,-28.58307 0.13294,-41.82136 2.93348,-8.88109 7.60386,-20.16674 16.64255,-22.59887 5.04576,-1.35775 14.37548,6.24752 14.37548,6.24752 0,0 14.36228,-13.09943 22.88387,-11.92189 8.90626,1.23074 19.63379,18.47816 19.63379,18.47816 0,0 16.37319,-9.57465 24.23438,-6.67581 10.19638,3.75985 19.16968,16.16404 18.2654,26.9853 -0.6444,7.71115 -16.02743,16.80699 -16.02743,16.80699 0,0 -3.57661,28.78606 -14.58107,35.04271 -9.26711,5.269 -24.46049,-7.54458 -31.66568,-4.52493 z"
       sodipodi:nodetypes="csaaaaacacaacacc" />
    <path
       style="fill:#ffffff;fill-opacity:1;stroke:#000080;stroke-width:1.75;stroke-linecap:round;stroke-linejoin:round;stroke-miterlimit:4;stroke-dasharray:none;stroke-opacity:1"
       d="m 206.23131,369.5827 c -11.44618,-6.23159 -27.15401,-12.03083 -33.45622,-6.22786 l -23.47685,29.88613 c 11.51946,-0.35224 27.49489,7.60626 47.53974,16.89318 l 0.72236,-1.13045 z"
       id="path6791"
       sodipodi:nodetypes="cccccc"
       inkscape:connector-curvature="0" />
    <path
       sodipodi:nodetypes="cccccc"
       id="path6794"
       d="m 177.43846,359.3288 c -3.48217,-8.50383 -13.47772,-6.63682 -29.72963,-4.06992 l -30.45137,30.37685 0.3264,0.82216 c 20.47383,-5.5871 25.09866,1.10954 31.75908,6.84403 z"
       style="fill:#ffffff;fill-opacity:1;stroke:#000080;stroke-width:1.75;stroke-linecap:round;stroke-linejoin:round;stroke-miterlimit:4;stroke-dasharray:none;stroke-opacity:1"
       inkscape:connector-curvature="0" />
    <path
       sodipodi:nodetypes="cccc"
       id="path6796"
       d="m 177.55768,359.20007 c -3.48216,-8.50382 -13.47771,-6.63682 -29.72961,-4.06993 l -30.46356,30.5511 z"
       style="fill:#ffffff;fill-opacity:1;stroke:#000080;stroke-width:1.75;stroke-linecap:round;stroke-linejoin:round;stroke-miterlimit:4;stroke-dasharray:none;stroke-opacity:1"
       inkscape:connector-curvature="0" />
    <path
       style="fill:#ffffff;fill-opacity:1;stroke:#000080;stroke-width:1.75;stroke-linecap:round;stroke-linejoin:round;stroke-miterlimit:4;stroke-dasharray:none;stroke-opacity:1"
       d="m 177.55768,359.20007 c -3.48216,-8.50382 -13.47771,-6.63682 -29.72961,-4.06993 l -30.58146,30.56319 c 20.47385,-5.5871 25.55514,1.74536 32.21557,7.47985 z"
       id="path6798"
       sodipodi:nodetypes="ccccc"
       inkscape:connector-curvature="0" />
    <path
       sodipodi:nodetypes="ccccc"
       id="path6800"
       d="m 178.99964,357.53047 c -3.48216,-8.50383 -13.47772,-6.63682 -29.72962,-4.06994 l -28.22079,29.37989 c 20.9797,-7.49859 22.57035,4.06719 28.89354,9.52861 z"
       style="fill:#ffffff;fill-opacity:1;stroke:#000080;stroke-width:1.75;stroke-linecap:round;stroke-linejoin:round;stroke-miterlimit:4;stroke-dasharray:none;stroke-opacity:1"
       inkscape:connector-curvature="0" />
    <path
       sodipodi:nodetypes="ccccc"
       id="path6808"
       d="m 206.23131,369.5827 c -11.44618,-6.23159 -27.15401,-12.03083 -33.45622,-6.22786 l -23.35038,29.74959 c 11.85668,-0.44326 28.12719,6.83257 48.17206,16.11947 z"
       style="fill:#ffffff;fill-opacity:1;stroke:#000080;stroke-width:1.75;stroke-linecap:round;stroke-linejoin:round;stroke-miterlimit:4;stroke-dasharray:none;stroke-opacity:1"
       inkscape:connector-curvature="0" />
    <path
       style="fill:#ffffff;fill-opacity:1;stroke:#000080;stroke-width:1.75;stroke-linecap:round;stroke-linejoin:round;stroke-miterlimit:4;stroke-dasharray:none;stroke-opacity:1"
       d="m 206.59637,366.24995 c -11.44618,-6.95126 -22.60131,-13.6233 -28.90352,-7.15018 l -27.32015,32.80774 c 12.0253,-5.77432 18.10166,-3.98198 46.24018,14.29724 z"
       id="path6818"
       sodipodi:nodetypes="ccccc"
       inkscape:connector-curvature="0" />
    <path
       sodipodi:nodetypes="ccccc"
       id="path6820"
       d="m 179.41516,356.93188 c -3.48218,-8.50381 -22.75173,-7.27398 -29.72964,-4.06992 l -30.41283,27.65043 c 29.3105,-14.70578 30.9338,11.40984 30.9338,11.40984 z"
       style="fill:#ffffff;fill-opacity:1;stroke:#000080;stroke-width:1.75;stroke-linecap:round;stroke-linejoin:round;stroke-miterlimit:4;stroke-dasharray:none;stroke-opacity:1"
       inkscape:connector-curvature="0" />
  </g>
</svg>
