<?xml version="1.0" encoding="UTF-8" standalone="no"?>
<!-- Created with Inkscape (http://www.inkscape.org/) -->

<svg
   xmlns:dc="http://purl.org/dc/elements/1.1/"
   xmlns:cc="http://creativecommons.org/ns#"
   xmlns:rdf="http://www.w3.org/1999/02/22-rdf-syntax-ns#"
   xmlns:svg="http://www.w3.org/2000/svg"
   xmlns="http://www.w3.org/2000/svg"
   xmlns:sodipodi="http://sodipodi.sourceforge.net/DTD/sodipodi-0.dtd"
   xmlns:inkscape="http://www.inkscape.org/namespaces/inkscape"
   width="89.488228mm"
   height="45.493954mm"
   viewBox="0 0 317.08428 161.19904"
   id="svg5557"
   version="1.1"
   inkscape:version="0.92.3 (2405546, 2018-03-11)"
   sodipodi:docname="user-student-teacher-developper.svg">
  <defs
     id="defs5559">
    <inkscape:path-effect
       effect="spiro"
       id="path-effect5513"
       is_visible="true" />
    <inkscape:path-effect
       effect="spiro"
       id="path-effect5507"
       is_visible="true" />
    <inkscape:path-effect
       effect="spiro"
       id="path-effect5209"
       is_visible="true" />
    <inkscape:path-effect
       effect="spiro"
       id="path-effect5194"
       is_visible="true" />
    <inkscape:path-effect
       effect="spiro"
       id="path-effect4390"
       is_visible="true" />
  </defs>
  <sodipodi:namedview
     id="base"
     pagecolor="#ffffff"
     bordercolor="#666666"
     borderopacity="1.0"
     inkscape:pageopacity="0.0"
     inkscape:pageshadow="2"
     inkscape:zoom="1.979899"
     inkscape:cx="78.171906"
     inkscape:cy="130.77271"
     inkscape:document-units="px"
     inkscape:current-layer="layer1"
     showgrid="false"
     borderlayer="true"
     fit-margin-top="2"
     fit-margin-left="0"
     fit-margin-right="0"
     fit-margin-bottom="0"
     inkscape:window-width="1920"
     inkscape:window-height="1029"
     inkscape:window-x="0"
     inkscape:window-y="27"
     inkscape:window-maximized="1" />
  <metadata
     id="metadata5562">
    <rdf:RDF>
      <cc:Work
         rdf:about="">
        <dc:format>image/svg+xml</dc:format>
        <dc:type
           rdf:resource="http://purl.org/dc/dcmitype/StillImage" />
        <dc:title />
      </cc:Work>
    </rdf:RDF>
  </metadata>
  <g
     inkscape:label="Layer 1"
     inkscape:groupmode="layer"
     id="layer1"
     transform="translate(-370.5713,-752.76017)">
    <path
       style="fill:none;fill-rule:evenodd;stroke:#ff5900;stroke-width:1.72506618;stroke-linecap:butt;stroke-linejoin:miter;stroke-miterlimit:4;stroke-dasharray:none;stroke-opacity:1"
       d="m 550.25865,875.53626 c 1.13975,5.09073 3.22823,9.96741 6.12628,14.30511 4.74385,7.10043 11.63859,12.6868 19.4348,16.17098 7.7962,3.48414 16.46431,4.89409 24.98974,4.40676 17.05084,-0.97463 33.09306,-9.46006 45.47929,-21.21857 8.92322,-8.47099 16.23555,-18.75638 20.56455,-30.27339 5.09665,-13.5593 5.90038,-28.79135 1.68987,-42.65145 -4.21048,-13.86007 -13.51558,-26.21442 -25.98056,-33.59374 -11.16845,-6.61174 -24.34117,-9.10162 -37.30665,-9.68961 -12.96548,-0.58796 -25.93968,0.60958 -38.91683,0.81662 -8.99249,0.14347 -17.99253,-0.18918 -26.94985,-0.99634"
       id="path4388"
       inkscape:connector-curvature="0" />
    <path
       style="fill:none;fill-rule:evenodd;stroke:#ff5900;stroke-width:1.72506618;stroke-linecap:butt;stroke-linejoin:miter;stroke-miterlimit:4;stroke-dasharray:none;stroke-opacity:1"
       d="m 531.05722,778.75879 c 3.35462,6.92873 4.85161,14.7463 4.29398,22.42416 -0.76806,10.57532 -5.62363,20.96597 -13.83647,27.67242 -5.35834,4.37552 -11.92785,7.08554 -18.66789,8.64408 -6.74,1.55857 -13.68328,2.01559 -20.5964,2.27194 -13.82626,0.51272 -28.24643,0.37175 -40.6517,6.49855 -6.69167,3.30494 -12.55494,8.43267 -16.26757,14.90702 -3.71266,6.47437 -5.17382,14.31135 -3.53245,21.59193 1.13906,5.05252 3.76306,9.78391 7.55585,13.31096 3.79282,3.52707 8.75316,5.8137 13.91404,6.2506 4.29832,0.36387 8.66342,-0.54181 12.57924,-2.35135 3.91578,-1.80954 7.39142,-4.50274 10.32216,-7.66798 4.69359,-5.06913 8.0211,-11.39138 9.5422,-18.13021"
       id="path5192"
       inkscape:connector-curvature="0" />
    <path
       style="fill:none;fill-rule:evenodd;stroke:#ff5900;stroke-width:1.72506618;stroke-linecap:butt;stroke-linejoin:miter;stroke-miterlimit:4;stroke-dasharray:none;stroke-opacity:1"
       d="m 422.99161,809.05529 c -6.83299,0.49561 -13.38994,4.02636 -17.56489,9.45825 -4.17494,5.43189 -5.8999,12.67648 -4.6209,19.40697 0.69934,3.6802 2.31032,7.26299 5.00922,9.86088 1.34943,1.29894 2.95915,2.33689 4.72418,2.96372 1.76503,0.6268 3.68569,0.83602 5.5343,0.53448 1.95763,-0.31934 3.8121,-1.21074 5.3157,-2.50436 1.5036,-1.29363 2.65631,-2.98256 3.35801,-4.83778 1.40343,-3.71044 0.94143,-8.00364 -0.9102,-11.51197 -1.85166,-3.50832 -5.00508,-6.24402 -8.5973,-7.92719 -3.59219,-1.68318 -7.60432,-2.35633 -11.57117,-2.32243 -7.53997,0.0644 -15.05945,2.71321 -20.87462,7.51312 -5.8152,4.79991 -9.85996,11.73784 -11.01552,19.18903 -1.15557,7.45117 0.62531,15.34573 4.99682,21.48944 4.37152,6.14373 11.31037,10.43472 18.78235,11.44722 2.57351,0.34872 5.22227,0.31899 7.73324,-0.34403 2.51101,-0.66301 4.88142,-1.98558 6.58021,-3.94995 1.29107,-1.4929 2.17131,-3.33308 2.55054,-5.27002 0.37923,-1.93696 0.25933,-3.96615 -0.31856,-5.85335 -1.15594,-3.77441 -4.17239,-6.8852 -7.83816,-8.34963 -3.66579,-1.46444 -7.90405,-1.3156 -11.54483,0.20988 -3.64075,1.52556 -6.67296,4.37462 -8.61314,7.81236 -1.78173,3.15699 -2.66695,6.81637 -2.50669,10.43789 0.16014,3.62155 1.36789,7.19318 3.45332,10.15831 2.08546,2.96516 5.04335,5.31183 8.41194,6.65117 3.36859,1.33931 7.13591,1.66379 10.68009,0.90218 5.16473,-1.10985 9.55813,-4.36865 13.88137,-7.40436 2.16163,-1.51789 4.35697,-3.00466 6.72132,-4.18216 2.36432,-1.17748 4.91371,-2.04303 7.54693,-2.24969 4.12228,-0.32357 8.2587,0.997 11.78902,3.14985 3.53032,2.15286 6.50896,5.10278 9.2122,8.23176 5.4065,6.25794 10.04793,13.51474 17.1676,17.72212 4.81604,2.84605 10.56841,4.07642 16.1273,3.44942 5.55888,-0.62701 10.89264,-3.1078 14.95373,-6.95513 4.06109,-3.84732 6.82638,-9.03928 7.75276,-14.55619 0.92636,-5.5169 0.009,-11.32733 -2.57319,-16.29009"
       id="path5207"
       inkscape:connector-curvature="0" />
    <path
       style="fill:none;fill-opacity:1;fill-rule:evenodd;stroke:#ff5900;stroke-width:1.72506618;stroke-linecap:butt;stroke-linejoin:miter;stroke-miterlimit:4;stroke-dasharray:none;stroke-opacity:1"
       d="m 615.2669,832.91086 c -5.91358,5.63608 -13.30636,9.70628 -21.23125,11.68919 -14.87027,3.72071 -30.54046,0.0713 -45.15295,-4.55944 -14.61248,-4.63074 -29.22034,-10.31092 -44.54388,-10.70809 -5.38672,-0.13973 -10.77016,0.38127 -16.15866,0.374 -5.38853,-0.009 -10.88321,-0.57186 -15.80767,-2.75956 -5.67642,-2.52176 -10.36021,-7.20557 -12.88194,-12.88199"
       id="path5505"
       inkscape:connector-curvature="0" />
    <path
       style="fill:none;fill-rule:evenodd;stroke:#ff5900;stroke-width:1.72506618;stroke-linecap:butt;stroke-linejoin:miter;stroke-miterlimit:4;stroke-dasharray:none;stroke-opacity:1"
       d="m 506.72459,778.28167 c 3.14379,4.14961 7.04365,7.72455 11.45041,10.49642 7.92421,4.98432 17.32228,7.28015 26.67047,7.77775 9.34819,0.49759 18.7038,-0.72528 27.92468,-2.34138 18.44174,-3.23223 37.33777,-8.05381 55.6176,-4.00503 5.83949,1.2934 11.55182,3.48691 17.53122,3.62652 2.98968,0.0699 6.03063,-0.39685 8.72515,-1.69404 2.69453,-1.29719 5.02158,-3.47236 6.18698,-6.22645 0.88568,-2.09305 1.07334,-4.47324 0.53468,-6.68121 -0.53865,-2.20797 -1.79941,-4.23228 -3.53814,-5.69588 -1.73869,-1.46364 -3.94565,-2.36015 -6.21187,-2.53203 -2.26622,-0.17193 -4.58066,0.38047 -6.52938,1.55 -3.02168,1.81348 -5.05341,5.0422 -5.80743,8.48468 -0.75403,3.44249 -0.3112,7.07378 0.82849,10.40851 2.27936,6.66942 7.14287,12.06793 11.18142,17.84434 3.79356,5.42602 7.04928,11.44653 12.31142,15.4643 2.63107,2.00889 5.75847,3.45792 9.05703,3.73658 3.29858,0.27859 6.76554,-0.70041 9.16668,-2.97914 1.62634,-1.54338 2.71379,-3.63241 3.09995,-5.84101 0.38615,-2.20858 0.0776,-4.52563 -0.82214,-6.57929 -0.89971,-2.05366 -2.3814,-3.84063 -4.20056,-5.15122 -1.81914,-1.31062 -3.96878,-2.1471 -6.18793,-2.4671 -3.70136,-0.53377 -7.55355,0.38374 -10.749,2.32639 -3.19546,1.94266 -5.74309,4.87113 -7.44867,8.19916 -3.41114,6.65611 -3.42158,14.6076 -1.84102,21.91797 1.24674,5.76632 3.5363,11.48934 7.70803,15.66084 2.08589,2.08575 4.62447,3.74483 7.43182,4.6504 2.80734,0.90555 5.8856,1.03677 8.71555,0.20442 2.11096,-0.62079 4.06621,-1.77308 5.61598,-3.3351 1.54974,-1.56199 2.68874,-3.53187 3.24758,-5.66008 0.55881,-2.12822 0.53339,-4.40976 -0.0943,-6.51868 -0.62767,-2.10895 -1.85833,-4.03789 -3.52109,-5.47901 -1.69735,-1.47108 -3.8176,-2.41895 -6.02204,-2.84973 -2.2044,-0.43077 -4.49115,-0.35683 -6.69676,0.0679 -4.41128,0.84904 -8.43319,3.05336 -12.28063,5.37228 -3.84742,2.31892 -7.64656,4.80434 -11.87754,6.31392 -2.11551,0.75477 -4.33233,1.25817 -6.57702,1.33868 -2.24465,0.0805 -4.51984,-0.27055 -6.58072,-1.1637 -2.54787,-1.1043 -4.72683,-3.04109 -6.12235,-5.44187 -1.39552,-2.40074 -2.00013,-5.25268 -1.69882,-8.01316"
       id="path5511"
       inkscape:connector-curvature="0" />
    <g
       id="g4360"
       transform="matrix(2.8751102,0,0,2.8751102,4660.9266,-514.46002)">
      <g
         transform="matrix(0.36023044,0,0,0.36023044,-826.36076,422.86711)"
         style="font-style:italic;font-variant:normal;font-weight:normal;font-stretch:normal;font-size:24.92601585px;line-height:125%;font-family:U001;-inkscape-font-specification:'U001, Italic';text-align:start;letter-spacing:0px;word-spacing:0px;writing-mode:lr-tb;text-anchor:start;fill:#000080;fill-opacity:1;stroke:none;stroke-width:1px;stroke-linecap:butt;stroke-linejoin:miter;stroke-opacity:1"
         id="flowRoot3455">
        <path
           d="m -1663.9981,110.62664 -1.777,5.95157 q -0.4503,1.50919 -0.4503,1.94735 0,1.01018 1.2658,1.01018 0.572,0 1.5822,-0.23125 l -0.499,1.66742 q -0.9615,0.21907 -1.6309,0.21907 -1.1319,0 -1.8622,-0.36512 -0.572,-0.2921 -0.9006,-0.92499 -0.2799,-0.53552 -0.2799,-1.08321 0,-0.69374 0.2312,-1.50919 0.085,-0.30428 0.3773,-1.25361 l 1.6187,-5.42822 -2.568,0 0.4625,-1.55788 2.568,0 0.6451,-2.16642 2.5559,-0.77894 -0.8763,2.94536 2.4828,0 -0.4625,1.55788 -2.4828,0 z"
           style="font-style:italic;font-variant:normal;font-weight:normal;font-stretch:normal;font-size:24.92601585px;line-height:125%;font-family:U001;-inkscape-font-specification:'U001, Italic';text-align:start;letter-spacing:-0.83280027px;writing-mode:lr-tb;text-anchor:start;fill:#000080;fill-opacity:1"
           id="path5700"
           inkscape:connector-curvature="0" />
        <path
           d="m -1650.8466,115.54368 -8.5561,0 q -0.2678,0.99802 -0.2678,1.76479 0,1.32662 0.8277,1.88649 0.7424,0.51117 1.7404,0.51117 2.0934,0 3.4444,-2.17859 l 2.422,0 q -1.6431,3.69996 -5.9394,3.69996 -2.2516,0 -3.5053,-1.11973 -1.217,-1.07104 -1.217,-2.86016 0,-1.86215 0.8519,-3.88252 1.9109,-4.55192 6.3776,-4.55192 2.2273,0 3.4687,1.16841 0.9737,0.92499 0.9737,2.51938 0,1.15623 -0.6208,3.04272 z m -1.923,-1.55787 q 0.3165,-0.91282 0.3165,-1.65525 0,-0.93716 -0.7059,-1.48485 -0.6573,-0.51117 -1.6309,-0.51117 -1.0102,0 -1.9595,0.54769 -1.0833,0.62071 -1.7405,1.88649 -0.2191,0.42598 -0.5112,1.21709 l 6.2315,0 z"
           style="font-style:italic;font-variant:normal;font-weight:normal;font-stretch:normal;font-size:24.92601585px;line-height:125%;font-family:U001;-inkscape-font-specification:'U001, Italic';text-align:start;letter-spacing:-0.83280027px;writing-mode:lr-tb;text-anchor:start;fill:#000080;fill-opacity:1"
           id="path5702"
           inkscape:connector-curvature="0" />
        <path
           d="m -1645.314,112.16017 -2.2516,0 q 0.3043,-1.02235 0.6451,-1.52136 1.2901,-1.82564 4.3571,-1.82564 2.3125,0 3.4566,1.07104 0.9006,0.83979 0.9006,1.86215 0,0.94933 -0.4746,2.61675 l -0.6694,2.28813 q -0.7303,2.43418 -1.0711,4.32067 l -2.1299,0 q 0.097,-0.49901 0.2191,-1.15624 l 0.1095,-0.57203 q -0.9736,0.97367 -1.7647,1.38748 -1.1563,0.59638 -2.3855,0.59638 -1.704,0 -2.7507,-1.05887 -0.7546,-0.77894 -0.7546,-2.03254 0,-1.59439 1.1563,-2.73846 1.1319,-1.11972 3.3713,-1.43616 1.0711,-0.15823 2.9089,-0.15823 l 1.6795,0 0.1826,-0.63288 q 0.2556,-0.87631 0.2556,-1.29012 0,-0.69374 -0.4868,-1.14406 -0.5721,-0.52335 -1.7892,-0.52335 -1.2536,0 -1.9473,0.64505 -0.4382,0.40164 -0.7668,1.30229 z m 4.1746,2.9697 -1.2536,0 q -2.3611,0 -3.566,0.52335 -1.6674,0.71809 -1.6674,2.3003 0,0.69374 0.4016,1.16841 0.5112,0.5842 1.5579,0.5842 1.8378,0 3.1157,-1.58221 0.6816,-0.85197 1.4118,-2.99405 z"
           style="font-style:italic;font-variant:normal;font-weight:normal;font-stretch:normal;font-size:24.92601585px;line-height:125%;font-family:U001;-inkscape-font-specification:'U001, Italic';text-align:start;letter-spacing:-0.83280027px;writing-mode:lr-tb;text-anchor:start;fill:#000080;fill-opacity:1"
           id="path5704"
           inkscape:connector-curvature="0" />
        <path
           d="m -1625.4562,113.35292 -2.3734,0 q 0.2191,-0.83979 0.2191,-1.27794 0,-0.85197 -0.6085,-1.32663 -0.5234,-0.41381 -1.351,-0.41381 -1.923,0 -3.3592,2.26378 -0.6572,1.02236 -1.1075,2.40984 -0.4138,1.29012 -0.4138,2.23945 0,1.11972 0.7302,1.82564 0.6572,0.63288 1.7405,0.63288 1.0953,0 1.8621,-0.65723 0.5477,-0.46249 1.0589,-1.57004 l 2.4707,0 q -0.6451,1.3388 -1.1563,1.93517 -1.5822,1.81347 -4.4058,1.81347 -2.4099,0 -3.627,-1.38749 -1.0101,-1.1684 -1.0101,-2.7993 0,-1.95952 1.0466,-3.99206 2.1665,-4.23548 6.2437,-4.23548 2.0934,0 3.2618,0.99802 0.9494,0.80328 0.9494,2.22727 0,0.4625 -0.1704,1.31446 z"
           style="font-style:italic;font-variant:normal;font-weight:normal;font-stretch:normal;font-size:24.92601585px;line-height:125%;font-family:U001;-inkscape-font-specification:'U001, Italic';text-align:start;letter-spacing:-0.83280027px;writing-mode:lr-tb;text-anchor:start;fill:#000080;fill-opacity:1"
           id="path5706"
           inkscape:connector-curvature="0" />
        <path
           d="m -1617.9763,103.72573 -2.1908,7.37557 q 1.1319,-1.11972 1.8987,-1.55787 1.2658,-0.73026 2.6411,-0.73026 1.8256,0 2.7506,1.20492 0.5477,0.70591 0.5477,1.72827 0,0.85196 -0.3286,1.97169 l -2.1664,7.25386 -2.3247,0 2.1543,-7.25386 q 0.3408,-1.14407 0.3408,-1.6309 0,-0.64506 -0.426,-1.09539 -0.6086,-0.65722 -1.5822,-0.65722 -0.9737,0 -1.9596,0.60854 -1.3266,0.81545 -2.1177,2.51938 -0.353,0.75459 -0.9615,2.76279 l -1.4118,4.74666 -2.3247,0 5.1362,-17.24618 2.3246,0 z"
           style="font-style:italic;font-variant:normal;font-weight:normal;font-stretch:normal;font-size:24.92601585px;line-height:125%;font-family:U001;-inkscape-font-specification:'U001, Italic';text-align:start;letter-spacing:-0.83280027px;writing-mode:lr-tb;text-anchor:start;fill:#000080;fill-opacity:1"
           id="path5708"
           inkscape:connector-curvature="0" />
        <path
           d="m -1600.0416,115.54368 -8.5561,0 q -0.2678,0.99802 -0.2678,1.76479 0,1.32662 0.8276,1.88649 0.7425,0.51117 1.7405,0.51117 2.0934,0 3.4444,-2.17859 l 2.422,0 q -1.6431,3.69996 -5.9394,3.69996 -2.2517,0 -3.5053,-1.11973 -1.2171,-1.07104 -1.2171,-2.86016 0,-1.86215 0.852,-3.88252 1.9108,-4.55192 6.3776,-4.55192 2.2272,0 3.4687,1.16841 0.9736,0.92499 0.9736,2.51938 0,1.15623 -0.6207,3.04272 z m -1.923,-1.55787 q 0.3165,-0.91282 0.3165,-1.65525 0,-0.93716 -0.7059,-1.48485 -0.6573,-0.51117 -1.6309,-0.51117 -1.0102,0 -1.9596,0.54769 -1.0832,0.62071 -1.7404,1.88649 -0.2191,0.42598 -0.5112,1.21709 l 6.2315,0 z"
           style="font-style:italic;font-variant:normal;font-weight:normal;font-stretch:normal;font-size:24.92601585px;line-height:125%;font-family:U001;-inkscape-font-specification:'U001, Italic';text-align:start;letter-spacing:-0.83280027px;writing-mode:lr-tb;text-anchor:start;fill:#000080;fill-opacity:1"
           id="path5710"
           inkscape:connector-curvature="0" />
        <path
           d="m -1589.7258,108.72798 -0.6329,2.10556 q -1.1562,0.0122 -1.7648,0.18257 -1.2901,0.36512 -2.2029,1.75261 -0.426,0.64506 -0.9372,2.32464 l -1.7526,5.87855 -2.3246,0 2.5437,-8.53181 q 0.4503,-1.5457 0.925,-3.37134 l 2.1055,0 -0.7302,2.77497 q 0.9615,-1.7161 2.0447,-2.4707 0.6572,-0.45032 1.497,-0.57203 0.3773,-0.0609 1.2293,-0.073 z"
           style="font-style:italic;font-variant:normal;font-weight:normal;font-stretch:normal;font-size:24.92601585px;line-height:125%;font-family:U001;-inkscape-font-specification:'U001, Italic';text-align:start;letter-spacing:-0.83280027px;writing-mode:lr-tb;text-anchor:start;fill:#000080;fill-opacity:1"
           id="path5712"
           inkscape:connector-curvature="0" />
      </g>
      <path
         sodipodi:nodetypes="cccc"
         id="path4348"
         d="m -1430.6421,464.73148 0,3.80452 33.437,0 0,-3.80452"
         style="fill:none;fill-rule:evenodd;stroke:#000080;stroke-width:0.60000002;stroke-linecap:butt;stroke-linejoin:miter;stroke-miterlimit:4;stroke-dasharray:none;stroke-opacity:1"
         inkscape:connector-curvature="0" />
    </g>
    <g
       id="flowRoot4324"
       style="font-style:italic;font-variant:normal;font-weight:normal;font-stretch:normal;font-size:24.92601585px;line-height:125%;font-family:U001;-inkscape-font-specification:'U001, Italic';text-align:start;letter-spacing:0px;word-spacing:0px;writing-mode:lr-tb;text-anchor:start;fill:#000080;fill-opacity:1;stroke:none;stroke-width:1px;stroke-linecap:butt;stroke-linejoin:miter;stroke-opacity:1"
       transform="matrix(1.0357022,0,0,1.0357022,2160.5023,683.08769)">
      <path
         inkscape:connector-curvature="0"
         id="path5685"
         style="font-style:italic;font-variant:normal;font-weight:normal;font-stretch:normal;font-size:24.92601585px;line-height:125%;font-family:U001;-inkscape-font-specification:'U001, Italic';text-align:start;letter-spacing:-0.83280027px;writing-mode:lr-tb;text-anchor:start;fill:#000080;fill-opacity:1"
         d="m -1659.215,112.40359 h -2.2394 q 0.037,-0.32861 0.037,-0.55986 0,-0.60855 -0.4016,-0.97367 -0.5842,-0.53552 -1.8013,-0.53552 -1.0346,0 -1.8257,0.38946 -0.9128,0.45033 -0.9128,1.31446 0,0.63289 0.6694,1.11973 0.499,0.35295 1.6553,0.85196 1.6795,0.70591 2.3611,1.27794 1.1076,0.93716 1.1076,2.25162 0,1.02236 -0.6816,1.88649 -0.8033,1.02236 -2.3733,1.48485 -1.0954,0.31645 -2.4586,0.31645 -2.1907,0 -3.3591,-0.80328 -1.1806,-0.81545 -1.1806,-2.48287 0,-0.26776 0.024,-0.63288 h 2.2638 q 0,0.21907 0,0.46249 0,0.99801 0.5234,1.41182 0.6572,0.52335 2.0203,0.52335 1.278,0 2.1543,-0.51117 0.9128,-0.53552 0.9128,-1.49703 0,-0.75459 -0.645,-1.26577 -0.3408,-0.26776 -1.3267,-0.68157 -2.1177,-0.91282 -2.7871,-1.44834 -1.0345,-0.82762 -1.0345,-2.08122 0,-1.52137 1.2657,-2.40984 1.4362,-0.99802 3.8217,-0.99802 1.9352,0 3.0914,0.76677 1.1441,0.76677 1.1441,2.19076 0,0.26776 -0.024,0.63289 z" />
      <path
         inkscape:connector-curvature="0"
         id="path5687"
         style="font-style:italic;font-variant:normal;font-weight:normal;font-stretch:normal;font-size:24.92601585px;line-height:125%;font-family:U001;-inkscape-font-specification:'U001, Italic';text-align:start;letter-spacing:-0.83280027px;writing-mode:lr-tb;text-anchor:start;fill:#000080;fill-opacity:1"
         d="m -1652.8061,110.62664 -1.7769,5.95157 q -0.4504,1.50919 -0.4504,1.94735 0,1.01018 1.2658,1.01018 0.5721,0 1.5822,-0.23125 l -0.499,1.66742 q -0.9615,0.21907 -1.6309,0.21907 -1.1319,0 -1.8621,-0.36512 -0.572,-0.2921 -0.9007,-0.92499 -0.2799,-0.53552 -0.2799,-1.08321 0,-0.69374 0.2313,-1.50919 0.085,-0.30428 0.3773,-1.25361 l 1.6187,-5.42822 h -2.5681 l 0.4625,-1.55788 h 2.5681 l 0.645,-2.16642 2.5559,-0.77894 -0.8763,2.94536 h 2.4829 l -0.4625,1.55788 z" />
      <path
         inkscape:connector-curvature="0"
         id="path5689"
         style="font-style:italic;font-variant:normal;font-weight:normal;font-stretch:normal;font-size:24.92601585px;line-height:125%;font-family:U001;-inkscape-font-specification:'U001, Italic';text-align:start;letter-spacing:-0.83280027px;writing-mode:lr-tb;text-anchor:start;fill:#000080;fill-opacity:1"
         d="m -1637.4029,109.06876 -2.1421,7.20518 q -0.6329,2.16642 -0.718,2.65326 -0.1461,0.65722 -0.3287,2.04471 h -2.3124 l 0.4016,-2.17859 q -1.1075,1.1684 -1.9717,1.67958 -1.2779,0.7546 -2.5315,0.7546 -1.0832,0 -1.9595,-0.55986 -1.3267,-0.85197 -1.3267,-2.59241 0,-0.91282 0.6694,-3.15226 l 1.7405,-5.85421 h 2.3246 l -1.9839,6.694 q -0.4259,1.41183 -0.4259,1.98386 0,0.74242 0.3894,1.27794 0.5234,0.68157 1.5823,0.68157 1.6674,0 3.1766,-1.99603 0.645,-0.86413 1.1319,-2.20293 0.2069,-0.5842 0.8032,-2.56806 l 1.1563,-3.87035 z" />
      <path
         inkscape:connector-curvature="0"
         id="path5691"
         style="font-style:italic;font-variant:normal;font-weight:normal;font-stretch:normal;font-size:24.92601585px;line-height:125%;font-family:U001;-inkscape-font-specification:'U001, Italic';text-align:start;letter-spacing:-0.83280027px;writing-mode:lr-tb;text-anchor:start;fill:#000080;fill-opacity:1"
         d="m -1622.3892,103.72573 -3.8581,12.94985 q -0.4382,1.44834 -0.5964,2.3003 -0.1217,0.5842 -0.3165,1.99603 h -2.1786 l 0.3043,-1.72827 q -0.925,0.90065 -1.6309,1.30229 -1.1806,0.68157 -2.3977,0.68157 -1.5943,0 -2.641,-1.05887 -1.1563,-1.15624 -1.1563,-3.15227 0,-1.65524 0.6694,-3.44436 0.9615,-2.58024 2.6655,-3.77298 1.4118,-0.98585 3.0427,-0.98585 1.4848,0 2.5072,0.80328 0.5598,0.4625 1.0589,1.47268 l 2.2029,-7.3634 z m -7.6433,6.60881 q -1.0832,0 -2.0934,0.80328 -1.1806,0.94933 -1.8987,3.09141 -0.5111,1.52136 -0.5111,2.81148 0,1.15623 0.6207,1.87431 0.6816,0.79111 1.7648,0.79111 1.4118,0 2.495,-1.18057 1.0102,-1.09539 1.5944,-2.90885 0.4381,-1.37531 0.4381,-2.39767 0,-1.35097 -0.6694,-2.12991 -0.6694,-0.75459 -1.7404,-0.75459 z" />
      <path
         inkscape:connector-curvature="0"
         id="path5693"
         style="font-style:italic;font-variant:normal;font-weight:normal;font-stretch:normal;font-size:24.92601585px;line-height:125%;font-family:U001;-inkscape-font-specification:'U001, Italic';text-align:start;letter-spacing:-0.83280027px;writing-mode:lr-tb;text-anchor:start;fill:#000080;fill-opacity:1"
         d="m -1612.4507,115.54368 h -8.5562 q -0.2677,0.99802 -0.2677,1.76479 0,1.32662 0.8276,1.88649 0.7424,0.51117 1.7404,0.51117 2.0934,0 3.4444,-2.17859 h 2.422 q -1.6431,3.69996 -5.9394,3.69996 -2.2516,0 -3.5052,-1.11973 -1.2171,-1.07104 -1.2171,-2.86016 0,-1.86215 0.852,-3.88252 1.9108,-4.55192 6.3775,-4.55192 2.2273,0 3.4687,1.16841 0.9737,0.92499 0.9737,2.51938 0,1.15623 -0.6207,3.04272 z m -1.923,-1.55787 q 0.3164,-0.91282 0.3164,-1.65525 0,-0.93716 -0.7059,-1.48485 -0.6572,-0.51117 -1.6309,-0.51117 -1.0102,0 -1.9595,0.54769 -1.0832,0.62071 -1.7404,1.88649 -0.2191,0.42598 -0.5112,1.21709 z" />
      <path
         inkscape:connector-curvature="0"
         id="path5695"
         style="font-style:italic;font-variant:normal;font-weight:normal;font-stretch:normal;font-size:24.92601585px;line-height:125%;font-family:U001;-inkscape-font-specification:'U001, Italic';text-align:start;letter-spacing:-0.83280027px;writing-mode:lr-tb;text-anchor:start;fill:#000080;fill-opacity:1"
         d="m -1606.3218,109.06876 -0.4625,2.21511 q 1.0711,-1.08321 1.7405,-1.52137 1.4362,-0.94933 3.0427,-0.94933 1.3388,0 2.276,0.81545 0.9371,0.82762 0.9371,1.99603 0,0.82762 -0.3164,1.89866 l -2.2151,7.4486 h -2.3368 l 2.1907,-7.33906 q 0.3043,-1.02235 0.3043,-1.65524 0,-0.65723 -0.4868,-1.11973 -0.5721,-0.52334 -1.424,-0.52334 -0.8276,0 -1.7161,0.45032 -1.3997,0.71808 -2.2395,2.31247 -0.4746,0.91282 -0.9736,2.5924 l -1.5823,5.28218 h -2.3246 l 2.7506,-9.24989 q 0.426,-1.47268 0.6329,-2.65326 z" />
      <path
         inkscape:connector-curvature="0"
         id="path5697"
         style="font-style:italic;font-variant:normal;font-weight:normal;font-stretch:normal;font-size:24.92601585px;line-height:125%;font-family:U001;-inkscape-font-specification:'U001, Italic';text-align:start;letter-spacing:-0.83280027px;writing-mode:lr-tb;text-anchor:start;fill:#000080;fill-opacity:1"
         d="m -1591.6366,110.62664 -1.777,5.95157 q -0.4503,1.50919 -0.4503,1.94735 0,1.01018 1.2657,1.01018 0.5721,0 1.5823,-0.23125 l -0.499,1.66742 q -0.9615,0.21907 -1.6309,0.21907 -1.1319,0 -1.8622,-0.36512 -0.572,-0.2921 -0.9006,-0.92499 -0.28,-0.53552 -0.28,-1.08321 0,-0.69374 0.2313,-1.50919 0.085,-0.30428 0.3773,-1.25361 l 1.6187,-5.42822 h -2.5681 l 0.4625,-1.55788 h 2.5681 l 0.6451,-2.16642 2.5559,-0.77894 -0.8764,2.94536 h 2.4829 l -0.4625,1.55788 z" />
    </g>
    <path
       sodipodi:nodetypes="cccc"
       id="path4350"
       d="m 423.56449,803.86811 v 10.93842 h 99.52366 v -10.93842"
       style="fill:none;fill-rule:evenodd;stroke:#000080;stroke-width:1.72506618;stroke-linecap:butt;stroke-linejoin:miter;stroke-miterlimit:4;stroke-dasharray:none;stroke-opacity:1"
       inkscape:connector-curvature="0" />
    <g
       id="g4374"
       transform="matrix(2.8751102,0,0,2.8751102,4598.7865,-589.70284)">
      <g
         transform="matrix(0.36023044,0,0,0.36023044,-837.28621,463.11915)"
         style="font-style:italic;font-variant:normal;font-weight:normal;font-stretch:normal;font-size:24.92601585px;line-height:125%;font-family:U001;-inkscape-font-specification:'U001, Italic';text-align:start;letter-spacing:0px;word-spacing:0px;writing-mode:lr-tb;text-anchor:start;fill:#000080;fill-opacity:1;stroke:none;stroke-width:1px;stroke-linecap:butt;stroke-linejoin:miter;stroke-opacity:1"
         id="flowRoot4332">
        <path
           d="m -1655.3811,103.72573 -3.8582,12.94985 q -0.4382,1.44834 -0.5964,2.3003 -0.1217,0.5842 -0.3164,1.99603 l -2.1786,0 0.3043,-1.72827 q -0.925,0.90065 -1.6309,1.30229 -1.1806,0.68157 -2.3977,0.68157 -1.5944,0 -2.6411,-1.05887 -1.1562,-1.15624 -1.1562,-3.15227 0,-1.65524 0.6694,-3.44436 0.9615,-2.58024 2.6654,-3.77298 1.4118,-0.98585 3.0427,-0.98585 1.4849,0 2.5072,0.80328 0.5599,0.4625 1.0589,1.47268 l 2.2029,-7.3634 2.3247,0 z m -7.6434,6.60881 q -1.0832,0 -2.0934,0.80328 -1.1805,0.94933 -1.8986,3.09141 -0.5112,1.52136 -0.5112,2.81148 0,1.15623 0.6207,1.87431 0.6816,0.79111 1.7648,0.79111 1.4118,0 2.495,-1.18057 1.0102,-1.09539 1.5944,-2.90885 0.4382,-1.37531 0.4382,-2.39767 0,-1.35097 -0.6694,-2.12991 -0.6694,-0.75459 -1.7405,-0.75459 z"
           style="font-style:italic;font-variant:normal;font-weight:normal;font-stretch:normal;font-size:24.92601585px;line-height:125%;font-family:U001;-inkscape-font-specification:'U001, Italic';text-align:start;letter-spacing:-0.83280027px;writing-mode:lr-tb;text-anchor:start;fill:#000080;fill-opacity:1"
           id="path5666"
           inkscape:connector-curvature="0" />
        <path
           d="m -1645.4427,115.54368 -8.5561,0 q -0.2678,0.99802 -0.2678,1.76479 0,1.32662 0.8276,1.88649 0.7425,0.51117 1.7405,0.51117 2.0934,0 3.4443,-2.17859 l 2.4221,0 q -1.6431,3.69996 -5.9394,3.69996 -2.2517,0 -3.5053,-1.11973 -1.2171,-1.07104 -1.2171,-2.86016 0,-1.86215 0.852,-3.88252 1.9108,-4.55192 6.3776,-4.55192 2.2272,0 3.4687,1.16841 0.9736,0.92499 0.9736,2.51938 0,1.15623 -0.6207,3.04272 z m -1.923,-1.55787 q 0.3165,-0.91282 0.3165,-1.65525 0,-0.93716 -0.7059,-1.48485 -0.6573,-0.51117 -1.631,-0.51117 -1.0101,0 -1.9595,0.54769 -1.0832,0.62071 -1.7404,1.88649 -0.2191,0.42598 -0.5112,1.21709 l 6.2315,0 z"
           style="font-style:italic;font-variant:normal;font-weight:normal;font-stretch:normal;font-size:24.92601585px;line-height:125%;font-family:U001;-inkscape-font-specification:'U001, Italic';text-align:start;letter-spacing:-0.83280027px;writing-mode:lr-tb;text-anchor:start;fill:#000080;fill-opacity:1"
           id="path5668"
           inkscape:connector-curvature="0" />
        <path
           d="m -1630.9766,109.06876 -7.6921,11.90315 -2.4828,0 -1.9474,-11.90315 2.2273,0 1.0832,7.11998 q 0.2191,1.59439 0.2556,3.24963 0.6816,-1.53353 1.6309,-3.12792 l 4.6615,-7.24169 2.2638,0 z"
           style="font-style:italic;font-variant:normal;font-weight:normal;font-stretch:normal;font-size:24.92601585px;line-height:125%;font-family:U001;-inkscape-font-specification:'U001, Italic';text-align:start;letter-spacing:-0.83280027px;writing-mode:lr-tb;text-anchor:start;fill:#000080;fill-opacity:1"
           id="path5670"
           inkscape:connector-curvature="0" />
        <path
           d="m -1620.9652,115.54368 -8.5561,0 q -0.2678,0.99802 -0.2678,1.76479 0,1.32662 0.8276,1.88649 0.7425,0.51117 1.7405,0.51117 2.0934,0 3.4443,-2.17859 l 2.4221,0 q -1.6431,3.69996 -5.9394,3.69996 -2.2517,0 -3.5053,-1.11973 -1.2171,-1.07104 -1.2171,-2.86016 0,-1.86215 0.852,-3.88252 1.9108,-4.55192 6.3776,-4.55192 2.2272,0 3.4687,1.16841 0.9736,0.92499 0.9736,2.51938 0,1.15623 -0.6207,3.04272 z m -1.923,-1.55787 q 0.3165,-0.91282 0.3165,-1.65525 0,-0.93716 -0.7059,-1.48485 -0.6573,-0.51117 -1.6309,-0.51117 -1.0102,0 -1.9596,0.54769 -1.0832,0.62071 -1.7404,1.88649 -0.2191,0.42598 -0.5112,1.21709 l 6.2315,0 z"
           style="font-style:italic;font-variant:normal;font-weight:normal;font-stretch:normal;font-size:24.92601585px;line-height:125%;font-family:U001;-inkscape-font-specification:'U001, Italic';text-align:start;letter-spacing:-0.83280027px;writing-mode:lr-tb;text-anchor:start;fill:#000080;fill-opacity:1"
           id="path5672"
           inkscape:connector-curvature="0" />
        <path
           d="m -1612.9497,103.72573 -5.1361,17.24618 -2.3247,0 5.1361,-17.24618 2.3247,0 z"
           style="font-style:italic;font-variant:normal;font-weight:normal;font-stretch:normal;font-size:24.92601585px;line-height:125%;font-family:U001;-inkscape-font-specification:'U001, Italic';text-align:start;letter-spacing:-0.83280027px;writing-mode:lr-tb;text-anchor:start;fill:#000080;fill-opacity:1"
           id="path5674"
           inkscape:connector-curvature="0" />
        <path
           d="m -1607.2346,108.81317 q 2.3977,0 3.773,1.41183 1.1562,1.19275 1.1562,3.31048 0,1.53354 -0.718,3.24964 -0.9615,2.28813 -2.7872,3.43219 -1.5944,1.01019 -3.7121,1.01019 -2.1664,0 -3.4444,-1.07104 -1.4361,-1.19275 -1.4361,-3.44437 0,-1.87432 0.8276,-3.7243 1.0102,-2.25161 3.0305,-3.347 1.5092,-0.82762 3.3105,-0.82762 z m -0.1947,1.52137 q -2.2151,0 -3.5174,2.33681 -0.5112,0.90065 -0.8641,2.34898 -0.2678,1.09539 -0.2678,1.8865 0,1.09538 0.6816,1.89866 0.7424,0.90064 2.0934,0.90064 2.2029,0 3.5052,-2.27596 0.5233,-0.92498 0.8641,-2.17859 0.2921,-1.11972 0.2921,-1.88649 0,-1.42399 -0.7302,-2.20293 -0.7668,-0.82762 -2.0569,-0.82762 z"
           style="font-style:italic;font-variant:normal;font-weight:normal;font-stretch:normal;font-size:24.92601585px;line-height:125%;font-family:U001;-inkscape-font-specification:'U001, Italic';text-align:start;letter-spacing:-0.83280027px;writing-mode:lr-tb;text-anchor:start;fill:#000080;fill-opacity:1"
           id="path5676"
           inkscape:connector-curvature="0" />
        <path
           d="m -1596.2494,109.06876 -0.3651,1.53354 q 0.9006,-0.91282 1.643,-1.27795 1.0224,-0.51118 2.1664,-0.51118 2.0082,0 3.0915,1.44834 0.8154,1.09538 0.8154,2.77497 0,1.64307 -0.6937,3.46871 -0.9129,2.38549 -2.5559,3.61475 -1.497,1.10756 -3.2497,1.10756 -1.4361,0 -2.422,-0.74243 -0.6207,-0.47466 -1.144,-1.53353 l -1.8865,6.32887 -2.3247,0 4.8319,-16.21165 2.0934,0 z m 2.6532,1.26578 q -2.1542,0 -3.4808,2.5924 -1.0954,2.15425 -1.0954,4.25982 0,1.2536 0.7546,1.923 0.6815,0.59637 1.5944,0.59637 1.9351,0 3.2252,-2.15425 0.5356,-0.88847 0.9737,-2.26379 0.4017,-1.31445 0.4017,-2.10556 0,-1.15624 -0.5356,-1.92301 -0.6572,-0.92498 -1.8378,-0.92498 z"
           style="font-style:italic;font-variant:normal;font-weight:normal;font-stretch:normal;font-size:24.92601585px;line-height:125%;font-family:U001;-inkscape-font-specification:'U001, Italic';text-align:start;letter-spacing:-0.83280027px;writing-mode:lr-tb;text-anchor:start;fill:#000080;fill-opacity:1"
           id="path5678"
           inkscape:connector-curvature="0" />
        <path
           d="m -1576.4404,115.54368 -8.5561,0 q -0.2678,0.99802 -0.2678,1.76479 0,1.32662 0.8276,1.88649 0.7425,0.51117 1.7405,0.51117 2.0934,0 3.4443,-2.17859 l 2.4221,0 q -1.6431,3.69996 -5.9394,3.69996 -2.2517,0 -3.5053,-1.11973 -1.2171,-1.07104 -1.2171,-2.86016 0,-1.86215 0.852,-3.88252 1.9108,-4.55192 6.3776,-4.55192 2.2272,0 3.4687,1.16841 0.9736,0.92499 0.9736,2.51938 0,1.15623 -0.6207,3.04272 z m -1.923,-1.55787 q 0.3165,-0.91282 0.3165,-1.65525 0,-0.93716 -0.7059,-1.48485 -0.6573,-0.51117 -1.6309,-0.51117 -1.0102,0 -1.9596,0.54769 -1.0832,0.62071 -1.7404,1.88649 -0.2191,0.42598 -0.5112,1.21709 l 6.2315,0 z"
           style="font-style:italic;font-variant:normal;font-weight:normal;font-stretch:normal;font-size:24.92601585px;line-height:125%;font-family:U001;-inkscape-font-specification:'U001, Italic';text-align:start;letter-spacing:-0.83280027px;writing-mode:lr-tb;text-anchor:start;fill:#000080;fill-opacity:1"
           id="path5680"
           inkscape:connector-curvature="0" />
        <path
           d="m -1566.1246,108.72798 -0.6329,2.10556 q -1.1562,0.0122 -1.7648,0.18257 -1.2901,0.36512 -2.2029,1.75261 -0.426,0.64506 -0.9372,2.32464 l -1.7526,5.87855 -2.3246,0 2.5437,-8.53181 q 0.4503,-1.5457 0.925,-3.37134 l 2.1055,0 -0.7302,2.77497 q 0.9615,-1.7161 2.0447,-2.4707 0.6572,-0.45032 1.497,-0.57203 0.3773,-0.0609 1.2293,-0.073 z"
           style="font-style:italic;font-variant:normal;font-weight:normal;font-stretch:normal;font-size:24.92601585px;line-height:125%;font-family:U001;-inkscape-font-specification:'U001, Italic';text-align:start;letter-spacing:-0.83280027px;writing-mode:lr-tb;text-anchor:start;fill:#000080;fill-opacity:1"
           id="path5682"
           inkscape:connector-curvature="0" />
      </g>
      <path
         sodipodi:nodetypes="cccc"
         id="path4352"
         d="m -1442.0242,505.56613 0,3.80452 42.733,0 0,-3.80452"
         style="fill:none;fill-rule:evenodd;stroke:#000080;stroke-width:0.60000002;stroke-linecap:butt;stroke-linejoin:miter;stroke-miterlimit:4;stroke-dasharray:none;stroke-opacity:1"
         inkscape:connector-curvature="0" />
    </g>
    <g
       id="g4381"
       transform="matrix(2.8751102,0,0,2.8751102,4614.1698,-728.28027)">
      <g
         transform="matrix(0.36023044,0,0,0.36023044,-834.29728,478.42244)"
         style="font-style:italic;font-variant:normal;font-weight:normal;font-stretch:normal;font-size:24.92601585px;line-height:125%;font-family:U001;-inkscape-font-specification:'U001, Italic';text-align:start;letter-spacing:0px;word-spacing:0px;writing-mode:lr-tb;text-anchor:start;fill:#000080;fill-opacity:1;stroke:none;stroke-width:1px;stroke-linecap:butt;stroke-linejoin:miter;stroke-opacity:1"
         id="flowRoot4340">
        <path
           d="m -1656.9633,109.06876 -2.1421,7.20518 q -0.6329,2.16642 -0.7181,2.65326 -0.1461,0.65722 -0.3286,2.04471 l -2.3125,0 0.4016,-2.17859 q -1.1075,1.1684 -1.9716,1.67958 -1.278,0.7546 -2.5316,0.7546 -1.0832,0 -1.9595,-0.55986 -1.3266,-0.85197 -1.3266,-2.59241 0,-0.91282 0.6694,-3.15226 l 1.7404,-5.85421 2.3246,0 -1.9838,6.694 q -0.426,1.41183 -0.426,1.98386 0,0.74242 0.3895,1.27794 0.5233,0.68157 1.5822,0.68157 1.6674,0 3.1766,-1.99603 0.6451,-0.86413 1.1319,-2.20293 0.2069,-0.5842 0.8033,-2.56806 l 1.1562,-3.87035 2.3247,0 z"
           style="font-style:italic;font-variant:normal;font-weight:normal;font-stretch:normal;font-size:24.92601585px;line-height:125%;font-family:U001;-inkscape-font-specification:'U001, Italic';text-align:start;letter-spacing:-0.83280027px;writing-mode:lr-tb;text-anchor:start;fill:#000080;fill-opacity:1"
           id="path5657"
           inkscape:connector-curvature="0" />
        <path
           d="m -1645.7835,112.40359 -2.2394,0 q 0.036,-0.32861 0.036,-0.55986 0,-0.60855 -0.4016,-0.97367 -0.5842,-0.53552 -1.8013,-0.53552 -1.0346,0 -1.8257,0.38946 -0.9128,0.45033 -0.9128,1.31446 0,0.63289 0.6694,1.11973 0.499,0.35295 1.6553,0.85196 1.6795,0.70591 2.3611,1.27794 1.1076,0.93716 1.1076,2.25162 0,1.02236 -0.6816,1.88649 -0.8033,1.02236 -2.3733,1.48485 -1.0954,0.31645 -2.4586,0.31645 -2.1907,0 -3.3591,-0.80328 -1.1806,-0.81545 -1.1806,-2.48287 0,-0.26776 0.024,-0.63288 l 2.2638,0 q 0,0.21907 0,0.46249 0,0.99801 0.5234,1.41182 0.6572,0.52335 2.0203,0.52335 1.278,0 2.1543,-0.51117 0.9128,-0.53552 0.9128,-1.49703 0,-0.75459 -0.645,-1.26577 -0.3408,-0.26776 -1.3267,-0.68157 -2.1177,-0.91282 -2.7871,-1.44834 -1.0345,-0.82762 -1.0345,-2.08122 0,-1.52137 1.2657,-2.40984 1.4362,-0.99802 3.8217,-0.99802 1.9352,0 3.0914,0.76677 1.1441,0.76677 1.1441,2.19076 0,0.26776 -0.024,0.63289 z"
           style="font-style:italic;font-variant:normal;font-weight:normal;font-stretch:normal;font-size:24.92601585px;line-height:125%;font-family:U001;-inkscape-font-specification:'U001, Italic';text-align:start;letter-spacing:-0.83280027px;writing-mode:lr-tb;text-anchor:start;fill:#000080;fill-opacity:1"
           id="path5659"
           inkscape:connector-curvature="0" />
        <path
           d="m -1633.8612,115.54368 -8.5561,0 q -0.2678,0.99802 -0.2678,1.76479 0,1.32662 0.8277,1.88649 0.7424,0.51117 1.7404,0.51117 2.0934,0 3.4444,-2.17859 l 2.422,0 q -1.6431,3.69996 -5.9394,3.69996 -2.2516,0 -3.5052,-1.11973 -1.2171,-1.07104 -1.2171,-2.86016 0,-1.86215 0.8519,-3.88252 1.9109,-4.55192 6.3776,-4.55192 2.2273,0 3.4687,1.16841 0.9737,0.92499 0.9737,2.51938 0,1.15623 -0.6208,3.04272 z m -1.923,-1.55787 q 0.3165,-0.91282 0.3165,-1.65525 0,-0.93716 -0.7059,-1.48485 -0.6573,-0.51117 -1.6309,-0.51117 -1.0102,0 -1.9595,0.54769 -1.0833,0.62071 -1.7405,1.88649 -0.2191,0.42598 -0.5112,1.21709 l 6.2315,0 z"
           style="font-style:italic;font-variant:normal;font-weight:normal;font-stretch:normal;font-size:24.92601585px;line-height:125%;font-family:U001;-inkscape-font-specification:'U001, Italic';text-align:start;letter-spacing:-0.83280027px;writing-mode:lr-tb;text-anchor:start;fill:#000080;fill-opacity:1"
           id="path5661"
           inkscape:connector-curvature="0" />
        <path
           d="m -1623.5454,108.72798 -0.6329,2.10556 q -1.1562,0.0122 -1.7648,0.18257 -1.2901,0.36512 -2.2029,1.75261 -0.426,0.64506 -0.9372,2.32464 l -1.7526,5.87855 -2.3246,0 2.5437,-8.53181 q 0.4503,-1.5457 0.925,-3.37134 l 2.1056,0 -0.7303,2.77497 q 0.9615,-1.7161 2.0447,-2.4707 0.6572,-0.45032 1.497,-0.57203 0.3773,-0.0609 1.2293,-0.073 z"
           style="font-style:italic;font-variant:normal;font-weight:normal;font-stretch:normal;font-size:24.92601585px;line-height:125%;font-family:U001;-inkscape-font-specification:'U001, Italic';text-align:start;letter-spacing:-0.83280027px;writing-mode:lr-tb;text-anchor:start;fill:#000080;fill-opacity:1"
           id="path5663"
           inkscape:connector-curvature="0" />
      </g>
      <path
         inkscape:connector-curvature="0"
         style="fill:none;fill-rule:evenodd;stroke:#000080;stroke-width:0.60000002;stroke-linecap:butt;stroke-linejoin:miter;stroke-miterlimit:4;stroke-dasharray:none;stroke-opacity:1"
         d="m -1439.0907,520.11641 0,3.80452 21.715,0 0,-3.80452"
         id="path4356"
         sodipodi:nodetypes="cccc" />
    </g>
  </g>
</svg>
