<?xml version="1.0" encoding="UTF-8" standalone="no"?>
<!-- Created with Inkscape (http://www.inkscape.org/) -->

<svg
   xmlns:dc="http://purl.org/dc/elements/1.1/"
   xmlns:cc="http://creativecommons.org/ns#"
   xmlns:rdf="http://www.w3.org/1999/02/22-rdf-syntax-ns#"
   xmlns:svg="http://www.w3.org/2000/svg"
   xmlns="http://www.w3.org/2000/svg"
   xmlns:xlink="http://www.w3.org/1999/xlink"
   xmlns:sodipodi="http://sodipodi.sourceforge.net/DTD/sodipodi-0.dtd"
   xmlns:inkscape="http://www.inkscape.org/namespaces/inkscape"
   width="117.13338mm"
   height="55.838448mm"
   viewBox="0 0 117.13338 55.838448"
   version="1.1"
   id="svg2280"
   inkscape:version="0.92.2 2405546, 2018-03-11"
   sodipodi:docname="efficiency-resiliency.svg">
  <defs
     id="defs2274">
    <inkscape:path-effect
       is_visible="true"
       id="path-effect7807"
       effect="spiro" />
    <inkscape:path-effect
       effect="spiro"
       id="path-effect7144"
       is_visible="true" />
    <inkscape:path-effect
       is_visible="true"
       id="path-effect7140"
       effect="spiro" />
    <inkscape:path-effect
       effect="spiro"
       id="path-effect7136"
       is_visible="true" />
    <inkscape:path-effect
       effect="spiro"
       id="path-effect7132"
       is_visible="true" />
  </defs>
  <sodipodi:namedview
     id="base"
     pagecolor="#ffffff"
     bordercolor="#666666"
     borderopacity="1.0"
     inkscape:pageopacity="0.0"
     inkscape:pageshadow="2"
     inkscape:zoom="3.0166406"
     inkscape:cx="217.9859"
     inkscape:cy="68.017007"
     inkscape:document-units="mm"
     inkscape:current-layer="layer1"
     showgrid="false"
     inkscape:snap-global="false"
     inkscape:window-width="1877"
     inkscape:window-height="1029"
     inkscape:window-x="43"
     inkscape:window-y="27"
     inkscape:window-maximized="1"
     fit-margin-top="5"
     fit-margin-left="5"
     fit-margin-right="5"
     fit-margin-bottom="5"
     showguides="false" />
  <metadata
     id="metadata2277">
    <rdf:RDF>
      <cc:Work
         rdf:about="">
        <dc:format>image/svg+xml</dc:format>
        <dc:type
           rdf:resource="http://purl.org/dc/dcmitype/StillImage" />
        <dc:title />
      </cc:Work>
    </rdf:RDF>
  </metadata>
  <g
     inkscape:label="Layer 1"
     inkscape:groupmode="layer"
     id="layer1"
     transform="translate(-26.215509,-102.13198)">
    <text
       xml:space="preserve"
       style="font-style:normal;font-weight:normal;font-size:10.58333302px;line-height:1.25;font-family:sans-serif;letter-spacing:0px;word-spacing:0px;fill:#000000;fill-opacity:1;stroke:none;stroke-width:0.26458332"
       x="63.810818"
       y="151.16068"
       id="text6542"
       class="labelbold"><tspan
         sodipodi:role="line"
         id="tspan6540"
         x="63.810818"
         y="151.16068"
         style="font-style:normal;font-variant:normal;font-weight:bold;font-stretch:normal;font-size:10.58333302px;font-family:U001;-inkscape-font-specification:'U001, Bold';font-variant-ligatures:normal;font-variant-caps:normal;font-variant-numeric:normal;font-feature-settings:normal;text-align:center;writing-mode:lr-tb;text-anchor:middle;stroke-width:0.26458332">Efficacity</tspan></text>
    <rect
       style="opacity:1;fill:#000000;fill-opacity:1;fill-rule:nonzero;stroke:none;stroke-width:0.2;stroke-linecap:round;stroke-linejoin:round;stroke-miterlimit:4;stroke-dasharray:none;stroke-dashoffset:0;stroke-opacity:1"
       id="rect889"
       width="45.371944"
       height="13.797795"
       x="-86.59742"
       y="-140.44949"
       transform="scale(-1)" />
    <path
       style="opacity:1;fill:#000000;fill-opacity:1;fill-rule:nonzero;stroke:none;stroke-width:0.2;stroke-linecap:round;stroke-linejoin:round;stroke-miterlimit:4;stroke-dasharray:none;stroke-dashoffset:0;stroke-opacity:1"
       d="m 31.215509,128.69584 32.082809,-8.25187 32.082815,8.25188 z"
       id="rect891"
       inkscape:connector-curvature="0"
       sodipodi:nodetypes="cccc" />
    <text
       id="text7128"
       style="font-style:normal;font-variant:normal;font-weight:normal;font-stretch:normal;font-size:10.58333302px;line-height:1.25;font-family:U001;-inkscape-font-specification:'U001, Normal';font-variant-ligatures:normal;font-variant-caps:normal;font-variant-numeric:normal;font-feature-settings:normal;text-align:start;letter-spacing:0px;word-spacing:0px;writing-mode:lr-tb;text-anchor:start;fill:#000000;fill-opacity:1;stroke:none;stroke-width:0.26458332"
       xml:space="preserve"
       x="7.0237737"
       y="-3.6874812"
       class="labellight"><textPath
         xlink:href="#path7805"
         id="textPath7812"
         style="font-style:normal;font-variant:normal;font-weight:normal;font-stretch:normal;font-size:8.46666622px;font-family:U001;-inkscape-font-specification:'U001, Normal';font-variant-ligatures:normal;font-variant-caps:normal;font-variant-numeric:normal;font-feature-settings:normal;text-align:start;letter-spacing:-0.46037507px;writing-mode:lr-tb;text-anchor:start;stroke-width:0.26458332">Resiliency</textPath></text>
    <path
       style="opacity:1;fill:none;fill-opacity:1;fill-rule:nonzero;stroke:#000000;stroke-width:0.60000002;stroke-linecap:round;stroke-linejoin:round;stroke-miterlimit:4;stroke-dasharray:none;stroke-dashoffset:0;stroke-opacity:1"
       d="m 89.490884,140.16525 c 5.168205,-4.96517 12.909386,-7.09118 19.888606,-5.46213 2.62395,0.61247 5.10573,1.70793 7.65278,2.58702 2.54704,0.87909 5.23775,1.54963 7.91696,1.26322 1.33961,-0.1432 2.66171,-0.53029 3.82473,-1.21033 1.16301,-0.68003 2.16216,-1.66019 2.78859,-2.85293 0.62643,-1.19275 0.86571,-2.60007 0.58494,-3.91773 -0.28077,-1.31766 -1.09819,-2.52865 -2.25935,-3.21186 -0.8099,-0.47653 -1.75871,-0.68981 -2.69837,-0.69604 -0.93967,-0.006 -1.87243,0.18776 -2.76499,0.48162 -1.78512,0.58772 -3.41574,1.56765 -5.17075,2.23997 -4.09682,1.56944 -8.84443,1.34857 -12.77785,-0.59444 -3.93342,-1.94302 -6.993945,-5.57919 -8.237195,-9.78649"
       id="path7130"
       inkscape:connector-curvature="0"
       inkscape:path-effect="#path-effect7132"
       inkscape:original-d="m 89.490884,140.16525 c 0,-3.29151 13.052386,-6.47491 19.888606,-5.46213 6.83622,1.01277 16.96395,-4.55748 20.50865,-7.34261 3.54471,-2.78513 -2.27874,2.78513 -10.63411,2.02555 -8.35538,-0.75958 -18.48311,-5.31706 -21.015045,-10.38093"
       sodipodi:nodetypes="cccsc" />
    <path
       style="opacity:1;fill:none;fill-opacity:1;fill-rule:nonzero;stroke:#ffffff;stroke-width:0.80000001;stroke-linecap:butt;stroke-linejoin:bevel;stroke-miterlimit:4;stroke-dasharray:1.6, 0.8;stroke-dashoffset:0;stroke-opacity:1"
       d="M 51.904618,140.77975 V 119.25832"
       id="path7134"
       inkscape:connector-curvature="0"
       inkscape:path-effect="#path-effect7136"
       inkscape:original-d="m 51.904618,140.77975 c 2.65e-4,-7.00528 2.65e-4,-14.34788 0,-21.52143" />
    <path
       inkscape:original-d="m 63.285994,140.77975 c 2.65e-4,-7.00528 2.65e-4,-14.34788 0,-21.52143"
       inkscape:path-effect="#path-effect7140"
       inkscape:connector-curvature="0"
       id="path7138"
       d="M 63.285994,140.77975 V 119.25832"
       style="opacity:1;fill:none;fill-opacity:1;fill-rule:nonzero;stroke:#ffffff;stroke-width:0.80000001;stroke-linecap:butt;stroke-linejoin:bevel;stroke-miterlimit:4;stroke-dasharray:1.6, 0.8;stroke-dashoffset:0;stroke-opacity:1" />
    <path
       style="opacity:1;fill:none;fill-opacity:1;fill-rule:nonzero;stroke:#ffffff;stroke-width:0.80000001;stroke-linecap:butt;stroke-linejoin:bevel;stroke-miterlimit:4;stroke-dasharray:1.6, 0.8;stroke-dashoffset:0;stroke-opacity:1"
       d="M 74.438819,140.77975 V 119.25832"
       id="path7142"
       inkscape:connector-curvature="0"
       inkscape:path-effect="#path-effect7144"
       inkscape:original-d="m 74.438819,140.77975 c 2.65e-4,-7.00528 2.65e-4,-14.34788 0,-21.52143" />
    <path
       sodipodi:nodetypes="cccc"
       inkscape:connector-curvature="0"
       id="path7775"
       d="m 94.891683,120.1038 3.142847,-1.84598 3.64477,0.0272 z"
       style="opacity:1;fill:#000000;fill-opacity:1;fill-rule:nonzero;stroke:none;stroke-width:0.2;stroke-linecap:round;stroke-linejoin:round;stroke-miterlimit:4;stroke-dasharray:none;stroke-dashoffset:0;stroke-opacity:1" />
    <g
       id="g7803"
       transform="rotate(31.782113,151.11026,86.313227)">
      <circle
         r="1.3968444"
         cy="144.24728"
         cx="131.83107"
         id="path7773"
         style="opacity:1;fill:none;fill-opacity:0.27843137;fill-rule:nonzero;stroke:#000000;stroke-width:0.5;stroke-linecap:butt;stroke-linejoin:bevel;stroke-miterlimit:4;stroke-dasharray:none;stroke-dashoffset:0;stroke-opacity:1" />
      <circle
         style="opacity:1;fill:none;fill-opacity:0.27843137;fill-rule:nonzero;stroke:#000000;stroke-width:0.5;stroke-linecap:butt;stroke-linejoin:bevel;stroke-miterlimit:4;stroke-dasharray:none;stroke-dashoffset:0;stroke-opacity:1"
         id="circle7777"
         cx="136.9218"
         cy="144.24728"
         r="1.3968444" />
      <rect
         transform="matrix(1,0,0.61084851,0.7917475,0,0)"
         y="179.18211"
         x="23.38802"
         height="2.9547234"
         width="2.1515176"
         id="rect7779"
         style="opacity:1;fill:none;fill-opacity:0.27843137;fill-rule:nonzero;stroke:#000000;stroke-width:0.67430747;stroke-linecap:round;stroke-linejoin:round;stroke-miterlimit:4;stroke-dasharray:none;stroke-dashoffset:0;stroke-opacity:1" />
      <path
         sodipodi:nodetypes="cc"
         inkscape:connector-curvature="0"
         id="path7781"
         d="m 134.6558,144.15417 0.55875,-3.07159"
         style="opacity:1;fill:none;fill-opacity:0.27843137;fill-rule:nonzero;stroke:#000000;stroke-width:0.60000002;stroke-linecap:round;stroke-linejoin:round;stroke-miterlimit:4;stroke-dasharray:none;stroke-dashoffset:0;stroke-opacity:1" />
      <path
         sodipodi:nodetypes="cc"
         style="opacity:1;fill:none;fill-opacity:0.27843137;fill-rule:nonzero;stroke:#000000;stroke-width:0.60000002;stroke-linecap:round;stroke-linejoin:round;stroke-miterlimit:4;stroke-dasharray:none;stroke-dashoffset:0;stroke-opacity:1"
         d="m 131.86211,144.15417 1.08791,-3.07159"
         id="path7783"
         inkscape:connector-curvature="0" />
      <path
         sodipodi:nodetypes="cc"
         inkscape:connector-curvature="0"
         id="rect7787"
         d="m 134.62591,141.03036 h 0.81402"
         style="opacity:1;fill:none;fill-opacity:0.27843137;fill-rule:nonzero;stroke:#000000;stroke-width:0.60000008;stroke-linecap:round;stroke-linejoin:round;stroke-miterlimit:4;stroke-dasharray:none;stroke-dashoffset:0;stroke-opacity:1" />
      <path
         style="opacity:1;fill:none;fill-opacity:0.27843137;fill-rule:nonzero;stroke:#000000;stroke-width:0.60000008;stroke-linecap:round;stroke-linejoin:round;stroke-miterlimit:4;stroke-dasharray:none;stroke-dashoffset:0;stroke-opacity:1"
         d="m 131.84784,141.03036 h 1.09319"
         id="path7794"
         inkscape:connector-curvature="0"
         sodipodi:nodetypes="cc" />
    </g>
    <path
       sodipodi:nodetypes="csccc"
       inkscape:original-d="m 121.24185,126.55568 c 2.53194,5.06387 0.0169,-2.31906 8.37226,-1.55948 8.35537,0.75958 7.68182,0.80834 4.13711,3.59347 -3.5447,2.78513 -1.73201,12.92083 -8.56823,11.90806 -6.83622,-1.01278 -13.43566,-6.77457 -13.43566,-3.48306"
       inkscape:path-effect="#path-effect7807"
       inkscape:connector-curvature="0"
       id="path7805"
       d="m 121.24185,126.55568 c 1.12486,-0.97398 2.51197,-1.64214 3.97474,-1.91461 1.46277,-0.27247 2.99743,-0.14853 4.39752,0.35513 1.76283,0.63415 3.32454,1.90543 4.13711,3.59347 0.61505,1.2777 0.78455,2.75347 0.54404,4.15096 -0.24051,1.39748 -0.88135,2.71471 -1.7783,3.81302 -1.7939,2.19663 -4.53939,3.4608 -7.33397,3.94408 -4.69905,0.81262 -9.72323,-0.48985 -13.43566,-3.48306"
       style="opacity:1;fill:none;fill-opacity:1;fill-rule:nonzero;stroke:none;stroke-width:0.60000002;stroke-linecap:round;stroke-linejoin:round;stroke-miterlimit:4;stroke-dasharray:none;stroke-dashoffset:0;stroke-opacity:1" />
    <path
       style="opacity:1;fill:none;fill-opacity:1;fill-rule:nonzero;stroke:#141414;stroke-width:0.60000002;stroke-linecap:round;stroke-linejoin:round;stroke-miterlimit:4;stroke-dasharray:none;stroke-dashoffset:0;stroke-opacity:1"
       id="path7838"
       sodipodi:type="arc"
       sodipodi:cx="56.240555"
       sodipodi:cy="114.65543"
       sodipodi:rx="5.4555926"
       sodipodi:ry="5.217618"
       sodipodi:start="3.0984954"
       sodipodi:end="5.2638506"
       sodipodi:open="true"
       d="m 50.790028,114.88023 a 5.4555926,5.217618 0 0 1 2.686821,-4.72338 5.4555926,5.217618 0 0 1 5.622069,0.0544" />
    <path
       d="m 59.41994,110.95025 a 3.1358917,2.9346185 0 0 1 1.951597,-3.23251 3.1358917,2.9346185 0 0 1 3.774351,1.14408"
       sodipodi:open="true"
       sodipodi:end="5.7105139"
       sodipodi:start="2.9709911"
       sodipodi:ry="2.9346185"
       sodipodi:rx="3.1358917"
       sodipodi:cy="110.45203"
       sodipodi:cx="62.510307"
       sodipodi:type="arc"
       id="path7840"
       style="opacity:1;fill:none;fill-opacity:1;fill-rule:nonzero;stroke:#141414;stroke-width:0.60000002;stroke-linecap:round;stroke-linejoin:round;stroke-miterlimit:4;stroke-dasharray:none;stroke-dashoffset:0;stroke-opacity:1" />
    <path
       d="m 64.052716,110.35917 a 5.4555926,5.217618 0 0 1 7.199396,-2.44042 5.4555926,5.217618 0 0 1 2.694462,6.83544"
       sodipodi:open="true"
       sodipodi:end="0.41493035"
       sodipodi:start="3.5963188"
       sodipodi:ry="5.217618"
       sodipodi:rx="5.4555926"
       sodipodi:cy="112.65083"
       sodipodi:cx="68.953918"
       sodipodi:type="arc"
       id="path7842"
       style="opacity:1;fill:none;fill-opacity:1;fill-rule:nonzero;stroke:#141414;stroke-width:0.60000002;stroke-linecap:round;stroke-linejoin:round;stroke-miterlimit:4;stroke-dasharray:none;stroke-dashoffset:0;stroke-opacity:1" />
    <path
       style="opacity:1;fill:none;fill-opacity:1;fill-rule:nonzero;stroke:#141414;stroke-width:0.60002935;stroke-linecap:round;stroke-linejoin:round;stroke-miterlimit:4;stroke-dasharray:none;stroke-dashoffset:0;stroke-opacity:1"
       id="path7844"
       sodipodi:type="arc"
       sodipodi:cx="135.43742"
       sodipodi:cy="-26.495501"
       sodipodi:rx="3.0801709"
       sodipodi:ry="2.987998"
       sodipodi:start="3.4019251"
       sodipodi:end="6.019884"
       sodipodi:open="true"
       d="m 132.46104,-27.264617 a 3.0801709,2.987998 0 0 1 2.97181,-2.218878 3.0801709,2.987998 0 0 1 2.97859,2.21031"
       transform="matrix(0.3688829,0.92947588,-0.93454101,0.35585545,0,0)" />
    <path
       style="opacity:1;fill:none;fill-opacity:1;fill-rule:nonzero;stroke:#141414;stroke-width:0.60000002;stroke-linecap:round;stroke-linejoin:round;stroke-miterlimit:4;stroke-dasharray:none;stroke-dashoffset:0;stroke-opacity:1"
       d="m 75.681363,117.97579 h -28.9533"
       id="path7846"
       inkscape:connector-curvature="0" />
    <text
       class="labelbold"
       xml:space="preserve"
       style="font-style:normal;font-weight:normal;font-size:10.58333302px;line-height:1.25;font-family:sans-serif;letter-spacing:0px;word-spacing:0px;fill:#ffffff;fill-opacity:1;stroke:none;stroke-width:0.26458332"
       x="81.066452"
       y="136.72867"
       id="text2498"><tspan
         sodipodi:role="line"
         id="tspan2496"
         x="81.066452"
         y="136.72867"
         style="font-style:normal;font-variant:normal;font-weight:bold;font-stretch:normal;font-size:7.05555534px;font-family:U001;-inkscape-font-specification:'U001, Bold';font-variant-ligatures:normal;font-variant-caps:normal;font-variant-numeric:normal;font-feature-settings:normal;text-align:center;writing-mode:lr-tb;text-anchor:middle;fill:#ffffff;stroke-width:0.26458332">A</tspan></text>
    <text
       id="text2502"
       y="136.72867"
       x="69.050461"
       style="font-style:normal;font-weight:normal;font-size:10.58333302px;line-height:1.25;font-family:sans-serif;letter-spacing:0px;word-spacing:0px;fill:#ffffff;fill-opacity:1;stroke:none;stroke-width:0.26458332"
       xml:space="preserve"
       class="labelbold"><tspan
         style="font-style:normal;font-variant:normal;font-weight:bold;font-stretch:normal;font-size:7.05555534px;font-family:U001;-inkscape-font-specification:'U001, Bold';font-variant-ligatures:normal;font-variant-caps:normal;font-variant-numeric:normal;font-feature-settings:normal;text-align:center;writing-mode:lr-tb;text-anchor:middle;fill:#ffffff;stroke-width:0.26458332"
         y="136.72867"
         x="69.050461"
         id="tspan2500"
         sodipodi:role="line">N</tspan></text>
    <text
       class="labelbold"
       xml:space="preserve"
       style="font-style:normal;font-weight:normal;font-size:10.58333302px;line-height:1.25;font-family:sans-serif;letter-spacing:0px;word-spacing:0px;fill:#ffffff;fill-opacity:1;stroke:none;stroke-width:0.26458332"
       x="57.911552"
       y="136.72867"
       id="text2506"><tspan
         sodipodi:role="line"
         id="tspan2504"
         x="57.911552"
         y="136.72867"
         style="font-style:normal;font-variant:normal;font-weight:bold;font-stretch:normal;font-size:7.05555534px;font-family:U001;-inkscape-font-specification:'U001, Bold';font-variant-ligatures:normal;font-variant-caps:normal;font-variant-numeric:normal;font-feature-settings:normal;text-align:center;writing-mode:lr-tb;text-anchor:middle;fill:#ffffff;stroke-width:0.26458332">I</tspan></text>
    <text
       id="text2510"
       y="136.72867"
       x="46.597229"
       style="font-style:normal;font-weight:normal;font-size:10.58333302px;line-height:1.25;font-family:sans-serif;letter-spacing:0px;word-spacing:0px;fill:#ffffff;fill-opacity:1;stroke:none;stroke-width:0.26458332"
       xml:space="preserve"
       class="labelbold"><tspan
         style="font-style:normal;font-variant:normal;font-weight:bold;font-stretch:normal;font-size:7.05555534px;font-family:U001;-inkscape-font-specification:'U001, Bold';font-variant-ligatures:normal;font-variant-caps:normal;font-variant-numeric:normal;font-feature-settings:normal;text-align:center;writing-mode:lr-tb;text-anchor:middle;fill:#ffffff;stroke-width:0.26458332"
         y="136.72867"
         x="46.597229"
         id="tspan2508"
         sodipodi:role="line">T</tspan></text>
    <text
       id="text2514"
       y="133.8343"
       x="84.487061"
       style="font-style:normal;font-weight:normal;font-size:10.58333302px;line-height:1.25;font-family:sans-serif;letter-spacing:0px;word-spacing:0px;fill:#ffffff;fill-opacity:1;stroke:none;stroke-width:0.26458332"
       xml:space="preserve"
       class="labelbig"><tspan
         style="font-style:normal;font-variant:normal;font-weight:bold;font-stretch:normal;font-size:3.52777767px;font-family:U001;-inkscape-font-specification:'U001, Bold';font-variant-ligatures:normal;font-variant-caps:normal;font-variant-numeric:normal;font-feature-settings:normal;text-align:center;writing-mode:lr-tb;text-anchor:middle;fill:#ffffff;stroke-width:0.26458332"
         y="133.8343"
         x="84.487061"
         id="tspan2512"
         sodipodi:role="line">*</tspan></text>
    <text
       xml:space="preserve"
       style="font-style:normal;font-weight:normal;font-size:10.58333302px;line-height:0%;font-family:sans-serif;letter-spacing:0px;word-spacing:0px;fill:#000000;fill-opacity:1;stroke:none;stroke-width:0.26458332"
       x="-151.36169"
       y="33.085339"
       id="text2518"
       transform="rotate(-90)"
       class="labellight"><tspan
         sodipodi:role="line"
         id="tspan2516"
         x="-151.36169"
         y="33.085339"
         style="font-style:normal;font-variant:normal;font-weight:normal;font-stretch:normal;font-size:2.11666656px;line-height:0%;font-family:U001;-inkscape-font-specification:'U001, Normal';font-variant-ligatures:normal;font-variant-caps:normal;font-variant-numeric:normal;font-feature-settings:normal;text-align:start;writing-mode:lr-tb;text-anchor:start;stroke-width:0.26458332">*</tspan><tspan
         sodipodi:role="line"
         x="-151.36169"
         y="35.266083"
         style="font-style:normal;font-variant:normal;font-weight:normal;font-stretch:normal;font-size:2.11666656px;line-height:0%;font-family:U001;-inkscape-font-specification:'U001, Normal';font-variant-ligatures:normal;font-variant-caps:normal;font-variant-numeric:normal;font-feature-settings:normal;text-align:start;writing-mode:lr-tb;text-anchor:start;stroke-width:0.26458332"
         id="tspan2524">There is no</tspan><tspan
         sodipodi:role="line"
         x="-151.36169"
         y="37.446831"
         style="font-style:normal;font-variant:normal;font-weight:normal;font-stretch:normal;font-size:2.11666656px;line-height:0%;font-family:U001;-inkscape-font-specification:'U001, Normal';font-variant-ligatures:normal;font-variant-caps:normal;font-variant-numeric:normal;font-feature-settings:normal;text-align:start;writing-mode:lr-tb;text-anchor:start;stroke-width:0.26458332"
         id="tspan2522">alternative</tspan></text>
  </g>
</svg>
